21

40 26
13
31 19
38 5
19 24
0 7
35 25
35 17
27 6
27 10
10 9
20 23
26 0
14 25
9 23
326 152

29 43
35
0 42
11 1
1 41
12 2
2 14
24 24
12 37
5 23
22 42
26 4
8 21
4 29
22 24
23 30
25 13
6 41
5 17
14 20
6 32
12 2
23 26
27 34
0 39
4 39
23 17
28 32
25 39
24 12
18 10
18 8
21 42
3 34
23 26
4 37
27 17
330 55

34 26
4
28 3
25 11
17 4
24 14
332 122

33 37
21
27 32
8 4
17 26
11 15
14 17
12 30
16 6
15 32
1 0
9 30
12 33
20 28
28 4
5 30
28 15
2 6
2 13
15 17
24 34
2 1
5 2
61 171

26 12
8
1 10
20 11
23 0
20 7
14 10
5 0
15 6
23 5
206 100

10 6
6
6 4
1 3
4 4
6 1
7 0
8 1
137 129

3 1
38
2 0
0 0
0 0
1 0
1 0
1 0
0 0
1 0
0 0
0 0
1 0
2 0
0 0
2 0
0 0
0 0
2 0
2 0
0 0
1 0
0 0
0 0
2 0
0 0
0 0
2 0
1 0
2 0
2 0
0 0
1 0
0 0
1 0
2 0
0 0
1 0
0 0
1 0
353 111

18 44
26
14 3
0 3
15 20
16 14
10 34
13 30
4 43
15 12
9 30
9 26
1 23
8 2
5 41
1 10
6 19
13 41
4 6
10 39
7 35
14 38
12 0
1 32
15 5
17 42
12 13
1 19
102 22

34 41
13
24 40
18 5
1 37
1 39
28 17
20 24
24 37
22 9
18 12
24 9
12 24
10 23
0 32
188 175

5 21
20
2 20
3 20
2 13
3 1
2 11
2 2
1 3
1 3
4 1
0 6
2 8
4 10
0 16
2 3
3 18
2 6
2 17
4 14
4 17
0 15
221 107

17 33
23
5 32
0 16
9 4
7 13
12 4
5 8
0 17
5 1
0 7
13 30
4 29
8 7
14 21
2 8
8 7
6 21
1 22
0 30
11 19
6 23
12 4
9 27
3 6
379 7

30 50
28
4 41
2 1
10 45
2 34
13 29
6 7
15 31
11 35
4 3
2 29
11 3
2 22
25 45
2 12
8 12
21 49
9 28
20 21
0 15
6 11
0 1
22 26
15 42
27 48
27 2
0 33
5 6
14 16
467 45

24 31
21
20 12
2 10
23 17
4 10
23 14
8 11
9 16
13 9
2 15
8 27
20 6
1 4
3 9
13 28
12 9
19 6
7 6
3 8
6 24
4 1
3 0
268 38

33 41
36
10 32
26 23
16 10
13 23
25 29
19 25
9 21
4 17
23 26
18 4
23 32
16 39
13 21
23 2
10 35
23 29
20 23
29 8
21 40
17 2
13 9
16 21
6 29
24 29
18 24
4 12
5 0
16 20
19 39
4 7
11 9
21 5
22 26
7 31
13 16
27 35
133 1

28 4
40
25 1
2 3
23 1
17 3
10 0
20 3
16 0
22 1
7 2
12 3
3 3
13 2
11 0
9 1
4 3
17 2
14 0
12 3
6 3
19 0
23 0
5 3
11 2
23 0
6 0
14 2
25 0
0 3
19 1
22 3
1 3
4 0
11 0
8 3
2 3
22 1
25 3
23 1
16 1
27 1
156 181

7 8
38
4 1
0 2
1 6
1 3
6 3
2 7
1 2
5 5
3 0
6 7
3 5
0 0
3 1
6 5
6 1
2 1
2 2
5 0
0 4
3 6
3 7
0 2
3 2
2 4
4 0
5 3
0 4
0 1
2 2
5 3
0 7
3 4
3 2
3 1
0 7
5 5
6 1
3 7
137 157

1 29
29
0 16
0 16
0 7
0 0
0 17
0 8
0 3
0 26
0 3
0 7
0 16
0 20
0 28
0 3
0 7
0 27
0 10
0 23
0 1
0 14
0 4
0 14
0 23
0 11
0 7
0 27
0 2
0 26
0 3
26 141

17 10
28
13 1
6 2
14 7
16 3
12 2
7 8
6 8
15 4
3 4
3 5
11 3
12 2
14 3
2 4
5 1
4 0
6 5
16 4
16 1
4 6
2 6
3 3
1 6
15 3
2 5
10 9
13 3
16 5
153 89

14 31
14
5 22
11 14
0 16
6 21
11 6
0 21
7 2
6 10
5 28
13 22
9 15
9 8
12 7
5 21
204 35

27 9
3
5 6
11 4
10 7
23 147

29 19
19
4 1
23 8
7 1
16 15
16 13
23 8
5 12
0 13
9 5
15 2
10 3
19 3
17 1
12 11
17 3
23 14
28 2
6 11
25 10
36 47
