*** Life<Cell> 12x9 ***

Generation = 0, Population = 23.
-0----0-0
------0-0
--00-----
------00-
-0------0
---------
-00------
0--------
--0------
0---0--0-
0--00----
--0--0---

Generation = 23, Population = 11.
.**......
.*.*.....
..*......
.........
-......-.
.........
.........
..-*.....
..***....
.-**.....
.........
.-.....-.

*** Life<Cell> 9x9 ***

Generation = 0, Population = 8.
--0---0--
-0-------
-------0-
---0-----
---------
------0--
---0-----
---------
-----0---

*** Life<Cell> 8x11 ***

Generation = 0, Population = 17.
0------0---
-0-0-00-0--
0---0------
--0-----0--
-----------
---0----0--
0------0---
---0-0-----

Generation = 8, Population = 39.
-*..0*.---1
*.-1-...--*
.-.--**-*-*
..0.**0-.-0
*0-.1--.---
0**1--.**--
10.*0-0.0.-
***100-.-0*

Generation = 16, Population = 23.
-.***..***.
..-*...**1.
.-*--......
..-...-.*.*
.-...*.*11*
-..-.*.*...
......-..**
.....-...1.

*** Life<Cell> 11x10 ***

Generation = 0, Population = 9.
------0---
----------
--------0-
---0------
-----0----
---0------
--0-----0-
----------
----------
-----0----
-0--------

*** Life<Cell> 12x10 ***

Generation = 0, Population = 5.
----------
----------
---------0
-0--0-----
----------
-----0----
----------
----------
----------
--0-------
----------
----------

Generation = 5, Population = 49.
-----0--0-
----0*00-0
00--0*----
1*..-.---0
0-0-----00
0111.---0*
--0-0---01
0-00-0---0
00--000---
-0--0*10--
0-0--00---
-0-0------

Generation = 10, Population = 50.
-000---0--
-*1.-.0---
*0-***0*10
..*.*.1--*
--.----*-.
-*-**0-1..
10----0-0.
..0--.1---
111-1----*
1.---*-.-1
----01-0-0
-111*-*0--

Generation = 15, Population = 59.
1-.--*-1*-
*..**..1.*
.01**.1.10
...**..-*.
*-*1-*0*0*
1.**...*..
.0*0**..1.
..*....*..
*-.**-**0.
*.--.....*
****-.*.1*
0.1**1...-

Generation = 20, Population = 45.
**.*-*-1**
*...**..**
.*...*-*--
..*..**1*.
.-*.-*1.*.
...*.*....
.*.**.....
.*.**.....
.-*.*-*...
..*-*.*...
.*......*.
.*****...-

Generation = 25, Population = 31.
*.*******.
*.......*.
.*..*.**-0
..*.......
.-.**.**..
....*..*..
......*...
..*..*....
.1..*1....
...1**....
..........
.........-

Generation = 30, Population = 30.
......***.
......***.
.....*..-0
..*.......
.***....**
.*.*****..
....**.*..
.....*....
.-........
..**..*...
...**.....
....*....-

*** Life<Cell> 7x11 ***

Generation = 0, Population = 12.
-------0---
----------0
---0--0----
---0--0---0
---0---0-0-
---------0-
--0--------

*** Life<Cell> 7x9 ***

Generation = 0, Population = 7.
---------
-------0-
------0--
---------
-------0-
-------0-
0-----00-

Generation = 15, Population = 27.
-1*...**.
-00*-*1.*
0****....
*-01--.-0
..-..**.-
.--0***.-
....**...

*** Life<Cell> 10x11 ***

Generation = 0, Population = 19.
----0-0----
0----------
----0------
0----0--0-0
--0--------
00---------
------0--0-
----000----
-0---------
--0-0------

Generation = 3, Population = 50.
-01----0100
-0100-001--
00----00--0
---1-0--1--
1---00--0--
1-----*010-
----*01-*00
1-0*-0-*---
-001--*---0
-0--1*---0-

Generation = 6, Population = 48.
0-*-----.01
1*.--10-111
110----1---
--.--.-*.*-
*-01.1----1
*1---*.01-1
1*--..*-*-*
---*-.-.0*-
1-1-1*.-110
-*--.*--010

Generation = 9, Population = 43.
--.-*0--*--
***1..*-.*1
-.1--*0.1--
0-.-1**.**-
**-*..----.
.-1**..*11-
*.-*...1..*
-1-*-.-...-
-0--...-.1-
**-0..-0-*1

Generation = 12, Population = 43.
**.1**--.0.
*......*...
-..01*1..0-
*-*1......-
*.....00-0.
*1.*....1.-
..0*....***
*.0.-.0*..-
-1--...-*.1
**00..-0-**

Generation = 15, Population = 38.
......*..-.
....*.*.*..
-..1-..**--
.1*1.*....*
*..*.***.-*
**...*....-
*.0..*...*.
.*1.-.-.*.*
-.*..*.*.**
.*-..**-0..

Generation = 18, Population = 33.
.........-.
...........
-...-....*.
..**.**.*..
.*...**.***
.*****....1
.*-.....*.*
..*.-*-.*.*
-*...**..*.
..1..**0-..

Generation = 21, Population = 24.
.........-.
...........
-...***....
....***....
**......*..
**..*****.-
..-......*.
....-.-....
..**..**.*.
.*-*....-..

*** Life<Cell> 7x12 ***

Generation = 0, Population = 5.
--------0---
0--------0--
------------
------------
-0----------
----0-------
------------

Generation = 4, Population = 15.
-0--0-------
0-0--0---0-0
--------0---
------------
-0---0--0---
----0---00--
-0----------

Generation = 8, Population = 11.
1--*----0---
-0-.--001---
-----.------
--------0---
-----0...---
--0----.1---
------------

Generation = 12, Population = 36.
-**.0-10.---
1-1*1-*--*01
00-1-.------
--*-0-0.----
11-01**..-1-
010-0-*.--1-
-----01-*0--

Generation = 16, Population = 30.
-**.-*--.*--
*0..*.*0-.-.
-.-.-.1-*1--
*..01-1*--1-
**-*1...*-.-
1....-..1-.*
*.0-1-.0.---

Generation = 20, Population = 33.
-**.-.-****-
*-....**-.1*
*.-*..*-..*0
..*-11*.0-.*
*.0.-....-.*
*...*-*..-..
..---**-*1-1

Generation = 24, Population = 28.
-***-.*****-
*-.*...**...
..-.**.-....
.....1..1.*.
**....*.***.
.....-*.*-..
..0-.*.-..1-

Generation = 28, Population = 15.
1.**.....*.-
.0......*.*.
..-....1...*
........*.*.
............
.....-...*.*
..0-...-.*--

Generation = 32, Population = 25.
.***.....**-
.-.*...*...*
..**...***.*
.......**..*
.........***
.....-...***
..0-...-..*.

Generation = 36, Population = 8.
...........-
.-.**.....**
......***...
............
............
.....-......
..0-...-....

*** Life<Cell> 12x8 ***

Generation = 0, Population = 9.
--0-----
-0-----0
-0------
----0-0-
--0-----
--------
--------
--------
-------0
--------
--------
-0------

*** Life<Cell> 9x11 ***

Generation = 0, Population = 16.
0----------
----0-----0
-0-00------
-0------0--
------00---
----------0
----0------
0---------0
-0-0-------

Generation = 2, Population = 35.
-1001------
-10---0---0
1*0*-1-0---
---11-1---0
-1-001--00-
00---------
-001---0---
0-0-----0--
----10-----

Generation = 4, Population = 40.
-1*0*-10---
0.--*-0----
*.*.11-01--
1--*10-----
0*0--*----0
----1-0-1-0
1--.1---0--
01*-1-0---0
-0--.*1----

Generation = 6, Population = 40.
-*.-.----0-
*.1-*1*-1--
.*.**-1-.1-
1-1.*-*11-1
0.*0-.1-*-*
----.-0-.-*
*--.1-0----
-.*-*---1--
0*--**11---

Generation = 8, Population = 46.
-..0*1-1---
**11*-*01--
*.*..-1-.-0
*-*.*1*--1*
*..--*--.-*
1-11.-0-.-*
.1*..0*1*--
0..0.-1----
*.-1**-.00-

Generation = 10, Population = 50.
-**0**-*-00
*.*.**.-.--
*.*..-11.--
*1*****-*.*
*..*1.--.1*
.-1..1-0.1.
.....*.-*11
*.*-.1*0--0
..-1**-.**1

Generation = 12, Population = 42.
-*.0..1.---
*.....*-*11
**...-1..--
*1...*.-*.*
**..-*--*1.
**-..*--*1.
..*..*.*.*1
...1...**10
..0.**-*.*1

Generation = 14, Population = 35.
0..-.***---
.....*.-.1*
..*..1..**-
.****..*...
..*.-.--.-.
..-...-0*..
.**.*..**.1
.**-.*.**1-
..-**.1...1

Generation = 16, Population = 44.
-..-****1--
....*..-.1*
.***..*.**-
*...*...*..
**..**11*-.
*.-.*.--**.
**.**...*.1
.*.-.**..**
..0.**-.**-

Generation = 18, Population = 40.
-..1*****-*
.*.....-.1.
.**..****.1
*..........
**.***1-.-.
..1..*--...
*..***..**.
*..*..*...*
..-.**-***-

Generation = 20, Population = 41.
-.********.
**.*...-.1*
*..*...***-
...........
*.******.-.
*.-...-0...
.******....
...*......*
..-.******-

Generation = 22, Population = 37.
-.*******.*
.....*.1...
........**-
.....*.**..
**.**..*.-.
*.1...*-...
.******.*..
..*......*.
..-..***.*1

Generation = 24, Population = 41.
-..*.*.**..
...*.*.*.*.
....**.*.**
.**.*.**.**
*.*.*...*-.
*.*....1*..
..**.***...
.***......*
.*1.....*.*

Generation = 26, Population = 26.
-.....****.
.......*.*.
.**.**.*.**
..*....*...
..*......-.
.*..*..-*..
....*....*.
...**.*..*.
..-.....*..

Generation = 28, Population = 30.
-.....*....
..*....*.**
.***..****.
.......***.
.*.*...*.-.
...**..-*..
.....*.*.*.
...***..**.
..-.*......

Generation = 30, Population = 25.
-.*........
.*.*.......
*...*....**
.*......*..
.*...***.*.
..*....-.*.
..*......*.
...*....**.
..1*.**....

Generation = 32, Population = 21.
-***.......
*..*.......
...*..****.
.....*....*
...........
......*-...
.*..*..*...
........***
..*.*......

Generation = 34, Population = 24.
0*.**......
.*..***..*.
...**......
.....**..*.
.......**..
.......1*..
.......*.*.
.......*..*
........**.

Generation = 36, Population = 25.
-.**.......
*...*......
....****...
....*****..
.........*.
......**.**
.........**
......**..*
........**.

Generation = 38, Population = 13.
-..........
...**......
...***.*...
........*..
.........*.
...........
...........
.......*.*.
.......***.

*** Life<Cell> 10x12 ***

Generation = 0, Population = 14.
---------0--
---------0--
------0----0
-------0---0
----0------0
------------
-------0----
-0----------
----0------0
-0-0--------

*** Life<Cell> 7x10 ***

Generation = 0, Population = 7.
-0--------
--0-----0-
---------0
----------
-------0--
----------
00--------

*** Life<Cell> 8x11 ***

Generation = 0, Population = 13.
-----------
--00--0----
--00------0
-----------
----00-0---
------0--0-
--------0--
-0---------

Generation = 23, Population = 21.
...**...***
..*.*.....*
..*-...*...
...........
...*...**..
...*.****..
..*...*...-
...*-......

*** Life<Cell> 10x10 ***

Generation = 0, Population = 16.
---------0
0----0--0-
--------0-
---0------
----00----
-0---0----
----------
0-0-------
-----0-0--
-0-0------

Generation = 4, Population = 37.
----0--0*-
0-0------1
----*.--11
0-1--.-0*-
01---0**0-
10-0----00
--------1-
01*.*-1---
-0-.1--0--
1-0--*-1--

*** Life<Cell> 10x10 ***

Generation = 0, Population = 16.
----------
----------
------0--0
---000--0-
0---------
------00--
-------0--
-0-------0
------0---
0-00------

*** Life<Cell> 10x8 ***

Generation = 0, Population = 17.
-0-0----
0-0--00-
0--0-0--
00------
-----00-
0-0-----
---0----
-------0
--------
--------

Generation = 10, Population = 38.
.-0.*1..
.--*1.**
-.110***
1..*.**.
1*-*.*..
*--1.1--
**--..0.
-.0.1-*1
---*..*0
00-.-00-

Generation = 20, Population = 30.
..0.*...
.**.**..
........
.......*
.*..***.
*.****.1
*.....*.
..-*.-.1
*....***
-..****0

*** Life<Cell> 7x12 ***

Generation = 0, Population = 14.
------0----0
-00-------0-
------------
---0-00-----
----0-------
-----0----0-
---0-0----0-

Generation = 7, Population = 42.
--11*-.-1.1-
1*.-.-.---10
***01-*10-.1
-...-11**.**
10*--.100-.*
*1*0-.*--*--
-1-0-1--0..1

Generation = 14, Population = 22.
--.**.......
-.*-.-..*-..
..*-*...11.*
-*..*.-**..*
.*.*1...*1.*
.-.--......-
-.1...0.-...

Generation = 21, Population = 25.
.-*......*..
-**..0..***.
**.....*....
**.....*.**.
.*......*...
...1*......-
-****.0.....

Generation = 28, Population = 26.
.-....*.....
-....-.**...
.*..**.*....
*...**...*..
**.......**.
*.****.*.*.-
-***....*...

*** Life<Cell> 9x8 ***

Generation = 0, Population = 4.
--------
--------
------0-
--------
--------
0-------
----00--
--------
--------

Generation = 5, Population = 31.
0----0-0
-00-00--
00--1-10
--0-000-
--0-1---
0-.--0-0
1*-.1-..
00--00-0
---0..0-

Generation = 10, Population = 30.
---1..-0
*1*-1---
*0.-*-.-
1111.01-
-0*-.-*.
*0.--*--
....*-..
0-0-1.*1
-011..--

Generation = 15, Population = 31.
011*.*--
.*.-*-*-
..*-*..1
1-..*-*-
.*.-.-..
*-.1**.0
*..*.*..
0*.*.*..
***...*-

Generation = 20, Population = 33.
-*-...*-
*..-*..-
*.*1...-
*-*****1
.*.1.0..
*.*..*.1
*.***.**
*..**...
..***...

Generation = 25, Population = 30.
*.*****-
*.*0***-
*..1*.*1
**....**
.*...0**
........
..**..**
.*......
........

Generation = 30, Population = 17.
........
...0....
.**-....
**.*.***
**......
.*......
.*.*....
.*.*....
..*.....

*** Life<Cell> 9x9 ***

Generation = 0, Population = 18.
-0---0-0-
----0--0-
---0-----
-------0-
---------
0-----00-
0--0----0
0--0-----
0-0----0-

*** Life<Cell> 7x12 ***

Generation = 0, Population = 17.
------00---0
---000----0-
---------0--
--------0-0-
---00-00-0--
------0-----
------0-----

Generation = 2, Population = 33.
----10**10--
-01*-*01--0-
---11--0-0--
---110--0---
-01-*--*1--0
----1-----0-
---0---100--

Generation = 4, Population = 36.
--1-.**.1*00
1*-*0.**01--
---.-1-*----
----1-1---0-
1-.*.0-.1-00
--10*10-----
--100-*.--0-

Generation = 6, Population = 36.
1-1-**..1.0*
..-.*...---1
1-0.-1-.0---
1001111-*1--
1-*..--.10-*
11-0..--1-0-
-1----**---1

Generation = 8, Population = 41.
---0**..-.**
.*1...*.1--*
*-**-.0**0--
*-0--..-*1--
1-...-1.*01.
--*-*.10*10-
0***--**-1-1

Generation = 10, Population = 47.
11-***.*****
.*1....*.10.
*-.***-*.-1-
.--11.*0..-0
**.***...0-.
-1.1...**10-
**.*-1*.1*11

Generation = 12, Population = 37.
.--*..**....
.**.*...*1**
.0..**-**0.0
*1-**..-**1-
...**...*-1.
-1.-.*...100
**..0.*.-...

Generation = 14, Population = 38.
.*1*....***.
.****.**...*
.0....-.**.*
*--.*.*0*.-0
*..*.....-1.
1..-.**..***
**..0...-***

Generation = 16, Population = 32.
.*.*...****.
*.*.**.*...*
**....-.*..*
.1-....0*.-*
**.***...-..
-.**.*..*.*.
....-*..*...

Generation = 18, Population = 30.
.*..*.*.***.
*...*.*....*
..*.**0.*.**
*-*.**.-..**
*........-..
-..*.....*..
.***-*......

Generation = 20, Population = 22.
.......****.
......*.....
......0*.*.*
.1.***.-...*
**.......-.*
**..........
.***-.......

Generation = 22, Population = 19.
.......**...
......*..*..
.*.**.0*....
.*..*.*-....
.*.**.*..-..
.*.*........
.*..-.......

Generation = 24, Population = 23.
......**....
...***..*...
.****.**....
*.....*-....
...***...-..
*...*.......
.***0.......

Generation = 26, Population = 19.
.....***....
........*...
.**...**....
.*.**.*-....
..*.**...-..
.*..........
.**.0.......

*** Life<Cell> 8x7 ***

Generation = 0, Population = 14.
-------
-0-0---
----0--
0--0---
-0-00-0
0--0--0
0------
-----0-

*** Life<Cell> 11x12 ***

Generation = 0, Population = 9.
------------
---------0--
------00----
--------0---
------------
------------
------------
---------0--
0----0------
0-0---------
------------

*** Life<Cell> 9x7 ***

Generation = 0, Population = 10.
-------
-----00
-0-----
--00---
-------
-0-----
-0-----
------0
0----0-

Generation = 23, Population = 18.
.*--...
*.*..-.
..*..1.
...*.-.
....*.0
....**1
*..1.10
....*.-
..**-.-

*** Life<Cell> 11x8 ***

Generation = 0, Population = 17.
---00---
00-0----
--0-0---
--------
--------
-----00-
--------
00------
0---0--0
-------0
00------

Generation = 22, Population = 13.
........
....0**.
.-...**.
.....**1
-....*.*
......**
.......1
......-.
........
..-.....
...-..-.

*** Life<Cell> 7x12 ***

Generation = 0, Population = 15.
------------
---0--0-----
-00---00-0--
-00---------
-00-----0---
-00-0-------
------------

Generation = 20, Population = 26.
-.*..1......
.*.*....1..-
......1.**..
.**...*.....
.***.*.1...*
.**..***.-.*
.**...*.....

*** Life<Cell> 10x11 ***

Generation = 0, Population = 16.
-000-------
-----------
---------0-
0----------
-----0-0---
--------0--
------0-0--
--------00-
0-------0--
-0----0----

Generation = 24, Population = 10.
...........
........*..
-.....*....
.....-.***.
.......1...
.....-.....
..........-
...........
.**........
**......-..

Generation = 48, Population = 6.
...........
...........
-.......*..
.......*.*.
.......*.*.
.....-..*..
..........-
...........
...........
........-..

*** Life<Cell> 9x11 ***

Generation = 0, Population = 16.
------0----
------0----
---0-0-----
---0--0-00-
0----------
-----0-----
-00---0----
-------0---
--0-------0

Generation = 5, Population = 57.
---111*-001
00-.01.0--*
-0-.01.10*-
-0*--*0-*--
-1-1*.*000-
-**000*00.-
--*.-0--1--
00*0-0*-*10
-.*0-0101--

*** Life<Cell> 9x11 ***

Generation = 0, Population = 15.
------0----
---------0-
------0----
----0-0----
-0---------
0--0--0----
-0---0-0---
-----0--0--
--------0--

Generation = 18, Population = 41.
-.*....**-.
-.*...***..
**.****.*.*
-.***1*.*.*
.**.*...1.0
.....--*..*
1...***-.**
*...*...*..
1*.*-.-....

Generation = 36, Population = 16.
-...*......
..**.*.....
.**..*.....
.***.......
..........-
...........
.....**....
......*....
....**1....

*** Life<Cell> 12x9 ***

Generation = 0, Population = 2.
---0-----
---------
---------
---------
-----0---
---------
---------
---------
---------
---------
---------
---------

Generation = 17, Population = 19.
------0-0
-------0-
---------
-0---0---
0-0-0-0--
-0---0---
---------
---0-----
--0-0----
-----0---
--0---0--
---0-0---

Generation = 34, Population = 13.
-0---0---
---------
-0-----0-
---------
-0-0-0-0-
---------
---0-----
---------
---0-0---
---------
---0---0-
---------
