28

15 9
11
11 5
8 1
11 5
1 5
4 1
12 6
1 4
14 6
7 6
8 7
4 4
13 8

11 6
16
1 2
8 5
5 5
5 5
8 0
1 2
4 0
3 5
2 4
2 5
3 3
6 4
10 1
0 3
1 2
1 5
9 2

16 19
5
0 14
4 3
6 16
7 18
10 6
2 13

13 15
12
5 12
4 6
7 6
3 5
11 12
5 5
4 13
4 0
11 10
8 0
1 0
10 14
16 8

7 7
10
5 3
0 4
4 3
0 4
1 4
2 6
2 4
0 2
3 5
1 1
15 18

20 7
5
18 4
1 1
18 0
8 1
15 5
12 10

12 7
20
3 4
0 4
0 0
1 6
8 0
2 6
6 6
1 2
2 5
10 6
10 2
3 1
1 6
1 5
11 6
1 0
10 4
9 3
3 0
9 1
12 1

6 14
15
5 13
1 10
5 13
2 3
3 5
5 2
2 10
1 11
4 6
4 10
1 3
0 3
2 4
0 5
1 3
13 8

17 7
16
15 1
3 4
10 4
10 0
8 6
8 5
13 4
3 2
9 4
7 2
13 2
13 6
15 5
12 1
12 0
16 6
4 8

17 5
11
10 3
4 2
7 2
3 2
9 0
8 0
6 3
6 0
11 4
11 2
1 0
12 16

6 16
15
0 15
4 10
1 12
4 14
1 5
2 2
4 1
1 2
0 13
3 14
3 2
4 10
1 8
4 13
2 9
20 7

12 17
9
5 14
6 2
1 14
7 12
4 5
5 6
8 4
4 14
5 0
2 1

16 15
8
10 9
6 4
8 11
13 13
12 2
13 8
13 11
7 13
3 12

10 14
5
4 5
9 7
6 6
2 7
2 5
8 2

20 20
6
12 7
5 4
3 17
16 8
19 15
11 2
7 12

13 12
20
4 3
12 1
12 5
6 3
1 2
11 10
9 2
3 3
6 0
8 1
11 4
11 4
2 7
11 11
12 11
6 11
12 3
11 11
0 11
7 10
7 18

6 19
16
1 17
1 8
0 1
3 1
2 18
0 17
2 13
5 18
3 18
0 15
2 7
1 17
3 15
5 10
5 10
1 13
16 8

8 17
8
3 13
3 15
0 13
1 14
5 9
3 3
2 4
7 0
5 17

20 13
18
10 10
16 10
5 3
5 4
8 6
1 5
6 12
3 3
6 4
13 7
2 10
13 9
10 6
9 9
12 4
3 1
16 6
15 0
3 8

17 18
17
0 11
1 13
0 10
4 1
12 10
15 15
0 11
6 6
13 5
0 16
16 14
9 1
12 3
11 15
13 4
1 8
14 12
8 16

13 13
9
2 10
2 10
2 8
12 6
9 12
6 2
11 8
4 5
3 8
14 10

15 7
17
3 6
8 0
14 2
7 6
11 2
11 1
0 1
3 5
7 5
12 4
14 6
4 1
13 5
13 4
13 3
5 6
13 2
6 2

6 5
9
1 3
1 0
5 2
2 1
3 1
2 1
2 2
4 4
0 0
8 2

16 8
13
5 2
2 0
11 6
14 0
13 6
7 4
0 4
8 5
14 0
6 3
12 3
1 7
4 6
17 2

8 15
10
5 3
0 14
0 1
1 5
2 0
0 8
2 12
2 14
1 7
5 7
16 10

14 9
8
9 1
10 0
12 3
11 6
9 3
0 4
10 2
11 4
19 15

17 11
16
13 0
14 7
8 2
2 1
14 9
9 6
12 6
7 4
16 8
16 7
9 9
11 8
5 0
11 4
4 0
5 3
11 9

12 14
18
5 9
4 4
3 0
2 9
8 1
8 2
8 11
3 11
0 10
1 5
5 13
3 13
1 12
2 13
2 6
2 12
7 10
9 0
15 16
