22

11 9
9
1 8
2 4
3 4
1 8
6 8
3 7
8 6
1 2
7 2
10 146

13 13
22
0 4
6 0
11 12
1 4
11 11
1 0
0 1
4 8
5 8
3 4
3 10
8 2
11 4
0 3
1 5
0 4
0 10
6 2
5 8
3 10
10 11
5 12
195 168

14 28
29
10 11
2 2
2 8
0 17
12 13
1 22
5 24
6 22
9 7
9 15
13 12
11 19
8 19
0 13
11 12
3 2
7 3
4 18
9 19
5 19
3 25
12 3
4 17
7 19
6 14
4 18
9 7
10 27
11 15
126 146

26 27
8
2 19
6 9
3 10
3 3
9 4
15 15
19 26
16 15
186 195

30 9
10
17 3
19 0
4 7
19 7
28 1
16 0
28 3
0 1
7 6
12 7
152 44

24 17
17
2 3
4 11
20 14
3 7
12 4
5 10
22 16
14 13
16 2
20 15
22 16
20 7
19 5
6 15
13 5
6 16
6 5
182 44

15 5
30
3 1
1 3
11 1
9 0
3 0
13 4
12 3
13 0
5 2
9 1
5 3
9 2
3 3
11 4
3 0
5 1
10 4
6 1
12 0
11 2
9 0
11 4
9 1
2 4
0 1
6 2
0 3
3 3
5 3
6 4
192 64

18 21
9
17 0
13 12
6 11
0 11
8 6
7 7
16 0
2 3
4 2
160 139

14 21
29
10 9
5 16
4 15
0 19
10 20
11 19
4 4
6 3
9 4
13 8
9 13
1 13
10 5
6 13
7 7
5 9
13 5
6 4
5 4
10 6
7 19
7 12
7 1
2 8
13 10
2 9
2 20
11 12
8 12
18 174

11 23
19
4 14
7 6
9 7
8 22
7 11
5 5
10 18
4 8
0 11
3 16
0 21
5 18
3 12
10 7
4 10
8 5
5 5
1 6
10 7
197 185

18 25
17
15 12
3 19
15 16
2 13
6 21
9 21
16 17
12 9
5 5
11 22
17 15
9 0
0 18
8 6
9 0
14 16
8 3
57 110

15 26
16
1 12
8 15
8 9
7 15
12 8
1 16
6 4
14 2
11 6
10 19
6 4
1 20
4 16
4 16
4 16
0 2
6 114

13 28
26
0 26
0 22
11 6
6 17
6 13
2 23
11 6
2 2
9 20
11 21
4 8
2 27
4 4
7 9
7 13
2 1
2 0
2 6
1 2
1 25
2 21
8 20
1 3
1 21
1 12
10 5
176 86

16 13
25
6 12
4 10
8 6
11 0
3 0
1 3
15 9
8 2
8 1
10 8
14 8
15 12
12 2
3 4
14 4
15 4
4 2
13 9
11 6
10 6
0 11
0 11
3 7
2 1
7 10
186 154

10 19
3
0 13
2 1
5 0
1 14

11 6
27
2 4
3 0
7 0
8 1
7 4
6 3
9 3
3 2
1 2
6 3
4 1
6 0
7 2
2 5
8 1
1 0
9 2
5 4
8 4
5 3
9 2
6 1
8 1
6 0
2 3
2 1
7 5
112 73

15 9
28
7 4
14 7
3 3
14 3
14 7
12 4
12 6
3 0
0 0
10 3
2 3
1 4
13 0
5 8
7 4
1 8
3 5
2 6
14 0
0 2
11 0
6 2
12 1
12 0
2 4
2 4
9 0
2 0
137 190

27 29
29
2 19
16 2
1 21
1 1
2 12
0 12
19 15
19 20
20 26
21 13
15 21
6 16
11 2
17 23
22 1
0 10
26 0
15 24
7 20
24 23
7 4
20 24
5 17
4 19
0 21
15 18
16 25
24 8
24 7
120 82

16 18
16
14 3
3 1
11 15
6 15
10 13
1 13
13 4
10 10
9 9
5 14
14 6
8 6
1 12
8 14
5 9
13 15
13 81

6 17
30
0 6
1 0
1 16
3 16
1 15
4 0
2 4
4 1
0 16
1 2
5 5
0 10
2 14
4 14
4 0
4 9
3 7
2 14
1 14
5 11
0 14
5 8
4 7
2 16
1 10
4 0
3 4
0 12
0 13
1 10
29 152

8 6
6
0 1
4 1
2 4
2 3
3 4
2 2
152 58

24 30
11
20 3
9 11
17 15
20 3
14 16
11 16
0 19
4 5
17 22
5 20
11 10
129 101
