*** Life<Cell> 45x11 ***

Generation = 0, Population = 18.
-----------
-----------
-----------
-------0---
-----------
-----------
--------0--
-----------
---------0-
-----------
-----------
-----------
----0------
-----------
-----------
-----------
-----------
--0-------0
-----------
-----------
------0----
-----------
------0----
------0----
------0----
-----------
-----------
---0------0
----0-----0
-----------
-0---------
-----------
-----------
-----------
-----------
-----------
-----0-----
-----------
-------0---
-----------
-----------
-----------
-----------
-----------
-0---------

Generation = 86, Population = 63.
...........
...........
...........
...........
...........
...........
...........
..*........
.*.*.......
*...*...*..
.*.*...*.*.
..*....*.*.
........*..
...........
..........-
...........
...........
...........
...........
...........
...........
**.........
**.........
...........
...........
**......**.
**....***.*
......**..*
...**.**.**
...**.....*
.........**
...***....*
..*.*...***
...*.....*.
.......**..
........**.
..*....***.
..*........
..*........
...........
...........
-..........
...........
...........
...-.......

*** Life<Cell> 28x11 ***

Generation = 0, Population = 4.
-----------
-----------
-----------
----0------
-----------
-----------
-----------
-----------
-----------
-----------
-----------
0-----0----
-----------
-----------
-----------
-----------
-----------
-----------
-----------
-----------
-----------
-----------
-----------
-----------
-----------
0----------
-----------
-----------

Generation = 33, Population = 40.
-----------
-----------
--0-------0
-0-0-----0-
0-0-------0
-0---------
0----------
-----------
-----------
-----------
0-----0----
-0---0-0---
-----------
-0---0-0---
0-----0----
-----------
-----------
-----------
0-----0----
-0---0-0---
0---0-0----
---0-0-----
----0------
-----------
------0-0--
-----0---0-
----0-0-0--
---0-0-----

Generation = 66, Population = 39.
-----------
------0---0
-----------
------0-0-0
-----------
0---0---0-0
-----------
0---0-0----
-----------
0-0--------
-----------
0-0-----0--
-----------
0-----0----
-----------
0-----0----
-----------
--0-0---0--
-----------
--0---0----
-----------
0----------
-----------
0-----0-0--
-----------
0-0-0-0-0-0
-----------
0-----0-0--

Generation = 99, Population = 66.
0-0-0---0--
-----0-0-0-
0-------0--
-0---0-----
--0-0------
-----------
----0-----0
---0-0---0-
--------0--
---0-0-0---
--0--------
-0---0-0---
--0---0-0-0
---0---0---
0-0-0-0----
---0-------
------0----
---0-0-0---
------0-0--
---0---0-0-
--------0-0
---0-----0-
--0-0------
-0-0-0---0-
--------0--
-0-0-0-0---
0---0-----0
-------0-0-

Generation = 132, Population = 28.
-----------
-----------
-----------
0---0---0--
-----------
-----------
-----------
--0---0-0-0
-----------
0----------
-----------
----0-----0
-----------
--0-0------
-----------
0-----0-0--
-----------
0----------
-----------
0-0---0----
-----------
------0-0--
-----------
0---0-----0
-----------
--0-0------
-----------
0-------0--

Generation = 165, Population = 75.
----0---0-0
---0-0-0---
--0-0-0----
-0-0-0-----
0-0-0---0-0
-0-0---0---
0-0-----0--
-0-------0-
0-0-0------
-0---0---0-
--------0-0
-0---0-0-0-
--0---0----
---0-----0-
0-0---0-0-0
-----0---0-
----0-0-0-0
---0-0---0-
0---0-0---0
-0---0-0---
0---0------
---0---0---
--0---0----
-0---0-----
-----------
-0---0-----
--0--------
---0-0-----

Generation = 198, Population = 41.
-----------
--0---0-0--
-----------
--0-0---0--
-----------
----0---0-0
-----------
--0-0---0-0
-----------
0-0---0-0-0
-----------
--0---0-0--
-----------
------0---0
-----------
0-------0--
-----------
0-0---0----
-----------
----0-----0
-----------
0-----0---0
-----------
0---0---0-0
-----------
--0-----0--
-----------
0-----0----

Generation = 231, Population = 76.
-----------
-----------
0-0-0-0---0
-------0-0-
----0---0-0
---0-0---0-
----0-0---0
-----0-0---
0---0-0---0
-0-0-0---0-
--0---0---0
-------0---
--0-0---0-0
-0---0-----
0---0-0-0-0
---0-0-----
------0----
---0---0---
0-----0-0-0
-0-0-0-0---
------0---0
-0-0-----0-
0-0---0-0-0
-0---0---0-
-----------
-0---0---0-
----0-0-0--
-0-0-0-----

Generation = 264, Population = 29.
-----------
------0-0--
-----------
-----------
-----------
0----------
-----------
------0-0--
-----------
0----------
-----------
--0-0-----0
-----------
0-----0----
-----------
0----------
-----------
------0-0--
-----------
--0-0-----0
-----------
0---0-0----
-----------
------0-0--
-----------
------0-0--
-----------
0-0-0-0---0

Generation = 297, Population = 80.
0-0-0-0---0
-------0-0-
0---0-0----
-0-0-----0-
----0------
-0---0---0-
--0-0-0-0-0
-----0---0-
----0-0----
---0-0-0-0-
0-0---0-0-0
-------0-0-
------0-0--
-----0-0---
0-0-0-0---0
-----0---0-
0-------0--
-0---0-0---
--0-0-0---0
-----0---0-
0---0-0----
-0-0-0-0-0-
--0-----0-0
-----0---0-
0----------
-0---0---0-
------0----
-0-----0-0-

*** Life<Cell> 37x35 ***

Generation = 0, Population = 5.
-----------------------------------
0----------------------------------
-----------------------------------
-----------------------------------
-----------------------------------
-----------------------------------
-----------------------------------
-----------------------------------
-----------------------------------
-----------------------------------
-----------------------------------
-----------------------------------
-----------------------------------
-----------------------------------
-----------------------------------
-----------------------------------
-----------------0-----------------
-----------------------------------
-----------------------------------
-----------------------------------
-----------------------------------
-----------------------------------
-----------------------------------
-----------------------------------
-------------------0---------------
-----------------------------------
------0----------------------------
-----------------------------------
-----------------------------------
-----------------------------------
-----------------------------------
-----------------------------------
-----------------------------------
-----------------------------------
-----------------------------------
-------------------------------0---
-----------------------------------

Generation = 28, Population = 440.
-----11------0-0-----0-0-----0-----
0-0-*-.-*-0-0-0-0-0-0-0-0-0-0------
--0-----.*0------0-0-----0---------
------.----------------------------
-0-------0-0-----0-0-----0-0-----0-
0-0-0---000-0-0-0-0-0-0-0----------
0--0--0---1--00------0-------------
11-1-----001-------------------1---
-1---0-1-..-0*.*-----0-0-----0-*-0-
.-**-1*1.*1-*-.-*-0-0--------------
*.-.-*-0------.-.*0----------------
*-**0-.--.0---.------------1-------
-.0.0**.*-*10------0-----0-0--0-01-
-1**1-..**-.-*--0-----------000--0-
-1..*.0-...-01*00-----0----01----00
0**..1..**-.*.-*--0----1---1*..*-*1
.**......**--.-.-*0----0-0----*--*0
1..-1-....-...*1-.00---------.-10.*
-.10..*.*.*.-.*--.-0*------*.-..1*1
-.**1*...-1-*.0--.1--00-1-*1-..1...
1-*01*.--*..-*..--**-100-*1-*-.-.1-
-.0*.-*.*.----1.**--0-0-1*-*-.-.-.-
0-1-1.0..*..**...*--1**1.0.*.-.*..1
-01..0-.*.-...1.-*0.-.*-**..*.-....
1-1..**0*..***-*.*....01-.****0.*--
1*.-.*.1...-1.0.-..*.*--.-1..*.11--
-0.-.1-*..**.....***.-.*1***1*...1.
1--...*...1.0..*..0.0.1-.*....1...*
--1-**-.*..*..1.****-.**-**....-..-
0--01-10-..*-1*--.1*0-..00.*...1-1-
0--.0*-.-01........-.*-.*-1.0--1-00
---1---01-0**-1******1-.*.1**-10---
--.-1-----10--.*.*-*..*.-..0.---0-0
-------*0*.10-1.*00.1.---0...*-0-0-
--1-*-000-1-.-*.*--..1.-*-1*-11-0--
---1----1-1---1..*.***01-.*-1..11--
0--0--0--10-1--***-**10--***---0---

Generation = 56, Population = 292.
..........*....*1*.*-...*******-...
.........*.*.11...*.*.......***...*
...........*..*...**...-.....*....*
.......*........***1..**1..........
.....-.*..*..........***-........**
.....-..**.......*1.-**...1*.*...**
...........**.......**..--**.*.**..
................*.****....*...*.*..
.......**.**...*.*......**.**...*.-
......................**.*..*-..*..
.......**.*.....*..-.**..*..*....*.
......*...*..*...*...*.****...***..
-....**.**.............1.*...*...*-
.***...***...*.........*.*.........
.*.*.........*.*...............***.
**.*..............*..*.*-..........
*..*...........*...*.*....***......
...*...............****...**.......
.**-............**....10...........
..**...............................
...**.......*......................
..**.......*.........**............
..*........*..*.....*..*.......*..*
.........**.**..-....*.*......*...*
........*..***.*.*...*..*.....*....
...*...*..*........*..**.......*.**
..*.*..*..*......*.*..........**.**
-*.....*..*..*.*..*............**..
..*.*...*.**.**....................
..*..*......-**...................-
...*.....*...*......*....**........
...*..*..*...*.....****.***........
**...**.......*...*.*.*............
**.......*....**.**...*.**.........
.........*..*.**..*.*...**-........
.........******....**.*.*...**...-.
....................****....**.....

*** Life<Cell> 43x48 ***

Generation = 0, Population = 2.
-------------0-----0----------------------------
------------------------------------------------
------------------------------------------------
------------------------------------------------
------------------------------------------------
------------------------------------------------
------------------------------------------------
------------------------------------------------
------------------------------------------------
------------------------------------------------
------------------------------------------------
------------------------------------------------
------------------------------------------------
------------------------------------------------
------------------------------------------------
------------------------------------------------
------------------------------------------------
------------------------------------------------
------------------------------------------------
------------------------------------------------
------------------------------------------------
------------------------------------------------
------------------------------------------------
------------------------------------------------
------------------------------------------------
------------------------------------------------
------------------------------------------------
------------------------------------------------
------------------------------------------------
------------------------------------------------
------------------------------------------------
------------------------------------------------
------------------------------------------------
------------------------------------------------
------------------------------------------------
------------------------------------------------
------------------------------------------------
------------------------------------------------
------------------------------------------------
------------------------------------------------
------------------------------------------------
------------------------------------------------
------------------------------------------------

Generation = 63, Population = 190.
--------------0-----0---------------------0-----
---------------0-----0-------------------0-----0
----------------0-----0-----------------0-----0-
-----------------0-----0---------------0-----0--
------------------0-----0-------------0-----0---
-------------------0-----0-----------0-----0----
--------------------0-----0---------0-----0-----
---------------------0-----0-------0-----0------
----------------------0-----0-----0-----0-------
-----------------------0-----0---0-----0--------
------------------------0-----0-0-----0---------
-------------------------0-----------0----------
--------------------------0---0-0---0-----------
---------------------------0-0---0-0------------
------------------------------------------------
---------------------------0-0---0-0------------
--------------------------0---0-0---0-----------
-------------------------0-----------0----------
------------------------0-----0-0-----0---------
-----------------------0-----0---0-----0--------
----------------------0-----0-----0-----0-------
---------------------0-----0-------0-----0------
--------------------0-----0---------0-----0-----
-------------0-----------0-----------0-----0----
------------0-0-----0---0-------------0-----0---
-----------0---0-----0-0---------------0-----0--
----------0-----0-----------------------0-----0-
---------0-------0---0-0-----------------0-----0
--------0---------0-0---0-----------------0-----
-------0-----------------0-----------------0---0
------0-----------0-0-----0-----------------0-0-
-----0-----------0---0-----0--------------------
----0-----------0-----0-----0---------------0-0-
---0-----------0-------0-----0-------------0---0
--0-----------0---------0-----0-----------0-----
-0-----------0-----------0-----0---------0-----0
0-----------0-------------0-----0-------0-----0-
-----------0---------------0-----0-----0-----0--
0---------0-----------------0-----0---0-----0---
-0-------0-------------------0-----0-0-----0----
--0-----0---------------------0-----------0-----
---0---0-----------------------0---0-0---0------
----0-0-------------------------0-0---0-0-------

Generation = 126, Population = 249.
---------0-0-0-----0-----0-----------0-------0-0
------------------------------------------------
-------0-0-0-----0-0-0-0-0-0-------0-0-0--------
------------------------------------------------
-----0-0-0-----0-0-0-----0-0-0---0-0-0-0-0---0-0
------------------------------------------------
---0-0-0-----0-0-0---------0-0---0-0-0-0-0---0--
------------------------------------------------
-0-0-0-----0-0-0-------------------0-0-0-----0--
------------------------------------------------
-0-0-----0-0-0-------------0-0-------0-----0-0-0
------------------------------------------------
-------0-0-0-------------0-0-0-0-----0---0-0-0--
------------------------------------------------
-0-0-0-0-0-------------0-0-0-0-0-0-0-0---0-0----
------------------------------------------------
-0-----0-------------0-0-0-0-0-0----------------
------------------------------------------------
-0-----0-----------0-0-0-0-0-0-----0-0---0-0----
------------------------------------------------
-0-0-0-0-0-------0-0-0-0-0-0-----0-0-0---0-0-0--
------------------------------------------------
-------0-0-0---0-0-0-0-0-0-----0-0-0-------0-0-0
------------------------------------------------
-0-0-----0-0---0-0-0-0-0-----0-0-0-----------0--
------------------------------------------------
-0-0-0-----------0-0-0-----0-0-0-------------0--
------------------------------------------------
---0-0-0-0-0-------0-----0-0-0-------------0-0-0
------------------------------------------------
-----0-----0-0-----0---0-0-0-------------0-0-0--
------------------------------------------------
-----0-------0-0-0-0---0-0-------------0-0-0----
------------------------------------------------
---0-0-0-----------------------------0-0-0------
------------------------------------------------
-0-0-0-0-0---0-0-0-0---0-0---------0-0-0--------
------------------------------------------------
-0-0-0-0-0---0-----0---0-0-0-----0-0-0----------
------------------------------------------------
---0-0-0-----------------0-0-0-0-0-0------------
------------------------------------------------
-----0---------------------0-----0--------------

*** Life<Cell> 18x22 ***

Generation = 0, Population = 5.
----0-----------------
----------------------
----------------------
----------------------
----------------------
---------------------0
----------------------
----------------------
------------------0---
-----0----------------
----------------------
----------------------
----------------------
-----------0----------
----------------------
----------------------
----------------------
----------------------

Generation = 99, Population = 104.
---0-0-0---0-0-0-0-0--
0---0-----0---0---0-0-
-0-0-0---0-------0---0
--0---0-0---------0---
-0-------0-0---0-0---0
0---0-0---------0---0-
---0-0-----0-0--------
0-0-------0-0-0---0-0-
-0-0-0-0-0---0---0----
0-0-0---0-0-0-0-----0-
-------0-------0---0-0
--0-0-0-0-0-0---0---0-
-0-----0-0---0---0-0--
0---0---0---0-0---0---
-------------0-0-0-0-0
0-0-0-------0-----0---
-----0-----0-----0----
0-0---0---0-0-----0---

Generation = 198, Population = 94.
0-0---0-0-0-------0---
---0---0-0-0-----0-0-0
--0-0-----------0-0-0-
-0-0-0---0-------0-0-0
--0-0---0---0-----0---
-------0-0-0---0------
----0-0-----0---------
-0-0-----0-----0---0--
0-0-0-0-0-----0-------
-0-0-----0-----0-----0
0-------0-------0-0---
---0-0-----0---0-0-0-0
------0-----------0-0-
-0-0-0-0-0---0-0------
------0---------0-0---
---0-0-0-0-0-0-0-0---0
--------0---0-0---0-0-
-0-------0-------0----

Generation = 297, Population = 93.
-0-----0---0---0-0----
------------0---------
-0-------0---0-0-0----
0-----0-0-0-----0-----
-0-----------0---0----
0---------0-0---0-0---
-------0---0-0-0-0---0
0-0-0-0---0-0-0-----0-
-------0-------0------
--0---0-0-----0-------
-0---0-----0-0-0-----0
--0-0-0-0-0-0---0-0---
---0-----------0-0-0--
--0---------0-0-----0-
-0---0-0-0-0-0-----0--
------0-0---0-0-0---0-
---0-0-0-0-0-0-0------
0---0---0-0-0-0-----0-

Generation = 396, Population = 100.
----0-------0-0-0---0-
---0-------0-0--------
0-0---0-------0-0-0-0-
---0---0-0-0---0-0---0
0-0-0-0-0-----0-0-----
-0---0-0-0---------0-0
0---0-0---0---0-----0-
-0-0---0---0-0---0---0
------0---0-0-0---0-0-
-0---------0---0---0--
0---0-0---0-----0-0-0-
-----------0-0---0-0-0
0---0-0---0---0-0-----
-0---0---0-0---0-----0
------0-0-0-0-0-0-----
-----0-0-----0-0-0----
--------0-------0---0-
-------0-----0-0-0----

Generation = 495, Population = 92.
-0-0-0-0---0-0-0-0---0
------0-0-----------0-
-----0-0---0---0---0-0
0---0-0---0---0-0-0---
-0-----0---0-------0-0
0---0-0---0---0---0-0-
-0-0---0-----0--------
0---0-------------0---
---0-0---0---0-----0--
0-0-0---0---0-----0---
-0---0-------0-0-0----
----0---0-0-----0-0---
-0---0-0---0-0-----0--
0---0---0-------0---0-
-0---------0-0-0------
----0-----0-----------
-0-0-0-----0---0---0-0
------0-----0-------0-

Generation = 594, Population = 90.
0---0-0---0-----0-0-0-
---0---------0-0-0---0
0---------0---0-----0-
-0-0-0---0---0-0-----0
--0-0-----0---0---0-0-
-----0-0-0-----0---0-0
--0-----0-------0-----
-0---0---0-0-0-0-----0
0-0-0-0---0-0-0-0-----
-0---0-----0----------
0-0---0-----0---0---0-
-0-----0-0---------0-0
--0---------------0-0-
-0-0---0---------0---0
----0-----0-----0---0-
-0---0-0-----0--------
0-0---------0---------
-0-----0-0-----------0

Generation = 693, Population = 93.
-0-0-0-0-0-----0-0----
0---0---0---0---0-0-0-
---0---0-0-----0------
--0-0---------0---0---
---0-----0------------
--0-0-0-------0-0---0-
---0-----0---0-0-0----
0---0-0-0-----0-0-----
---0---------0-------0
0-----0-0-0-0-0---0-0-
---0-0---0-------0-0-0
0-----------0-0---0-0-
-----0-0---0---0-----0
----0---0-----0---0---
-----------0-0-0-0---0
0-0-0---0-0-0-0---0-0-
-0---0-----------0----
------0---------0-0-0-

*** Life<Cell> 6x11 ***

Generation = 0, Population = 26.
-0---00----
--00--00000
--00---0-0-
-0000---0-0
0--0-00----
------00---

Generation = 16, Population = 18.
....*..1**.
11........*
**...*1.**.
*......***.
*......-...
......-.-..

Generation = 32, Population = 0.
...........
--.........
...........
...........
...........
...........

Generation = 48, Population = 0.
...........
--.........
...........
...........
...........
...........

Generation = 64, Population = 0.
...........
--.........
...........
...........
...........
...........

Generation = 80, Population = 0.
...........
--.........
...........
...........
...........
...........

Generation = 96, Population = 0.
...........
--.........
...........
...........
...........
...........

Generation = 112, Population = 0.
...........
--.........
...........
...........
...........
...........

Generation = 128, Population = 0.
...........
--.........
...........
...........
...........
...........

Generation = 144, Population = 0.
...........
--.........
...........
...........
...........
...........

Generation = 160, Population = 0.
...........
--.........
...........
...........
...........
...........

Generation = 176, Population = 0.
...........
--.........
...........
...........
...........
...........

Generation = 192, Population = 0.
...........
--.........
...........
...........
...........
...........

Generation = 208, Population = 0.
...........
--.........
...........
...........
...........
...........

*** Life<Cell> 33x30 ***

Generation = 0, Population = 2.
------------------------------
------------------------------
------------------------------
------------------------------
------------------------------
------------------------------
------------------------------
------------------------------
------------------------------
------------------------------
------------------------------
------------------------------
-----0------------------------
------------------------------
------------------------------
------------------------------
------------------------------
-------------------------0----
------------------------------
------------------------------
------------------------------
------------------------------
------------------------------
------------------------------
------------------------------
------------------------------
------------------------------
------------------------------
------------------------------
------------------------------
------------------------------
------------------------------
------------------------------

Generation = 6, Population = 31.
------------------------------
------------------------------
------------------------------
------------------------------
------------------------------
------------------------------
-----0------------------------
------------------------------
---0---0----------------------
------------------------------
-0---0---0--------------------
-------------------------0----
---0---0---0------------------
-----------------------0---0--
-0---0---0--------------------
---------------------0---0---0
---0---0----------------------
-------------------0---0---0-0
-----0------------------------
---------------------0---0---0
------------------------------
-----------------------0---0--
------------------------------
-------------------------0----
------------------------------
------------------------------
------------------------------
------------------------------
------------------------------
------------------------------
------------------------------
------------------------------
------------------------------

Generation = 12, Population = 32.
-----0------------------------
------------------------------
------------------------------
------------------------------
-0-------0--------------------
-------------------------0----
------------------------------
------------------------------
-0---0-------0----------------
---------------------0-------0
------------------------------
------------------------------
-0---0---0-------0------------
-----------------0-------0-0--
------------------------------
------------------------------
-0---0-------0----------------
-------------0-------0-0-----0
------------------------------
------------------------------
-0-------0--------------------
-----------------0-------0-0--
------------------------------
------------------------------
-----0------------------------
---------------------0-------0
------------------------------
------------------------------
------------------------------
-------------------------0----
------------------------------
------------------------------
------------------------------

Generation = 18, Population = 27.
-----0------------------------
-----------------------0---0--
---0---0----------------------
-------------------------0----
-----0------------------------
------------------------------
------------------------------
------------------------------
------------------------------
------------------------------
---------0-----------0--------
-----------------.------------
-------0---0-------1---0------
------------------------------
---------0-------.---0--------
---------0---.-----0----------
------------------------------
-------0---1-----0---0--------
-------------.----------------
---------0---------0----------
------------------------------
------------------------------
------------------------------
------------------------------
------------------------------
------------------------------
-----0------------------------
------------------------------
---0---0----------------------
------------------------------
-----0------------------------
------------------------------
------------------------------

Generation = 24, Population = 70.
------------------------------
-----------------0---------0--
-0-----------0----------------
------------------------------
-----0---0-----------1--------
-------------------------0----
------------------------------
------------------------------
-----------------0------------
---------1------0-01-----1----
-----0---------0-1-1----------
--------------0-0.*-1---------
-0-----------0-1-.-.---------0
---------*---1---.1.1---------
--------1.1--1-10.0-----------
--------1.110.10-1------------
---------*-.110--1-----.------
-0---------.---1-0---.-----0--
----------1-0.0-0-------------
-----------0-1-0--------------
-----1---1--0-0------1--------
-------------0----------------
------------------------------
------------------------------
------------------------------
---------1---------0----------
------------------------------
------------------------------
-0-----------0----------------
------------------------------
-----0------------------------
------------------------------
------------------------------

Generation = 30, Population = 256.
-------------*-0-1-0-*-1------
-----------0-.-------.--------
-----------0---1-.-0-1---1----
---------0---1--0-00---0------
---------*---0-----1---1-.-1--
-------0-.-0---0-.---1---*----
-------0---0---0---.-1---1---1
-----0---------001.-1--0---0--
-----*--1.1----*---.0--1---0-*
---0-.---*--10-0--.--.---1---.
---0--0*-1----1--**.---*---0-1
-0----0--*10-111*.*010----01-0
-*--1-1-..-*.*0-1.-.-1-0-*-*-0
-.---.-*0*1..*---....*11*00.-0
--01-*--*..--.***.*.*..111-1-0
--0--1--.***0.11*.1--10100-0-1
-.-0----1.1.*--.--*.0--.0--0-.
----11-*-.0.**.101..-.0-10-0-*
----00--..*.*.-----1.-01-0---1
-------0-.---..-100---00---0-0
-.------*.***--10-1--1-0---1--
---0---0-101-010---1-0---1---0
-----------1-1-------0---0----
-1---1---*-0---0-0-0---0---0--
-----*-------.-1---0---1------
---0---0---0---0-0---1---0----
---0---0----000--0---0--------
-----0---1-----0---0---0------
-0---0---.-0---0---1----------
-------0---0-----1---0--------
---0---0-*-0-0---0------------
---------1---------0----------
-----0-0-0-0-0-0--------------

Generation = 36, Population = 355.
--------011--*--0*-1-*0-0-0---
--------000*..--0*---.111010--
-------0-----.0--.-.-.01------
------000.-*-.-0.-.-**--*-0*--
-----0*-*.*1*.-.-*1.0.-.***-*-
----00--*.-*-.0.-*0.**1....--*
---0-*0***.-1---0.-..*--..1-1-
--00-.0.1*-**0-.0....***-1111-
-0*0....-*11*.*.---..0**-*-1-.
00-1..-.-..*.1-*01*.-.-*****-.
---.*...-.1.-1.*0.*..--.-*-.*.
0*-*.--0..*-..1....--1*0.0**-1
..*1..*1...*..-....*-**..*0.-*
-..--**.**....-1-...**1-*0***-
1*0.0.*1.**.-*.......*.***..0-
-*-.-.*-..***.......*.-**10.1.
*.**-11-*.*...1***..1*0.*-**0.
0*----0.0.......1.*.-****-..-.
*1-1-1.......*..--**.*--1.0---
--*.-1-01.---*.*--*.-1***1*10-
-.00-.-......0**11*0*.**---.-0
---1-110-.-.-0-00--.0*.10.0-0-
-010-.*1.**.-.10-1**1*0--1----
---1-.---.0*0...-.0*0*0-------
0-0-..*00-0-...---1-0.0.------
-0-----1--*11*1.-1-10.--------
------0-01*0.-.*1.*-0---------
-----*--1*0.--1*-001----------
---0--*.**..**-10-0.----------
-----1-*--0-0*-10.------------
----0--.1*-.1--10-------------
-----0-*-------0--------------
-------0---00-0---------------

Generation = 42, Population = 346.
--0-0-0--**0.*1--.--**.-.---1-
-----00-0*....--**..1....0.1.*
----0.*111.1***1*....**1.-11*-
---0.0*-1*-.**.-.*...**-*--.-*
-0-1.1*-..*..*0...1*0*-.*....-
---*-**1....*.*...1..**.**.-..
--.*..1...*.*.**-.-...*-...1.*
1--.**1**.**..-*-.....**-...*-
01....*.-.1-..**..**.0..0.--..
*1....**0......*-.*.-.*...*.-*
1...*..*1..*-.*.-.......**-..*
...***-...*0...*....-**-**.*..
...1***.***.*...........*.-..*
...-0......*.**.......*..-.***
..-.-......*1.*......***....0.
-.-.1......***........****1...
....-..-.**.*.*.*...-*-.**..-.
-.-1..1.*...*.*.....-..*......
.-1.1**.......*.*-**.......0-.
.-...*...*1-0*.**1*..1...-*1-.
0**--.1**.....****.-..*.1.**--
--**..*-**.*-.**--*.....*.--1*
1*1-...-..**.*.-.*..-..-.-.-1-
---.1.-.-.**..**..*.0*1*-011*1
1---......*...*.-.**-.-*0-101-
-*0----.-...*.*.*-1..*.1..-0--
-11.-.-*-..-..*.*..-..-1-*-0-0
-**--.1*..0.-.*.-.-.-.-0-10-0-
-----...***.**1.*...*--100----
---.**-.**0*-.**...-1*-0------
--1.--1...-..1.*-*---0--------
-00*-0-*0.1*100.**0*0---------
0-0-*.1.**.**.01--1-0---------

Generation = 48, Population = 328.
-----1*11..*...-0*-....-.-.---
----1.*-**.*.*.-.*.......0....
.-*0-..1*..*.**-..*..........-
11-****.*.*....****...*..-..-.
--11.....*....0...*.0***...*.-
-1....*......**.*.*...**...-*.
--.*.*-*.....**.-....**0...-**
.1.**.*.*.*..**.*....**.1....-
*.....**.**....*.*...1***.--..
.-......0......***....*.......
...*.*..-...-...**....**..-...
.....*1....-........1***......
...1*..............****.*.....
...0..*............***.**1....
..1.**......-......***.**.**.*
-...*.....*.**......*..**.**.*
..*.*..-.....**...*******.*.**
-.-.**.**..*.*.......*........
...*.*.*...*..*..-...*.***.*-*
....****...*.........-..**..**
***10***.****...*..****..*..-*
-....**-*.**....-*.***...***.*
*..-...*.......-..*.*..0.**0**
*1-.-.-.-*.......*..*.-.1**...
*.*0**.**....**.1**.*.-*1.----
-*-.---.-*..*....*.**.*1.*-000
-.....-.*.***.*.......--0.-.--
0.**.*.****.-.*..*1..*.0.*..--
...-.*.....*...*...**-..1*----
---...-.****...*.**--.----110-
1-..-.*.*.1..*....*--.1-**-0-0
0.-.-1-.....**......1101*.-10-
11**.........*-.-..*1.-*1----0

Generation = 54, Population = 252.
--*1-..1....**..**-*...-.-.---
*.*-*..-........*.*......0....
.-.0-*..*......-*.*.**.......-
.*-.*...*.......**....*..-..1*
***1.....*....**...........***
--.....****.........*..*.***.*
.0..*.1...*.....-...****.*****
.*.*......**.........*.**.....
.*..**.**.**.........-.....-..
.1**....-*........**...*......
...*.*.*-*..-.....**....**0...
...**......-........-.....*...
...1...................**.*...
.......................*..*...
..-.........**............*...
-...........**................
.......***.**.................
-.0......***..........*.......
..*......***.....-.....*..*...
.**..................-...*....
...-.......................***
-......-..**...**.**.......*.*
..*1.....*..***.......*1*..*..
.**..***1**....*.....*1..*..*.
.**1.*....*....*.....**.-.*.**
0*1........*..*..**....-..*.--
.**.......*.*.***.*..*****-..1
-.......**.*-.*..**....0.*..1.
........**...*****..*..*..---0
*--...-......****..11***-...*-
..**-.......*......*-*.1*..-*0
....-1*....*.......****....*..
*-...******...-.-....*1.-***0.

*** Life<Cell> 10x41 ***

Generation = 0, Population = 1.
-----------------------------------------
-----------------------------------------
-----------------------------------------
-----------------------------------------
-----------------------------------------
-----------------------------------------
-----------------------------------------
-----------------------------------------
-------0---------------------------------
-----------------------------------------

Generation = 148, Population = 25.
---0-------0-----------0-------0---0-----
-----------------------------------------
---0-------0---------------0-----------0-
-----------------------------------------
---0-------0---0-------0---0---0---0-----
-----------------------------------------
---0---0---0---------------0-----------0-
-----------------------------------------
---0---------------0---0---------------0-
-----------------------------------------

Generation = 296, Population = 27.
-----------0---0-----------0-----------0-
-----------------------------------------
-------0---0-------0---0---------------0-
-----------------------------------------
---0---0---0-------0-------0-----------0-
-----------------------------------------
---0---0---0---0-------0---------------0-
-----------------------------------------
---0---0-------0---0-----------0-------0-
-----------------------------------------

Generation = 444, Population = 23.
---0---0-------------------0-----------0-
-----------------------------------------
---0---0---0---0---0-----------0-------0-
-----------------------------------------
-------------------0---0-----------------
-----------------------------------------
---0---0-----------0---0---0-------------
-----------------------------------------
---0---0-------0---0-------------------0-
-----------------------------------------

Generation = 592, Population = 19.
-------0---0---0-------0---0-------------
-----------------------------------------
-------0---------------------------0---0-
-----------------------------------------
-------0---------------------------------
-----------------------------------------
-----------0---------------0---0---0---0-
-----------------------------------------
-------0---0---0-------0-------0---------
-----------------------------------------

*** Life<Cell> 47x30 ***

Generation = 0, Population = 29.
------------------------------
------------------------------
----0-------------------------
-------0----------------------
------------------------------
------------------------------
---------0--------------------
--------------------0---------
------------------------------
------------------------------
--0---------------------------
------------------------------
------------------------------
------------------------------
--------------------0---------
------------0-----------------
---0---------0----------------
------------------------------
------------------------------
----------------------------0-
------------------------------
------------------------------
-----0------------------------
-------------0----------------
------------------------------
----------0-------------------
------------------------------
------------------------------
---0--------------------------
0-----------------------------
---0------0---0---------------
------------------------------
-------0----------------------
------0-----------------------
---0--------------------------
----------------------------0-
---------------------0--------
------------------------------
------------------------------
------------------------------
---0--------------------------
--------------------------0---
------------------------------
------------------------------
-----------------------0------
0-0-----0---------------------
------------------------------

Generation = 40, Population = 321.
.............................-
.........***................-.
.....*.................**.....
...*.*...*-...........**..*...
.*........**..**......*..**...
*.....***.............***..*..
*.....***........*...**..*....
*..*..........**.....**.......
***...*......*...*.....*......
.....*.*........*...**.*......
....*.......*................-
.....*..*....*......*.*..*....
.....****.......-..*..***.**.-
-..***......-.......*.*...**..
..*...*...............*...*...
-....**..................*....
...*............**....******..
..*.*.***..****..*....*...*.*.
..**..*.****....*....***.....*
........***.....*.....-.*....*
-.......**..*....*.....*.....*
........-**..*.***............
.*.*........-*...*...........-
...**.........**...**.-.....-.
.*...**...-...*.*.....*..1**..
..**.**.......**......*..***..
..*............*.*.....****...
..**.**.........*..*1.***.....
...*..*....1....*........***.-
...................1*.*..**.*.
..................*..*....*.-.
......*........**..*..*..*....
.....*.*............*..**.-..-
.....**.............***.*.....
..............-.....*****...-.
......*.**...*.......*.....**.
1-....****....***..*...*.....*
......**.....**.****...*.....*
..................*.....*..1--
..........*....**...........*-
.*........*..*.**...***...*..*
..**.....-**.......*...*.*1..*
.*........**......*....0**.-.-
.*...-.....*...**..*1.***-.1*-
0-.......**..*......****-**-*-
*......*.**-...**........***1.
--**...**..................*.-

Generation = 80, Population = 138.
.............................-
............................-.
..............................
..**..........................
..**..........................
........***...................
........*..**.................
.**.....**....................
.**..........*................
*.*...........................
..........*.*................-
..*****....................**.
...*****........-..........**.
..**...**.....................
..............................
......*.......................
.....*........................
.....*......*.................
...........***................
......****...**...............
-.....*.*.*.*.................
.........**.**................
........*....**.............*1
.............**.**........**.*
.....*..........***.*........*
......*..*..........*.....**..
........*.***.......*.........
..........**..................
...........**.........*.......
....................*..*......
..........***.*.....*..*...***
.............*.*.....**.**...*
.............*..*......*...**.
.............*.........*......
..**.......*..**........**....
.*.*.......*.*................
1-*........***................
..............................
..............................
..............................
.**...........................
.**.......................-...
...........................-.-
.....-...................-....
...........................-..
............................-.
.............................-

Generation = 120, Population = 100.
.............................-
..............***...........-.
..............*..*............
..**..........**..*...........
..**.....*........**..........
.........*......*.*...........
................**............
................*.............
..............................
..............................
.............................-
...........................**.
................-..........**.
..............................
..............................
..............*...............
.............***..............
.........*....**..............
.........*..**................
........*.....................
-........*...*................
.........*...*................
...........**.................
..............................
..............................
..............................
..............................
...........................*..
..........................*.*.
...........................*.*
....**......................*.
....*..*........*.............
.....*.*.......***............
.....***.........**...........
..**.............***..........
.*.*..............*...........
1-*..............*............
................**............
...........**...**............
..........*.*...*.*...........
.**.......*.......*...........
.**.......*...*...*.......-...
...........*.....*.........-.-
.....-......*...*........-....
.............***...........-..
............................-.
.............................-

Generation = 160, Population = 109.
.............................-
............................-.
..............................
..**..........................
..**..........................
...............*..............
..............*.*.............
.............*..*.............
..............**..............
..............................
.............................-
.....*..........**.........**.
....*.*......**............**.
....*.**.***.**..*............
.....*...*.*.....*............
.........*******..............
.............**...............
..............................
..............................
..............................
-.............................
..............................
..........*.......*...........
.........*.*.....*.*..........
.........*.*......**..........
..........*...................
..............................
...........................*..
..........................*.*.
...........................*.*
............................*.
..............................
..............................
..............................
.**...........................
*..*..........................
*.*...........................
.*.........*..................
...........**.................
.........*.***................
.**....**.*..*................
.**..**.****......*.......-...
........*..*.......*.......-.-
.....*.*...*........*....-....
......*.....*.......*......-..
............*.....**........-.
..............******.........-

Generation = 200, Population = 55.
.............................-
............................-.
...............**.............
..**..........*..*............
..**..........*.*.............
...............*..............
..............................
..............................
..............................
..............................
.............................-
...........................**.
....**.....................**.
....**..........**............
................**............
..............................
..............................
..............................
..............................
..............................
-.............................
..............................
..........*.......*...........
.........*.*.....*.*..........
.........*.*......**..........
..........*...................
..............................
...........................*..
..........................*.*.
...........................*.*
............................*.
..............................
..............................
..............................
.**...........................
*..*..........................
*.*...........................
.*............................
..............................
..............................
..............................
..........................-...
**.................**......-.-
**.................**....-....
...........................-..
............................-.
.............................-

*** Life<Cell> 40x28 ***

Generation = 0, Population = 49.
--------------0--------0----
----------------------------
-------------------------0--
--------------------------0-
--------------0-------------
----------------------0-----
---------------------------0
------0---------------------
---0------------------------
----------------------0---0-
--------0-------0-----------
------0-------------0-------
----------------------------
----------------------------
----------------0-----------
----------------------------
--------0-----------0-------
----------------------------
---0------0-----0------0----
----------------------------
-----00--0-0----------------
------------------------0---
-------------------0--------
----0-----------------------
----------------------------
0-------00------------------
----0------0----------------
----------------------------
------0-----0---------0-----
--0-------------------------
------------------0---------
-------------0--------------
---------------------------0
----------------------------
------------0---------------
--------------0-------------
---0--------0---------------
-------------------0--------
---0-------------0----------
-------------------------0--

Generation = 176, Population = 23.
.-..........................
.........-..................
..............**............
..........-...**............
-...........................
...........-.-..............
............................
............................
............................
............................
............................
.....*.....................-
.....*......................
.....*..........*...........
................*...........
................*...........
...........................-
.....*......................
....*.*.....................
.....**.....................
...........................-
............................
............................
............................
............................
..........................-.
............................
............................
............................
**..........................
**..........................
...................**.......
...................**.......
............................
............................
............................
............................
............................
............................
....-.......................

Generation = 352, Population = 23.
.-..........................
.........-..................
..............**............
..........-...**............
-...........................
...........-.-..............
............................
............................
............................
............................
............................
.....*.....................-
.....*......................
.....*..........*...........
................*...........
................*...........
...........................-
.....*......................
....*.*.....................
.....**.....................
...........................-
............................
............................
............................
............................
..........................-.
............................
............................
............................
**..........................
**..........................
...................**.......
...................**.......
............................
............................
............................
............................
............................
............................
....-.......................

*** Life<Cell> 4x34 ***

Generation = 0, Population = 21.
---0-0-0----0--0-00---------0---0-
--------0-0-0------------00-------
------0---0-----------------------
---0------------------0-0-------00

Generation = 169, Population = 9.
.*..............-.................
*.*...............................
**..........**....................
..-.........**....................

Generation = 338, Population = 9.
.*..............-.................
*.*...............................
**..........**....................
..-.........**....................

Generation = 507, Population = 9.
.*..............-.................
*.*...............................
**..........**....................
..-.........**....................

Generation = 676, Population = 9.
.*..............-.................
*.*...............................
**..........**....................
..-.........**....................

Generation = 845, Population = 9.
.*..............-.................
*.*...............................
**..........**....................
..-.........**....................

*** Life<Cell> 14x10 ***

Generation = 0, Population = 11.
-----0----
-0--------
----------
-------0--
-----0----
0---------
--0-------
----0--0--
----------
---0------
----------
-------0--
-------0--
----------

Generation = 104, Population = 4.
..........
..........
..........
..........
..........
..........
..........
..........
.**.......
.**.......
..........
..........
..........
..........

Generation = 208, Population = 4.
..........
..........
..........
..........
..........
..........
..........
..........
.**.......
.**.......
..........
..........
..........
..........

Generation = 312, Population = 4.
..........
..........
..........
..........
..........
..........
..........
..........
.**.......
.**.......
..........
..........
..........
..........

Generation = 416, Population = 4.
..........
..........
..........
..........
..........
..........
..........
..........
.**.......
.**.......
..........
..........
..........
..........

Generation = 520, Population = 4.
..........
..........
..........
..........
..........
..........
..........
..........
.**.......
.**.......
..........
..........
..........
..........

Generation = 624, Population = 4.
..........
..........
..........
..........
..........
..........
..........
..........
.**.......
.**.......
..........
..........
..........
..........

Generation = 728, Population = 4.
..........
..........
..........
..........
..........
..........
..........
..........
.**.......
.**.......
..........
..........
..........
..........

Generation = 832, Population = 4.
..........
..........
..........
..........
..........
..........
..........
..........
.**.......
.**.......
..........
..........
..........
..........

Generation = 936, Population = 4.
..........
..........
..........
..........
..........
..........
..........
..........
.**.......
.**.......
..........
..........
..........
..........

*** Life<Cell> 31x3 ***

Generation = 0, Population = 20.
---
---
---
--0
0--
---
00-
---
-0-
---
---
-00
---
-0-
0-0
---
---
--0
--0
--0
---
--0
0--
---
---
-0-
---
---
-0-
--0
00-

Generation = 74, Population = 1.
...
1-.
...
...
...
...
...
...
...
...
...
...
.-.
...
...
...
...
...
-..
...
.-.
...
...
.-.
..-
.-.
...
...
...
...
-.-

Generation = 148, Population = 1.
...
1-.
...
...
...
...
...
...
...
...
...
...
.-.
...
...
...
...
...
-..
...
.-.
...
...
.-.
..-
.-.
...
...
...
...
-.-

*** Life<Cell> 10x34 ***

Generation = 0, Population = 47.
---0---00------------0-0----0-----
-0----0--00------------------0----
0---------------------0-----------
-0---------------------------0----
-----0--0--0---0-----0--0----0---0
-0-0--0----------------------0----
-------0-0-0-00----------------0-0
--0------0--------------00-0------
-----0------------0---0-------0-00
-------------------------0--0-----

Generation = 163, Population = 24.
.....**....-......................
....*.*...........................
.....*......-.....................
......-...........................
....*.............................
-...*.............................
....*.........*........*..........
.............*.*......*.*.......**
....-........**......*..*.......**
..........-...........**..........

Generation = 326, Population = 24.
.....**....-......................
....*.*...........................
.....*......-.....................
......-...........................
..................................
-..***............................
..............*........*..........
.............*.*......*.*.......**
....-........**......*..*.......**
..........-...........**..........

Generation = 489, Population = 24.
.....**....-......................
....*.*...........................
.....*......-.....................
......-...........................
....*.............................
-...*.............................
....*.........*........*..........
.............*.*......*.*.......**
....-........**......*..*.......**
..........-...........**..........

Generation = 652, Population = 24.
.....**....-......................
....*.*...........................
.....*......-.....................
......-...........................
..................................
-..***............................
..............*........*..........
.............*.*......*.*.......**
....-........**......*..*.......**
..........-...........**..........

Generation = 815, Population = 24.
.....**....-......................
....*.*...........................
.....*......-.....................
......-...........................
....*.............................
-...*.............................
....*.........*........*..........
.............*.*......*.*.......**
....-........**......*..*.......**
..........-...........**..........

*** Life<Cell> 46x6 ***

Generation = 0, Population = 20.
0-----
-----0
------
------
-----0
0-----
------
---0--
----0-
--0---
--0---
------
------
------
-----0
------
------
------
------
0-----
------
--0---
--0---
------
-0----
------
------
--0---
------
------
------
--0---
------
0----0
------
---0--
---0--
---0--
------
------
------
------
------
------
------
------

Generation = 100, Population = 13.
......
-.....
...**.
...**.
......
......
......
......
......
......
......
......
...*..
..*.*.
...**.
......
......
......
......
......
......
......
...-..
.-.-..
.....-
-.....
.-....
......
......
.**...
.**...
-.....
......
......
......
......
......
-.....
-.....
......
-.....
......
......
......
-.....
......

Generation = 200, Population = 13.
......
-.....
...**.
...**.
......
......
......
......
......
......
......
......
...*..
..*.*.
...**.
......
......
......
......
......
......
......
...-..
.-.-..
.....-
-.....
.-....
......
......
.**...
.**...
-.....
......
......
......
......
......
-.....
-.....
......
-.....
......
......
......
-.....
......

Generation = 300, Population = 13.
......
-.....
...**.
...**.
......
......
......
......
......
......
......
......
...*..
..*.*.
...**.
......
......
......
......
......
......
......
...-..
.-.-..
.....-
-.....
.-....
......
......
.**...
.**...
-.....
......
......
......
......
......
-.....
-.....
......
-.....
......
......
......
-.....
......

Generation = 400, Population = 13.
......
-.....
...**.
...**.
......
......
......
......
......
......
......
......
...*..
..*.*.
...**.
......
......
......
......
......
......
......
...-..
.-.-..
.....-
-.....
.-....
......
......
.**...
.**...
-.....
......
......
......
......
......
-.....
-.....
......
-.....
......
......
......
-.....
......

Generation = 500, Population = 13.
......
-.....
...**.
...**.
......
......
......
......
......
......
......
......
...*..
..*.*.
...**.
......
......
......
......
......
......
......
...-..
.-.-..
.....-
-.....
.-....
......
......
.**...
.**...
-.....
......
......
......
......
......
-.....
-.....
......
-.....
......
......
......
-.....
......

*** Life<Cell> 28x40 ***

Generation = 0, Population = 3.
---0------------------------------------
----------------------------------------
----------------------------------------
----------------------------------------
----------------------------------------
----------------------------------------
----------------------------------------
----------------------------------------
----------------------------------------
----------------------------------------
----------------------------------------
----------------------------------------
----------------------------------------
----------------------------------------
--------------------------0-----------0-
----------------------------------------
----------------------------------------
----------------------------------------
----------------------------------------
----------------------------------------
----------------------------------------
----------------------------------------
----------------------------------------
----------------------------------------
----------------------------------------
----------------------------------------
----------------------------------------
----------------------------------------

Generation = 102, Population = 102.
......-..-.....-........................
..-...........-..............**.-.......
.............................**.....*...
...............*...................*.*..
..............***..................*.*..
.............**...*.................*...
.....****...**....*..*..................
....*....*.**.**.****.................-.
....*...**..**............**............
.....*.......****.........**....-.......
**.............*........................
***....................................-
........................................
..*.*....*..............................
.........*..............................
...*.*....*..............*..............
......*..*..............***.............
.....**...*.............*.**............
.......*.*.............*..*.............
........................**..........*.*.
........................*...........*.*.
...................................***..
.-.................................*....
.........................*.*.......*....
.........................*.*.......**.**
...................-.......*........*.*.
.....................................*..
.....................-.......-....-.....

Generation = 204, Population = 120.
......-..-..............................
..-..........................**.-.......
.............................**.....*...
...................................*.*..
...................................*.*..
............................**......*...
..........**...............*..*.........
.........*..*...............**........-.
.........*.........***..................
..........*.............................
...........****..........***............
.........****.**.......................-
.........***..**.......*................
.........***..*........*.............***
.......................*................
.................**.....................
.................**.....................
........................................
.......**...............................
......***...............................
......*..*........................*..*..
......***............**....*.....**.***.
.-.....**...........*..***.**.....*.****
..........*..........*.****.*........*.*
.........*.*..........*.............*.*.
........**.*.......-...............**...
.........*.*....................***.**..
..........*..........-..........**...*..

Generation = 306, Population = 116.
......-..-..............................
..-..................**......**.-.......
.....................**......**.....*...
...................................*.*..
.....................**............*.*..
.....................**.............*...
..............................*.........
.............................*.*......-.
..........*.................*..*........
..........*..................**.........
.......*.............***................
....*...*...........*...*..............-
....*...............**...*..............
...*.......**..**.........*..........***
....**..*..**..**......*..*.............
....****..................*.............
....................**...*..............
....................*...*...............
.....................***................
...............**.......................
..............*..**..............**.....
.....**......***..*......*......*..*....
.....***.....*....*.....*.*......**.....
...*...**....*****......*.*.............
.......**.....**.........*..............
.........*.........-....................
...**...*...............................
.....*..*............-..................

Generation = 408, Population = 108.
......-..-..............................
..-..................*..................
.....................*..*...............
....*.........**.........*..............
....*........**.......*.*...............
....*.........***...*.*............*....
...............**...***......**...*.....
....................**.......***..**....
..........................**..**...****.
..........................*.**.**....*.*
..........**.................*.*........
..........**..............**.*........**
...................**................*..
..................*..*..................
..................*..*..................
...................**...*...............
.......................***..............
...*..................**..*.............
..*.*.................*...**............
..**...................**...............
...........**...........*..*.....**.....
...........**.............**....*..*....
.................................**.....
........................................
........................................
...................-....................
....**.**...............................
....**.**............-..................

Generation = 510, Population = 79.
......-..-..............................
..-.....................................
................**......................
....*...........**......................
....*...................................
....*...................................
........................................
.........................**.............
.........................*.*............
..........................*.*...........
..........**................*...........
..........**..........**.............**.
......................*.*............**.
.......................**...............
........................................
..................**..........**........
...........................*.***........
...*...................*..*.............
..*.*..................****...*.........
..**....................**.*............
...........**..........**...............
...........**...........................
........................................
..................*.....................
.................*.*..............**....
.................*..*............*..*...
....**.**.........**..............*.*...
....**.**............-.............*....

*** Life<Cell> 38x3 ***

Generation = 0, Population = 12.
-0-
---
---
---
0--
---
---
0--
--0
---
---
---
---
--0
---
---
---
0--
---
---
---
---
---
--0
---
0-0
---
---
0--
---
---
---
---
--0
--0
---
---
---

Generation = 158, Population = 3.
...
.-.
...
...
...
...
...
...
...
...
...
.-.
-..
...
..-
...
...
...
.-*
.**
...
...
...
...
.-.
.-.
.-.
...
...
...
...
...
...
...
...
...
...
...

Generation = 316, Population = 3.
...
.-.
...
...
...
...
...
...
...
...
...
.-.
-..
...
..-
...
...
...
.-*
.**
...
...
...
...
.-.
.-.
.-.
...
...
...
...
...
...
...
...
...
...
...

Generation = 474, Population = 3.
...
.-.
...
...
...
...
...
...
...
...
...
.-.
-..
...
..-
...
...
...
.-*
.**
...
...
...
...
.-.
.-.
.-.
...
...
...
...
...
...
...
...
...
...
...

*** Life<Cell> 37x48 ***

Generation = 0, Population = 36.
------------------------------------------------
--------------------------------------------0---
-----------0-----------0------------------------
---------------0-------------------------------0
------------------------0-----------------------
----------0-------------------------------------
------------------------------------------------
----0-------------------------------------------
--------------------------------------0---------
------------------------------------------------
------------------------------------------------
------------------------------------------------
------------0---00------------------------------
------------------------------------------------
----0-------------------------------------------
------------------------0-------------0---------
------------------------------0-----------------
---------------------0--------------------------
------------------------------------------------
------------------------------------------------
------------------------------------------------
----------0--0-------------0--------------------
------------------------------------------------
----------------0----------------0--------------
--------0---------------------------------------
--------0--------------0------------------------
------------------------------------------------
---0----------------------------0---------------
-----------------------------------0------------
---------------------------------------0--------
------------------------------------------------
----0-------------------------------------------
------------------0---------0-------------------
0-----------------------------------------------
------------------------------------------------
------------0-----0-------------0---------------
------------------------------------------------

Generation = 108, Population = 119.
........................**...........*..........
.....**.....**.........*..*.........*.*.........
.....**.....*.*........*..*..........**.........
........................**......................
-............******.............................
.............*..***.............................
........................*.......................
.........***...........*.*......................
............*..........*.*......................
.............**..*......*.......................
..**.....*....*..*..............................
............*...................................
................................................
..............................**................
.............................*..*..**...*.***...
..............................**..*..***.**..*..
...................................**.**.*.**...
...................-............................
................................................
.........**.....................................
.........**..................**.................
.............................**.................
........................................*.*.....
......................................*....*....
.......**.................................*...-.
.......**.........................*.*.*.........
..................................*.*...........
................................................
..................................**.**.......**
..................................*..**........*
...................................**..........*
..............................................**
................................................
...*............................................
..*.*...........................................
..*.*...........................................
-..*............................................

Generation = 216, Population = 56.
................................................
........**......................................
.......*..*.....................................
........**............................*.........
-.....................................**........
......................................***.......
...........*....................................
...........*..........................**..*.....
...........*..........................*..**.....
......................................**..*.....
......................................**........
................................................
.......................................*.**.....
................................*.......***.....
................................*........*...*..
................................*...........*.*.
............................................*.*.
...................-.........................*..
................................................
.........**.....................................
.........**.....................................
................................................
................................................
................................................
.......**.......................................
.......**.......................................
................................................
................................................
................................................
................................................
................................................
................................................
................................................
...*............................................
..*.*...........................................
..*.*...........................................
-..*............................................

Generation = 324, Population = 35.
................................................
........**......................................
.......*..*.....................................
........**......................................
-...............................................
...................................**...........
...........*......................*.*...........
...........*.......................*............
...........*....................................
................................................
................................................
................................................
................................................
................................*...............
................................*...............
................................*...............
................................................
...................-.................**.........
.....................................**.........
.........**.....................................
.........**.....................................
................................................
................................................
................................................
.......**.......................................
.......**.......................................
................................................
................................................
................................................
................................................
................................................
................................................
................................................
...*............................................
..*.*...........................................
..*.*...........................................
-..*............................................

Generation = 432, Population = 35.
................................................
........**......................................
.......*..*.....................................
........**......................................
-...............................................
...................................**...........
...........*......................*.*...........
...........*.......................*............
...........*....................................
................................................
................................................
................................................
................................................
................................*...............
................................*...............
................................*...............
................................................
...................-.................**.........
.....................................**.........
.........**.....................................
.........**.....................................
................................................
................................................
................................................
.......**.......................................
.......**.......................................
................................................
................................................
................................................
................................................
................................................
................................................
................................................
...*............................................
..*.*...........................................
..*.*...........................................
-..*............................................

*** Life<Cell> 43x36 ***

Generation = 0, Population = 50.
------------------------------------
------------------------------------
------------------------------------
------------------------------0--0--
----------------------0-----------0-
------------------------------------
------------------------------------
---0--------------------0-0---------
------------------------------------
------------------------0-----------
-------------------0-----0------0---
------------------------------------
--------------------00--------------
--------------0---------------------
------------------------------------
------------------------------------
------------------------------------
---------------------0-0------------
-----------------------------------0
-------------------------0----------
------------------------------------
-------0----------------------------
----0-------------------------0-----
-----0------------------------0----0
-----0------0-----------------------
---0--------------0-----------------
--------0-------------0-------------
------------------------------------
------------------------------0-----
----------------------------0-------
----------0------------0----0-------
------------------------------------
------------------------------------
------------------------------------
------------------0-----------------
-------------------0-------0--------
------------------------------------
--------------------------------0---
----------0-------------0----0---0--
----------------------------------00
---------00-------------------------
0-----------0-----------------------
----------------------------0-------

Generation = 72, Population = 143.
...........-1....-...-...........-.-
.....................-..............
...*................................
..***...............................
.**....................-............
**..................................
*.**...***..........................
*.*................................-
*.*....**.....-.................-...
.*...**.*...*.......................
....***......*......................
....**..............................
.-.**.....**.*......................
.....*.....*.**.....................
...........*.*......................
-........*..*......*................
.........*........*.*...............
-.......*.........*..*.....*........
.........***.......**.....**........
....***...................*...**....
...*..*....................**.......
....**.........................*....
..............................*.....
....................................
....................................
....................................
.....**.............................
....*.*.....-.......................
....*...*...........................
....*..**...........................
.....*....*.........................
..*.....**.......................-.-
.*.**...**..*...**..................
.........*.**...*.............*.....
...**...........*............***....
...**........*.*............**..*.**
**..........***................***..
**..*......*..*.....................
.*..*......*.*......................
.*.*........***.....................
.............*.*....................
-1...-........**........-...........
..---..-............................

Generation = 144, Population = 81.
....****...-1....-...-...........-.-
....*..*.............-..............
....................................
....................................
.......................-............
....................................
....................................
..........**.......................-
.......*........................-...
......***.**........................
.....*..............................
....*...*...........................
.-.**..*............................
...**...**..........................
....***.*...........................
....***.*........**.................
................*****...............
-..............**..**...............
..................**................
...................**...............
..................**................
...................*................
.............**.*.*.................
.............*......................
.............*.*.**.................
..............***...................
.....................*.**...........
..................**...**...........
....................................
.................*.*................
.................*...*..............
.................**..*..............
..................***...............
...................*................
....................................
....................................
....................................
....................................
....................................
....................................
....................................
........................-...........
....................................

Generation = 216, Population = 47.
....****...-1....-...-...........-.-
....*..*.............-..............
....................................
....................................
.......................-............
....................................
....................................
...................................-
................................-...
....................................
....................................
.........**.........................
.-......*..*........................
........*.*.*.......................
..........*.**......................
.......*..*.**......................
........***..*......................
-.........**...**...................
....................................
....................................
....................................
....................................
....................................
...................**...............
...............**.**.*..............
...............*.....*..............
....................*...............
................*...*...............
..................*.................
....................................
....................................
....................................
....................................
....................................
....................................
....................................
.........................*..........
..........................**........
.........................**.........
....................................
....................................
........................-...........
....................................

*** Life<Cell> 1x32 ***

Generation = 0, Population = 22.
000---0--00000000-00000-000-0--0

Generation = 46, Population = 1.
1-...-..-...-...-..---.......-..

Generation = 92, Population = 1.
1-...-..-...-...-..---.......-..

Generation = 138, Population = 1.
1-...-..-...-...-..---.......-..

Generation = 184, Population = 1.
1-...-..-...-...-..---.......-..

*** Life<Cell> 2x2 ***

Generation = 0, Population = 4.
00
00

Generation = 135, Population = 0.
--
--

Generation = 270, Population = 0.
--
--
