20

76 87
4
39 12
23 10
14 66
45 19
485 60

65 9
8
38 2
7 7
2 0
8 4
1 3
28 3
30 3
4 6
509 36

78 69
15
64 11
41 3
54 15
76 29
0 25
37 3
10 5
22 64
47 1
63 63
70 67
11 17
15 31
4 12
50 20
296 54

65 70
7
44 16
45 25
49 62
44 50
18 33
54 8
33 52
324 79

13 52
2
1 19
3 11
367 123

1 62
32
0 39
0 45
0 40
0 15
0 49
0 15
0 56
0 51
0 53
0 56
0 60
0 21
0 5
0 22
0 25
0 17
0 47
0 23
0 59
0 8
0 21
0 60
0 29
0 53
0 17
0 42
0 4
0 48
0 51
0 43
0 25
0 18
13 140

38 79
28
31 0
32 32
12 20
7 47
25 44
22 61
30 23
30 26
20 15
3 43
23 27
6 62
1 52
16 15
34 21
18 1
35 48
25 49
6 31
37 10
4 38
0 74
20 31
7 59
12 1
10 4
3 12
36 54
481 35

40 30
44
30 5
19 8
17 0
24 9
23 20
34 24
39 12
28 3
39 5
20 11
35 21
38 16
39 18
35 27
7 18
22 8
18 18
0 0
33 29
8 11
0 15
25 9
31 5
16 6
4 14
26 3
18 3
29 11
38 18
17 10
8 6
7 23
27 0
33 16
5 14
16 24
26 22
35 25
34 9
36 15
31 3
9 5
7 22
27 17
355 29

26 97
38
6 61
3 80
15 76
20 47
0 19
4 34
12 29
14 83
25 0
14 47
5 46
14 47
15 33
9 32
1 23
20 43
1 85
16 56
23 46
0 92
1 10
21 65
13 52
2 96
23 5
14 66
10 5
12 87
11 76
19 72
14 59
3 26
22 11
21 2
16 38
0 39
9 59
6 46
602 200

71 1
38
50 0
48 0
28 0
27 0
18 0
61 0
58 0
26 0
4 0
32 0
66 0
0 0
25 0
50 0
45 0
38 0
57 0
7 0
30 0
31 0
66 0
53 0
52 0
42 0
14 0
7 0
37 0
32 0
37 0
38 0
45 0
53 0
38 0
50 0
31 0
27 0
24 0
4 0
387 162

91 25
43
21 13
52 4
42 3
88 13
70 7
13 15
14 19
81 18
50 6
11 3
61 3
67 12
37 17
1 24
84 23
78 1
13 22
77 21
19 3
49 4
30 9
57 23
16 13
64 10
52 15
31 9
85 5
71 23
4 17
57 8
83 24
88 9
36 12
4 15
49 16
8 15
68 13
26 18
85 8
2 5
37 9
69 3
8 10
486 78

86 94
28
55 3
34 17
13 0
33 34
83 69
20 43
10 9
30 53
46 56
73 11
24 50
32 91
82 66
24 12
60 21
37 23
59 57
9 38
34 90
28 69
61 13
57 19
0 14
69 38
41 22
37 34
28 92
82 69
576 85

52 31
33
42 17
40 23
30 2
37 7
38 3
41 11
49 20
18 16
40 9
36 7
30 25
31 15
43 7
26 8
46 6
24 30
22 27
3 24
1 0
46 23
30 10
15 7
2 8
46 27
24 7
28 15
23 3
22 17
1 28
51 7
46 9
50 5
3 13
53 170

45 96
31
25 50
30 50
38 32
2 67
39 17
17 74
16 18
17 70
12 81
44 8
17 90
13 88
11 1
25 83
38 74
22 77
38 33
33 19
20 11
16 63
12 67
26 61
32 93
20 64
27 37
25 12
32 1
19 40
23 26
25 54
35 47
55 198

49 51
26
10 47
3 14
18 12
40 50
32 49
46 50
6 44
48 9
13 3
39 18
46 22
6 2
21 44
28 2
22 1
5 15
32 11
39 43
33 26
47 32
44 39
25 32
25 47
5 39
36 34
38 4
467 106

57 91
31
49 59
21 20
20 88
9 73
14 5
47 4
46 45
0 24
19 67
13 35
30 37
2 6
31 30
26 14
18 65
32 19
35 32
42 85
54 10
7 7
34 25
56 20
42 33
21 14
18 81
25 41
3 56
14 80
52 57
1 15
17 63
242 43

75 32
3
2 5
48 15
15 4
451 47

96 76
5
36 9
19 17
67 28
43 10
67 72
411 76

79 49
18
21 28
28 0
57 6
35 33
22 6
7 7
36 23
4 43
31 23
30 4
72 39
65 8
29 7
4 4
56 37
33 21
44 25
8 37
240 57

75 85
35
35 38
39 18
27 56
5 78
12 0
61 30
30 75
52 42
67 31
5 30
48 24
6 65
66 80
70 4
67 42
48 56
6 83
34 36
59 19
67 20
41 74
25 2
58 35
63 14
18 65
43 24
49 4
49 66
69 10
3 54
18 26
48 83
47 1
70 40
38 2
61 120
