20

46 16
10
14 6
14 3
37 15
5 1
31 15
35 6
29 9
30 2
33 3
35 2
58 115

4 28
28
3 16
2 8
1 4
1 16
3 11
0 12
3 2
3 13
0 11
1 6
2 14
1 10
0 21
1 23
3 15
0 26
1 8
1 5
0 6
2 14
3 1
2 25
2 5
2 20
0 19
0 3
0 24
2 13
422 21

76 13
14
75 11
29 1
66 0
17 5
3 9
63 1
49 10
8 11
59 12
26 0
11 4
17 0
48 7
61 8
483 14

97 91
3
39 24
49 46
1 32
268 11

3 20
30
0 17
1 15
0 6
2 15
2 6
0 10
1 1
1 9
0 18
1 16
0 16
1 3
1 5
2 1
1 13
0 3
1 18
2 7
2 3
1 17
0 12
2 5
2 6
2 18
1 19
1 15
1 4
2 1
0 11
2 17
17 83

89 73
48
13 1
48 38
51 60
7 12
73 57
47 49
31 49
67 61
63 34
77 56
14 21
13 25
4 42
10 22
81 42
31 58
59 3
83 47
69 41
46 3
39 23
75 1
55 55
73 26
11 54
51 49
47 51
21 64
81 41
0 58
71 4
21 13
9 42
15 13
13 27
62 36
40 23
20 5
7 68
29 62
16 23
1 72
64 47
74 24
58 21
40 19
63 46
54 0
535 135

45 58
5
2 51
5 4
38 48
34 56
24 28
212 163

97 22
12
84 17
71 8
34 5
45 13
4 7
71 5
54 20
83 8
77 8
7 4
70 5
37 9
163 127

32 98
25
9 10
30 14
24 52
20 51
4 39
3 63
6 95
12 84
9 70
14 28
6 49
3 59
25 33
23 22
17 30
27 29
17 70
16 48
10 71
23 12
2 7
8 96
3 66
21 96
24 50
332 95

32 6
4
20 3
4 4
3 0
27 3
389 25

41 88
50
24 19
16 85
40 13
0 71
33 9
16 16
25 5
16 70
23 30
17 33
32 63
1 8
12 83
27 53
34 72
4 16
38 17
22 82
24 46
5 74
35 85
1 66
2 38
7 55
16 71
39 15
34 56
31 22
28 72
31 70
26 27
2 32
5 74
26 29
22 32
28 79
40 73
1 76
1 12
21 44
19 85
24 27
23 86
21 70
16 73
18 12
15 37
27 10
18 75
31 53
300 155

18 75
8
15 50
17 42
15 2
1 8
13 59
13 65
4 61
10 64
379 190

34 6
48
19 1
8 3
24 2
20 1
5 5
28 1
27 2
14 0
33 2
14 4
20 3
22 5
10 4
29 5
11 0
12 3
32 1
6 3
23 4
0 2
23 2
17 0
9 0
8 4
16 0
15 2
18 4
16 3
3 0
7 1
20 0
29 0
9 0
33 4
32 0
8 5
30 4
25 3
7 4
0 1
9 0
2 5
33 2
4 5
17 3
14 1
32 3
5 2
380 116

51 84
27
43 16
11 57
8 83
3 34
43 44
25 14
31 34
39 27
22 65
22 38
40 66
48 23
14 47
39 0
32 22
14 69
20 80
12 31
14 47
3 21
11 17
14 42
28 35
6 46
10 24
13 1
21 24
217 169

8 74
20
7 8
2 24
6 22
7 58
6 7
1 3
0 51
3 26
1 39
5 39
5 64
0 68
4 26
5 46
4 7
0 31
1 6
7 65
6 50
2 70
75 108

77 57
16
15 34
68 9
69 33
43 15
32 42
12 35
46 43
62 21
63 33
17 17
65 39
36 55
5 26
4 1
62 45
13 56
245 185

28 57
12
2 15
16 27
11 38
27 38
10 22
5 34
23 36
3 15
2 36
26 25
27 22
12 53
113 92

66 93
50
25 2
8 57
13 59
20 49
15 45
42 14
56 91
54 4
34 28
48 77
30 37
2 14
5 25
37 49
7 49
35 39
5 58
21 54
61 31
33 45
42 77
10 54
18 81
58 56
41 76
64 77
2 27
2 17
12 70
3 1
38 11
39 15
50 78
45 82
65 79
39 70
25 28
59 39
14 57
48 66
0 16
33 85
38 71
34 59
42 69
7 91
53 6
61 73
17 20
18 8
416 84

78 57
46
45 55
37 35
74 38
39 11
69 46
55 47
30 26
13 0
35 11
1 33
76 44
49 29
17 29
74 18
56 39
0 30
75 10
17 45
68 27
20 52
61 38
27 20
7 53
65 13
67 5
31 48
36 49
55 11
72 4
53 25
0 36
57 37
40 42
65 56
29 10
64 47
48 35
20 7
72 55
3 11
49 52
17 42
31 4
65 34
53 8
48 40
218 188

98 29
29
66 1
58 3
27 26
71 1
66 27
74 19
17 28
88 9
23 17
68 5
63 28
87 22
38 13
12 13
79 21
40 5
57 5
34 7
87 26
79 25
26 6
91 27
81 20
0 4
92 14
22 14
79 4
86 1
63 15
105 57
