22

20 12
30
15 3
5 1
3 1
15 5
14 6
6 0
8 8
19 10
15 2
3 6
6 0
2 4
9 7
13 7
19 6
5 4
10 9
18 4
17 8
8 0
18 9
12 8
17 3
14 8
15 4
0 9
1 9
9 3
0 5
2 6
89 2

13 10
10
11 3
11 7
7 4
0 3
10 4
8 4
5 4
9 4
7 2
3 6
55 14

3 5
20
2 2
0 4
2 4
2 1
1 2
2 1
1 0
2 1
0 1
2 3
2 1
0 3
0 0
1 2
0 4
1 3
1 3
0 2
0 1
1 1
83 47

8 23
2
2 16
2 21
98 6

18 6
21
7 2
6 5
16 1
14 1
10 5
5 0
10 4
1 0
4 3
7 0
4 1
6 5
3 5
3 4
17 2
12 2
1 3
2 3
9 4
6 1
10 3
90 44

4 28
30
2 3
1 0
3 8
0 1
2 26
3 7
0 21
0 12
1 3
1 23
1 0
3 16
1 19
0 12
1 27
3 14
2 3
0 18
0 10
0 25
1 3
0 16
0 25
3 4
1 19
3 22
2 12
2 1
0 27
3 14
100 31

28 16
31
8 11
24 6
27 12
2 8
23 5
1 6
25 15
10 14
22 8
5 5
5 0
2 13
22 8
18 3
21 0
10 11
3 13
23 7
26 9
17 0
6 15
16 11
21 13
19 5
25 2
20 1
13 15
1 7
26 0
13 2
23 11
71 34

20 18
17
9 15
11 14
2 8
12 4
8 4
4 7
16 9
3 0
18 9
15 8
5 2
12 0
8 15
12 1
10 17
6 8
16 1
67 45

22 29
2
21 14
14 3
99 31

23 16
19
2 8
13 12
10 3
10 11
11 9
14 10
10 12
6 5
3 3
7 5
4 5
22 12
6 5
0 14
21 2
17 15
16 9
22 14
5 3
54 43

6 4
12
3 1
5 3
3 1
3 2
0 0
3 3
0 2
1 1
5 0
0 3
1 3
0 1
69 2

3 11
18
1 0
1 3
2 3
0 9
0 5
0 8
1 10
0 9
1 0
2 10
2 4
1 6
2 1
0 10
1 9
1 7
2 0
1 3
82 46

15 10
19
1 2
7 3
2 3
10 1
11 4
13 2
8 4
9 7
14 4
7 1
6 8
11 5
8 2
14 5
13 9
8 4
1 8
12 6
1 0
73 49

24 27
10
18 1
12 16
20 23
11 24
3 24
18 13
7 7
19 19
3 22
19 16
69 44

6 13
26
1 11
4 9
5 9
2 4
0 4
3 9
5 0
3 3
1 2
1 0
3 9
3 3
3 10
5 8
4 2
1 3
5 0
0 10
3 5
1 11
2 6
0 9
5 1
3 1
0 10
5 1
79 37

16 3
13
14 2
5 0
7 0
0 1
1 1
0 2
10 2
13 0
1 1
4 1
10 2
10 2
12 2
53 27

29 1
11
2 0
22 0
28 0
21 0
9 0
2 0
25 0
26 0
21 0
5 0
8 0
90 13

6 13
12
5 0
4 10
2 6
5 2
5 5
3 6
5 9
1 11
0 7
5 10
5 7
1 2
81 5

17 13
33
9 10
16 6
4 1
6 2
8 3
13 11
5 1
7 0
15 12
13 5
4 0
5 12
4 10
14 2
7 11
0 7
14 4
12 8
15 8
15 2
9 0
3 0
10 7
3 1
0 3
8 4
16 11
12 11
13 8
3 4
12 10
12 10
16 6
84 32

1 17
8
0 8
0 15
0 7
0 3
0 8
0 7
0 15
0 15
80 28

9 19
11
5 4
1 13
2 15
1 2
8 4
2 8
4 11
6 14
5 3
3 3
8 9
80 17

16 23
8
1 15
12 10
4 2
8 9
15 14
7 4
5 9
0 19
66 44
