*** Life<Cell> 7x5 ***

Generation = 0, Population = 9.
----0
----0
-----
-0--0
-0-0-
0-00-
-----

Generation = 37, Population = 0.
.....
.....
.....
.....
.....
.....
.....

Generation = 74, Population = 0.
.....
.....
.....
.....
.....
.....
.....

*** Life<Cell> 21x12 ***

Generation = 0, Population = 34.
-0--00----00
---0--------
------------
-0------0--0
0--0---00---
----00-----0
-----------0
------------
---0--------
----------0-
--0---------
-0----0---00
---0--0-----
------------
------------
-----------0
---0---0----
------0-----
----0-------
--0-------0-
---0--------

Generation = 35, Population = 59.
....***.....
0-..........
..**.***....
...*....*...
....*....**.
....*.....*.
........**..
............
.*....*.....
.**.**..*...
....**..*...
***.*.*.*...
***.........
....*.......
..*..*......
..**........
........*...
-..*****....
..*..**..-.-
..**.**.....
..**.**..-..

Generation = 70, Population = 9.
............
--..........
............
.....*.*....
.......**...
.......**...
......**....
......*.....
............
............
............
............
............
............
............
............
............
............
.........-.-
............
.........-..

*** Life<Cell> 30x18 ***

Generation = 0, Population = 35.
00------------0---
----------------0-
-----------------0
------------------
----------------0-
-0----------------
--0------0--------
------------------
0---0-------------
--0---------------
------------------
------------------
---0-------0------
-------0----------
------0-----------
--0-------00000---
----0-------------
0-----------------
------------------
---------------0--
-------------0----
------------------
------------------
------------------
----------0--0----
-0--0-------------
------------------
-----0-0---------0
------------------
-0------------0---

Generation = 41, Population = 99.
..................
.*...-............
*.*..............-
*.*....**.........
.*....*..*........
.....*..*.........
......*.*.........
-....******.......
....**..*..*......
....*****...*....-
......**....*.....
....*..*..*.*.....
....*.*...*.......
...............*.*
...***..........*.
....**............
...*..***.........
...*******.**.....
....*.**.*...*....
........**........
..........*...*...
...............*..
......***......*..
.*.***.......*.**.
*.*......*........
........*...-.....
*-.*.*.*...-....*.
..*...*...-...**..
........-..-..*..*
.-.-...........**.

*** Life<Cell> 8x25 ***

Generation = 0, Population = 11.
--------------0----------
----------0--------------
-------------------------
--------0-0--------0-----
0------0------0------0---
----0-------0------------
-------------------------
-------------------------

Generation = 27, Population = 59.
......**.........-......-
*1**..**1.........*......
.*.......-......**1.*....
10***........**..*1.*****
...***.......***..*..*...
....***..-....**..*..*0**
..*.***.......*..*-.*....
.-*.**.-.......*...*.....

Generation = 54, Population = 17.
....*............-......-
....*....................
.........-............**.
***...***............*..*
......................**.
....*....-...............
....*.............-......
.-..*..-.................

Generation = 81, Population = 15.
.................-......-
.........................
.*.....*.-............**.
.*.....*.............*..*
.*.....*..............**.
.........-...............
...***............-......
.-.....-.................

*** Life<Cell> 30x3 ***

Generation = 0, Population = 2.
---
---
---
---
---
---
---
--0
---
---
---
---
---
---
---
---
---
---
---
---
---
---
---
---
---
---
---
---
--0
---

Generation = 42, Population = 19.
1*.
.*-
.-*
.**
1.*
11*
-*-
...
...
-..
1..
...
...
...
**.
...
..*
.*.
.*.
...
.-.
-..
0..
...
...
...
...
...
...
...

Generation = 84, Population = 8.
...
..-
.-.
...
.**
*.*
**-
...
...
-..
1..
...
...
...
...
...
...
...
...
...
.-.
-..
0..
...
...
...
...
...
...
...

*** Life<Cell> 2x23 ***

Generation = 0, Population = 22.
-----0-0--00---00--00--
0-0000--00-00-0--0000--

Generation = 38, Population = 4.
-.-...-...........***.-
.-..............-.-*-.-

*** Life<Cell> 6x22 ***

Generation = 0, Population = 17.
---0-0--0-0---0-0-----
-----0-00-0----------0
---------0-------0----
---------------0------
----------------------
-------0------0-----0-

Generation = 12, Population = 54.
..-.-..-..*.01*-*..*.-
-..**.....***.0.*.*...
110*0.--.-..-**..*1*.*
-*01..1.....*.1...0...
-0*.1-**1---01*.-**1--
1-1-****---..-.**01-..

Generation = 24, Population = 28.
.......-..*.*........-
-.*.......*.*.........
.***0**..*.....*......
..--***....*.......*..
.....*....0*0...*.**-.
...-..........**..-*..

Generation = 36, Population = 29.
.......-**...........-
-.*..*.**..*..........
.*..*..*..**..........
......**..............
......***...-.....*..*
.**.*...*.**......****

Generation = 48, Population = 20.
....*..-.**..........-
-.**.**..**...........
......................
..*...*...............
...***......-.....*..*
..................****

Generation = 60, Population = 10.
.......-.**..........-
-........**...........
......................
......................
............-.....*..*
..................****

Generation = 72, Population = 10.
.......-.**..........-
-........**...........
......................
......................
............-.....*..*
..................****

*** Life<Cell> 25x26 ***

Generation = 0, Population = 28.
-------0--------------0---
--------------------------
-----------------0---0----
--------------------------
---------0----------------
------------------0-------
0---0-------0-------------
---------------0-0--------
---------0----0-----0-----
--------------------------
--------------------------
--------------------------
-----------0--------0-----
--------------------------
----------------0---------
-------0------------------
---------------------0----
--------------------------
--------00--0-------------
--------------------------
---------0---0------------
--------------------------
-0-------------------0----
-----------------0--------
-------0------------------

Generation = 33, Population = 167.
......*...................
.-.-..***.*...*...**......
.........*.*.*.*...***.*..
......**.......*...*..*...
...**.1*.*....*.......*-..
-..**...**.........*......
.........****.-....*..*...
.**1-...-.*.....-...*..*..
-..**.....................
...1************.....*.*..
..*......****.**....*.....
..***.....**........*****.
..**..*.*.....*....**.***.
..***......-*.**..*-.....1
..*..*..**....**.**.......
**.-..**.*.......*........
..............***.........
...*..**.*.**.-.*.-.......
..*****..*.....*........-.
.*......***..*..*......-..
.*....*.....1*..*......-..
.*****..*.*1**.*.*....--.-
...**.*...*..*.*........-.
.......**...**.*0.--......
...-...*.....**....-.....-

Generation = 66, Population = 70.
.............*.*..........
............*.**..........
............**............
..........................
..........................
-.........................
......***.................
..........................
-.........................
.....*....................
....*.*...................
....*.*......*...**.......
.....*......*....***......
............*.*....*.**..-
.............*****......*.
...-...........*....*.**..
**.............********...
**............-..*1**.....
..........*.**..........-.
..........*.*.*......*....
..............*......*.*.*
.............*.......*....
.......................***
..........................
...-.....................-

*** Life<Cell> 13x12 ***

Generation = 0, Population = 32.
0---0-0-----
-0--00-0--0-
-00---0----0
------------
----------0-
--0--0-0---0
-0-------0--
-----------0
----0-00--00
---0-----0-0
----------00
------0-----
-----0------

Generation = 13, Population = 57.
1.--.1.-.1--
-....*-.-.0-
...*.-.**..-
...-.-*.1-1.
.1.--*1.....
*-1*...-*...
.*1*.-.*-.*.
*1-**-11-.1*
..-.**..*...
*..--.*.0*-*
..-..***...*
..**.**1.*-.
1--**1-*1**.

Generation = 26, Population = 50.
*****.******
*..***..**--
.**.*.....**
.....*...-..
.....*...*..
.*.*.**1*...
*..**0...**.
*...*..-1.*.
.**......**.
....*.......
..***.......
..*.........
............

Generation = 39, Population = 25.
**.......**.
**...*..*...
....*.......
....*...*...
.....****...
.........*..
.........*..
............
.....****...
...**.**....
............
............
............

Generation = 52, Population = 29.
**..........
**..........
.......**...
......****..
.....**..**.
.....*...***
....**...***
....****..*.
.........*..
............
............
............
............

Generation = 65, Population = 4.
**..........
**..........
............
............
............
............
............
............
............
............
............
............
............

Generation = 78, Population = 4.
**..........
**..........
............
............
............
............
............
............
............
............
............
............
............

*** Life<Cell> 21x7 ***

Generation = 0, Population = 15.
-------
---0---
----0-0
-------
-------
--0----
-------
----0-0
----0--
-0-----
-----0-
-------
----0--
--0----
-------
-------
-0-0---
-------
-------
-----0-
-----0-

Generation = 35, Population = 29.
.......
.......
.....-.
.....1.
.......
.**....
.*.....
..**...
.......
...-...
.......
.......
.......
.......
***.**-
*...**.
.*....*
...*.**
..*..**
.*....*
.*****.

Generation = 70, Population = 9.
.......
.......
.....1.
.....-.
.......
.**....
.*.*...
..*....
.......
...-...
.......
.......
.......
.......
.......
.......
....***
.......
.......
.......
.......

*** Life<Cell> 15x1 ***

Generation = 0, Population = 13.
0
0
0
0
-
0
0
0
0
0
0
-
0
0
0

Generation = 35, Population = 1.
.
.
.
.
.
.
.
.
.
-
.
.
.
0
-

*** Life<Cell> 21x20 ***

Generation = 0, Population = 3.
--------------------
--------------------
--------------------
--------------------
--------------------
--------------------
--------------------
--------------------
--------------------
--------------------
--------------------
--------------------
--------------------
--------------------
--------------------
--------------------
--------------------
----0---------------
--------0-----------
-----0--------------
--------------------

Generation = 28, Population = 153.
--0*..--.0------0---
-.**...-.*1-*.--1---
00--*0.0.1--1-------
-11-.*01-00*.1---0--
0-1-.1-1-01-1-------
-11*...-10--1-------
1*.0...1.10-*10-0---
**...*0*.1*---1010-0
11.*.*...0--*--010--
.*.*.*..1.----0*0---
0..**.....*-1-.-.---
*-...*.1.--..*-1.-10
*...**....-1...1-0-*
*.*-***.-....*0.---*
-...**..*...-**1..11
..**.........*...0.1
.**.**....1....*.-..
...1.......-...1**.*
.**.*.......***.*1-*
.***.......**--**1-.
--1*.......-*1***---

Generation = 56, Population = 73.
-.-...........**.*..
.............*......
........*....*......
**..**.*.*........*.
***...***....*......
.*..........**.**.--
.**..........**.....
.*.*..-....**.......
1***.....*.****.....
.......*.**..*...-.-
-......***.**.......
.-.....*............
....................
...-................
................*.*.
...............*..*.
............**.**.*.
...........**.**....
............*.**....
............*..*....
.............**...-0

*** Life<Cell> 16x5 ***

Generation = 0, Population = 22.
0-0-0
--00-
-----
---00
---00
0-0--
---0-
-----
----0
-----
---0-
---00
----0
-0---
0----
00--0

Generation = 15, Population = 27.
.....
...*.
1...*
...*-
..0..
*-...
*0-..
...*-
*...*
*1*.*
..-.*
..*-.
.*1*.
.11**
..*.*
-.-*-

Generation = 30, Population = 29.
.**..
.***.
...**
.*.*-
.*.*.
*....
.***.
*..*.
...**
**.**
.....
*...*
*..*.
*....
.*...
-...-

Generation = 45, Population = 15.
.....
.....
.....
.....
.....
.....
.....
.....
...**
.**.*
.**..
..**.
.**..
***..
.....
1...-

Generation = 60, Population = 0.
.....
.....
.....
.....
.....
.....
.....
.....
.....
.....
.....
.....
.....
.....
.....
....-

Generation = 75, Population = 0.
.....
.....
.....
.....
.....
.....
.....
.....
.....
.....
.....
.....
.....
.....
.....
....-

Generation = 90, Population = 0.
.....
.....
.....
.....
.....
.....
.....
.....
.....
.....
.....
.....
.....
.....
.....
....-

*** Life<Cell> 5x12 ***

Generation = 0, Population = 8.
------0-----
0------0----
-----0------
---0-0------
-----0---0--

Generation = 50, Population = 5.
............
...........1
.........*..
........*...
........**..

*** Life<Cell> 19x3 ***

Generation = 0, Population = 8.
---
---
--0
-00
---
-0-
---
---
---
---
00-
0-0
---
---
---
---
---
---
---

Generation = 12, Population = 21.
-0.
-..
*-.
*.*
1-*
*.*
0..
-..
.-*
*-.
*-*
-.-
..-
.-*
*..
1--
*--
*0-
.**

Generation = 24, Population = 13.
.-.
...
*-.
**.
...
...
...
...
.**
.**
...
...
..-
...
...
...
.1*
.**
.**

Generation = 36, Population = 7.
.-.
...
*-.
**.
...
...
...
...
.**
.**
...
...
..-
...
...
...
.-.
...
...

Generation = 48, Population = 7.
.-.
...
*-.
**.
...
...
...
...
.**
.**
...
...
..-
...
...
...
.-.
...
...

Generation = 60, Population = 7.
.-.
...
*-.
**.
...
...
...
...
.**
.**
...
...
..-
...
...
...
.-.
...
...

Generation = 72, Population = 7.
.-.
...
*-.
**.
...
...
...
...
.**
.**
...
...
..-
...
...
...
.-.
...
...

*** Life<Cell> 7x30 ***

Generation = 0, Population = 7.
-------------------0----------
------------------0-----------
--------------0--------0------
------------------------------
---------------------0--------
--------------0---------------
----------------------0-------

Generation = 18, Population = 71.
00-0-1.**0-1........*.**0-0-10
1---00-1.*..-.....1-1..*.-1*-0
0-10---1.*--**......**...-0**-
1-.---.-...-*-*1-.--..-----0--
1-.1-1.0.1.1-*.11.-*.....1.---
0---0-...**...*......*1-00----
----1*.0*-1.-......*.**-.-----

Generation = 36, Population = 43.
--..*....-.*..................
**...*.....***........**..***.
.**.-.......*..........**.***.
.......-.....***-..-..*-..*...
.......-......**...*...*....*.
-.**..........**.**......-*..*
..*-........-............*.-**

Generation = 54, Population = 32.
-........-.................**.
....................*......*.*
....-.........**....***......*
.......-.....*.......**......*
.......-...***.*.....**....*.*
...............**..**......**.
...-........0......**.........

Generation = 72, Population = 22.
-........-.........*..*....**.
...........................*.*
....-........................*
.......-...............*.....*
.......-...........*****...*.*
..................**..*....**.
...-........-.......*.........

Generation = 90, Population = 10.
-........-.................**.
...........................*.*
....-........................*
.......-.....................*
.......-...................*.*
...........................**.
...-........-.................

*** Life<Cell> 21x17 ***

Generation = 0, Population = 11.
-----------------
-----------------
--0--------------
-----------------
-------------0---
-----------------
-----------------
------0-------0--
------------0----
-----------------
------------0----
-----------------
-----------------
----0------------
-----------------
-----------------
-0---------------
---0-------------
---------0-------
------------0----
-----------------

Generation = 24, Population = 108.
-.0.....--.....11
*-*......*...*.*.
**1-.............
*.0..-...1*0....*
.*......1-..***.*
..**1..-.0-.1*..*
.1.-...-.-...**.*
.....11*.....**.*
...****-*-.-*...*
.***..*101.1*...*
-..0*..*.1..*...*
..*..*-....**...*
-..*-.*1.*1...*-*
-*....*..*.-.-.**
1*......*......*-
.........-*...*.-
..*.-...1.....-1*
-.*..*.-.*0....*.
..*.1*..-*0*.*..*
..1.*....-*...-..
.........**..---.

Generation = 48, Population = 66.
-.**...........-.
.*..*............
..**.............
.................
...........***...
.........-*..*...
.**.....**....*..
.*.*...*...*..*..
.*....*....*.*...
...........**....
..*....*...**....
...**.*.**.*.....
-....*****.*.....
.*...*..*..*.....
.*...***..***....
.*.*.*....***....
...***....**...-.
..........*......
.................
..............-..
.............---.

*** Life<Cell> 18x4 ***

Generation = 0, Population = 23.
--00
-0--
--0-
0---
--0-
0---
0---
----
-0--
0-0-
----
----
0-00
0---
-0--
0--0
-000
0-0-

Generation = 50, Population = 4.
-...
....
....
....
....
....
....
....
....
....
..**
..**
....
....
....
....
....
....

*** Life<Cell> 27x30 ***

Generation = 0, Population = 5.
------------------------------
-0----------------------------
------------------------------
------------------------------
------------------------------
------------------------------
------------------------------
------------------------------
------------------------------
------------------------------
-------0----------------------
------------------------------
------------------------------
----0-------------------------
------------------------------
------------------------------
------------------------0-----
------------------------------
------------------------------
------------------------------
------------------------------
------------------------------
------------------------------
------------------------------
------------------------------
------------------------------
-----------0------------------

Generation = 48, Population = 222.
..***...........**.**.........
.....*......**.*...**.........
-*...*.....*..*..*..**...**...
......*.......****.**....**...
.*...*.......**...*..-*.**..*.
.******......**...*..*.**.*.*.
...***.*.....**...**..1*..*.*.
...***.***..***.....*...*.....
*..**...**..***.......*.**....
........*.*..*.*..**..*.*-1*.1
.......*....**.**........*....
....*..*......**.-...*......-1
...***........*...*...*...*.*.
..*......*........1*..**.****.
.....*....*.........*.*0.....*
....*...*-.*...........****..*
....*..*................*....*
...*..*....-.*.-............*.
**..*..*..*...*........**-*.*.
****.*.**...*..*......*..--.-.
*..**.*.....**..*.....*.....*.
.*...*..........-*.....*......
*...*.......-.***.........***.
.*.**.-......-**.*.*.......**.
**.*.........**....*..1.......
.....**..**......*.*..*....-.0
....**...**......*...*.......-

*** Life<Cell> 30x11 ***

Generation = 0, Population = 27.
-----------
-----------
-----0-----
---------0-
-----00---0
--0--------
0----------
------0----
-----------
--------0--
---0----0--
-----------
----------0
-----------
-----------
-0---------
------0-0--
-----------
--0--------
0----------
---0-------
--------0--
------0-0--
0-----0----
--0--------
-----------
---0--0----
-----------
---0-------
-----------

Generation = 12, Population = 154.
0-*0*-.10*-
*.-**--0*.*
..*..-*-**1
.*....11--1
........1.*
-100.-.**-1
**.*-*-*.-0
1-.-.*--1**
*-0--.1-*-*
.*-0*0*0*.*
.-.-....*-*
.1..-11-11*
--0*.0.*.0*
-0-11.0*.1-
*1*.-.*1**1
.-.-..-0*--
*-.......**
-.*-*1-0*-.
.*-*.****-*
.*.1----00-
.-1*-.*-*-.
*.-0.-1-**.
.-*..*.1.1-
*-.0***-011
*.*..0.1.--
.-1.-0.-1-1
*.*1.....*0
*--.*..-*1-
.*.**.11***
.-*-01--*-0

Generation = 24, Population = 79.
-..**.....-
..**.*-.*..
...*.*..*..
.......*-..
...*...*.*.
.***.*.**-.
*....*1.*-*
..****-.1*.
****1...*.*
.......*..*
.-.....*.*.
..*.-......
.*.*.......
*........-.
*..*...-...
*..*......-
*.*........
*........-.
*......**..
**.....*.**
.........**
..-........
.......-*-*
.....****.*
.....**-*.-
.-...****-*
........*.-
...........
...........
.-..-.-1...

Generation = 36, Population = 86.
-****.....-
*...*......
*.***......
*..*....-..
.**........
.*.*...*.-.
..**..*.*..
..*..*..*..
.*****.*...
..**..*....
.-.*...*...
.**....*...
*.....*....
*.**.*...-.
***....1**.
.......***-
.*.....*...
.*.......**
........*.*
........*..
........***
..-........
....***..-.
....**.***.
..........-
.-.*.......
...*.*.*...
.......*..*
....***.**.
.-..-*.**..

Generation = 48, Population = 65.
****......-
....**.....
...***.....
....*...-..
..****.....
**..**....*
..........*
.........*.
...........
....*......
..*.*......
.*.........
....*....**
*........**
**.**..-...
..***......
...........
...........
.....***...
....**.***.
..........*
....*.....*
.....*...**
.**...***..
.**.......-
...........
...........
.....**....
....*..*...
.-..*..*...

Generation = 60, Population = 43.
.**.......-
.**........
...........
........-..
...........
...........
...........
...........
...........
...........
...........
...........
...........
.......*..*
.......*.**
******.....
...*.....*.
*..*..*....
*....**.*..
.****...*..
.....*.**.*
...**...**.
...**......
...........
...........
...........
...........
.....**....
.....**....
.-.........

*** Life<Cell> 27x5 ***

Generation = 0, Population = 10.
-----
-----
-0---
-----
-----
-0---
-----
-----
-----
0----
----0
-0---
0----
---0-
-----
-----
-----
-----
0----
----0
-----
--0--
-----
-----
-----
-----
-----

Generation = 44, Population = 9.
..-..
...-.
.....
.....
.....
.....
.....
.....
.....
....-
.*...
*.*..
*.*..
.*...
.....
.....
.....
.....
.....
.....
.....
.....
.....
.....
...*-
.-.**
.....

*** Life<Cell> 5x29 ***

Generation = 0, Population = 5.
-0---------------------------
--------------0-00-----------
-----------------------------
-------------0---------------
-----------------------------

Generation = 40, Population = 25.
-....................***.*...
.*...........*......*....*...
.*...*.......*.....***.*.*...
.....*..............**.***...
.-...*..................**.-.
