30

39 49
20
2 20
10 4
25 30
9 14
2 33
26 41
2 3
18 29
23 12
34 22
9 17
24 33
18 27
15 46
36 5
32 29
12 19
34 0
15 40
20 43
35 15

54 26
16
21 12
37 20
33 9
34 21
44 7
2 12
1 23
14 2
25 5
13 5
2 3
27 25
49 19
53 21
39 24
22 9
15 20

20 10
26
0 3
12 7
15 4
1 3
13 4
17 0
12 4
6 4
3 3
9 4
13 2
15 0
6 4
3 2
18 0
12 8
11 5
3 0
5 8
4 5
2 0
12 5
18 5
14 8
10 1
6 6
28 15

26 55
19
22 7
3 4
8 41
18 51
9 11
25 16
13 36
25 53
4 0
8 16
17 17
13 11
8 26
13 16
7 8
22 34
18 38
14 41
11 24
15 14

59 63
22
22 42
18 54
39 56
35 49
26 62
12 18
28 55
38 7
48 58
38 14
19 10
0 29
13 59
53 53
37 29
38 1
8 54
10 44
45 24
23 50
14 17
56 41
45 5

24 35
2
13 34
4 23
22 6

26 19
19
4 2
10 16
14 8
2 15
24 11
16 16
24 0
13 0
2 16
4 6
12 6
6 18
22 2
14 10
18 15
17 1
16 9
3 2
3 16
19 15

36 68
6
7 4
29 6
14 48
20 7
33 7
28 1
11 5

50 23
22
22 6
46 18
16 11
30 13
5 19
40 6
18 16
32 17
33 11
47 22
20 0
9 15
34 15
6 10
48 22
42 6
12 21
45 4
48 9
47 13
37 5
1 3
25 17

48 66
4
47 10
17 8
33 41
8 7
39 10

38 53
24
15 15
20 42
32 29
19 7
23 31
30 29
20 8
8 39
10 26
31 36
10 42
16 26
10 20
32 50
2 36
34 34
7 32
20 9
31 12
23 44
10 32
7 38
37 35
16 24
25 11

57 32
21
10 5
30 6
34 2
22 17
24 1
18 0
9 4
46 7
41 18
33 4
35 31
41 25
47 9
28 9
56 30
22 10
23 30
27 0
13 17
16 13
30 1
19 17

46 69
19
13 52
38 13
35 18
9 50
11 44
22 28
32 23
14 43
38 57
25 15
12 51
24 19
23 41
7 35
11 49
15 45
4 46
36 24
37 6
48 8

3 52
6
0 11
2 47
2 5
1 6
1 41
0 0
14 13

40 45
8
20 35
11 5
23 23
23 10
13 8
11 13
16 31
20 19
10 12

42 28
1
16 17
33 14

41 63
13
16 7
6 4
17 36
16 5
14 13
40 34
34 52
2 28
20 40
5 49
26 62
17 35
12 42
11 16

46 20
25
42 18
7 6
14 7
8 18
7 3
23 15
3 12
30 17
1 12
16 0
9 0
36 2
34 4
36 15
38 19
4 11
31 12
37 5
43 12
0 5
36 15
27 14
27 17
15 13
15 16
37 7

67 51
30
61 10
51 25
65 19
47 46
25 12
58 5
14 25
43 8
27 15
49 2
8 10
28 2
20 47
11 0
42 32
58 9
11 35
64 27
2 41
52 50
58 33
54 49
11 18
57 25
6 35
63 32
64 49
9 39
3 26
24 33
32 4

37 34
3
27 16
1 24
23 9
44 20

44 22
18
30 5
19 9
32 10
8 19
6 1
34 17
30 14
0 5
18 15
26 1
9 18
18 19
40 14
43 16
43 9
24 13
18 14
42 1
4 5

32 68
28
19 63
0 5
4 53
5 23
11 2
25 41
31 23
30 20
1 52
0 58
0 15
6 30
6 41
30 16
3 55
2 49
3 18
25 32
23 40
13 53
13 11
30 60
16 51
21 23
10 23
2 44
5 42
9 32
49 11

40 43
8
14 2
3 22
2 28
4 5
31 22
28 24
20 27
24 20
32 19

67 32
8
3 4
0 2
15 18
20 23
22 0
49 23
41 15
27 18
7 8

1 60
1
0 54
49 11

46 2
11
12 0
43 1
8 0
36 1
26 0
3 1
24 1
26 1
35 1
28 0
27 1
25 13

42 6
28
33 2
28 1
40 3
0 3
31 4
37 4
20 4
16 5
2 5
18 4
18 1
8 3
32 1
7 4
27 5
13 3
23 0
28 4
20 3
10 0
5 0
26 0
29 5
11 4
5 0
11 4
35 4
29 4
22 13

53 46
13
47 4
22 2
39 33
26 17
23 2
34 11
26 7
25 10
42 27
26 2
19 29
40 45
29 9
41 18

39 27
10
7 5
15 14
33 19
38 23
31 15
32 20
3 5
28 6
33 3
21 8
15 14

20 28
14
9 17
8 16
1 9
8 18
15 5
8 3
8 26
2 13
13 1
12 0
17 8
8 24
10 19
11 3
8 9
