25

4 19
8
3 12
3 12
1 3
1 15
1 12
1 16
3 16
0 0
27 2

8 10
8
1 8
6 0
5 0
5 1
4 4
1 7
5 8
7 7
27 6

13 9
20
12 3
9 0
6 1
0 4
7 4
6 4
8 6
3 7
1 2
1 8
8 0
10 2
9 5
12 8
9 4
9 5
10 5
1 0
1 4
11 2
18 7

7 14
4
2 6
1 2
0 6
2 4
22 3

14 2
5
6 1
6 1
7 0
1 0
12 0
26 9

19 14
18
9 1
13 4
4 3
2 12
2 8
9 3
0 3
13 10
16 5
7 1
15 4
8 7
8 3
14 4
5 1
2 7
11 10
6 13
26 2

10 12
15
5 9
4 10
0 11
7 8
1 5
1 1
3 0
5 5
0 10
9 10
5 5
3 5
2 9
8 5
9 11
26 5

15 18
8
10 8
8 8
6 5
3 14
6 8
1 2
9 1
3 6
12 7

20 1
6
2 0
18 0
2 0
13 0
5 0
19 0
12 3

8 3
1
1 1
16 3

6 7
7
3 1
3 3
4 3
3 3
3 4
0 5
0 6
20 10

15 3
8
0 2
9 2
3 0
8 2
4 2
3 2
3 0
5 2
19 15

7 14
14
3 5
0 1
0 5
1 2
6 1
3 1
2 6
1 4
5 11
5 2
6 5
4 9
1 5
0 8
20 13

5 4
15
1 2
2 0
2 2
2 3
0 2
1 3
3 1
0 0
2 1
2 1
3 1
0 1
0 0
1 3
3 1
21 8

13 4
17
6 3
0 1
10 1
11 2
6 2
9 0
4 0
5 1
10 2
7 3
3 3
11 2
2 3
11 1
0 2
6 2
10 0
17 11

5 7
11
0 0
2 1
0 1
2 6
4 5
0 2
4 5
3 4
0 4
3 1
2 2
27 9

11 13
20
3 10
1 7
2 5
4 12
5 11
5 4
4 12
6 8
2 12
9 2
4 3
7 10
10 2
1 7
2 9
9 4
5 12
6 12
0 6
2 0
2 11

18 11
7
14 4
16 3
14 2
2 1
13 0
8 10
16 8
26 5

1 9
19
0 1
0 0
0 1
0 4
0 0
0 0
0 8
0 6
0 8
0 8
0 7
0 7
0 0
0 4
0 8
0 6
0 1
0 5
0 6
14 2

16 8
20
12 7
9 1
0 1
2 1
15 7
9 4
13 6
2 1
15 5
6 6
4 1
6 6
13 7
5 6
3 5
1 7
15 4
10 4
15 4
4 6
20 7

20 2
15
11 0
9 1
3 0
16 1
10 0
12 0
6 0
13 0
6 0
3 1
11 1
10 1
11 0
10 0
12 0
5 8

19 5
20
15 4
5 2
5 3
3 3
0 4
3 0
3 4
1 0
0 2
8 4
17 1
8 2
3 1
0 1
12 4
0 3
11 4
2 2
18 1
6 2
21 1

11 6
17
4 3
8 2
2 0
9 5
6 2
7 3
3 1
1 1
6 0
10 4
10 0
3 5
7 0
10 0
1 3
2 3
0 0
15 1

12 4
18
1 3
8 1
2 2
9 1
10 0
8 1
1 0
2 2
7 1
3 2
10 1
7 3
2 0
4 2
9 0
8 0
9 3
6 3
13 6

10 1
5
3 0
7 0
8 0
6 0
4 0
26 12
