*** Life<FredkinCell> 7x17 ***

Generation = 0, Population = 14.
----00-------0---
0-----0--------0-
--------00-------
-0------------0--
-----------------
-0------------0--
------0--0-------

Generation = 2, Population = 46.
--01220000-0-0-1-
010-1---1----11--
----0011--10-0---
10-0--0-----0-010
------0-0--------
-0-0--------0-0-0
----0-0110-0-----

Generation = 4, Population = 35.
10-------2-------
21--1-0---10--3--
------3--2--1----
-2---0----1-----2
----012--1---0---
1----00---0---000
--0--0--120--0---

Generation = 6, Population = 58.
-011--10---10----
21-1102--13--3---
10---0532-31-21--
-2--02-00--11-12-
---121----1-10-1-
111002-1--2--12-2
1-01--------1--1-

Generation = 8, Population = 24.
-01--2------2----
2-----412--2--3--
12--------------0
-----41--1--1----
-----------------
-----20--1--1----
31------------0--

Generation = 10, Population = 49.
--3-42-2--0-2-1-0
4-1-1---434--5--1
14-0-2------2-2-0
3--016-1-12-1----
--------------0-0
---0242-11411-4--
-311--------2-0-0

Generation = 12, Population = 44.
-2---41-12-------
6--2-2--63----411
36--0------------
-31--6--034--1--2
1-0--2------1-2--
122----1--41114-2
5-1-02----1------

Generation = 14, Population = 55.
1----4---222-----
8--2--5-63-20-6-3
-601----22--3-3--
53111832-3-2-11-2
-0-234-1----3-4-0
-2-13----2-1---02
---1--222-3---2--

Generation = 16, Population = 25.
-3---4---22--12--
---4----6---0-8-3
-----46--44------
7---3--------3---
-----------------
3---3--------1---
-----4--43--3----

Generation = 18, Population = 51.
-3----3-1----3222
93--336-----06---
-6-306---662534--
---23-4-1--233323
------2-0-2-3----
----3-3----1-1-1-
---2-44-65-13-2--

Generation = 20, Population = 44.
-----4---4---32-4
+--4---2--5-08--4
--1--68-28--5----
7-3-3---34-------
-0------2-2-516--
--32-----3--215-3
-4--2-4-8-3-51--0

Generation = 22, Population = 60.
--42--5-2----3-26
-5--4-----520--26
38-3-8+--8647-4-2
7-5-3----4-2--5--
-014442-4120-363-
-45--4-1335-4--1-
--22--4----15-22-

Generation = 24, Population = 37.
--6---5--5--2---6
+--54-6-7-540-9-8
3-3----------36-4
--7--+5-4---34---
-----------------
--7--63-5---61---
6---3--------14-2

Generation = 26, Population = 54.
------732532444-8
+73-6-8-75--0----
----1-+--8-5--606
--9-5+724-5--4-25
--1-5------------
4-74-8-2---38151-
----3-5----251-22

Generation = 28, Population = 51.
-----57-4-3-6----
--56848---65-8+38
----------8--3--6
84+-7-9-6-5-5---5
3-1-7-4--1--648--
-4-6-85-6--3+35--
----3---864-71---

Generation = 30, Population = 61.
---445-34----46-9
---686-387872-+38
5-4-1+---+8575-16
-4+29---6-7----3-
----9-43-13---84-
4-8--+-2-555-352-
6-----63--6-7--2-

Generation = 32, Population = 23.
24------4--------
----8-----+9---5-
----3+------97---
-6---+----7-----6
-----------------
-4---+----5-----5
--3--5----8--1---

Generation = 34, Population = 62.
-674657-4-5-65---
-86--78-+9+-2---+
5954--+42-86--83-
-6--++-26--37-54-
--2-+-----4-7----
-4---+-27-7-+-6--
7-3447-38-+381-3-

Generation = 36, Population = 46.
-69-6--------7---
++--97+4+-----+5+
--7--+--4-8--9--6
-----++--5--7----
412--6--4-6--6---
-4--4-5--5-7+--35
75--47------+36--

Generation = 38, Population = 63.
36+4-68-6-62---3+
+---9-+4+-+--9+--
---6-++5---7+-838
9--2++-3-58-7----
63----64---0--961
--876+-37-89+---7
9-5-4-738--3---34

Generation = 40, Population = 40.
3----88-86------+
---7---6---+3--6+
-98-3+------+-8--
-7+--+--67+--5--6
-----------------
-48--+--75+--5--7
-57-69----+-----4

Generation = 42, Population = 57.
-7-6-----8747----
--7--8--++---+---
--8-5+-76+9-+-8--
+7+3+++4-7-4-55-6
----------6-7-+-1
648-7+6--5--+575-
+5---9949-+-+-7--

Generation = 44, Population = 53.
--+-8----87-97---
-+9--+-6-+++-++7+
798-5+--8--------
+---+--------7---
643-+-7-426------
66+79+-485+++--7-
-57-7---+7----9--

Generation = 46, Population = 59.
-7+-8994-8---765-
-----+--+----++7-
7+--5-+78-+-+9---
---4+-+-7--497747
8--5-8-6-4619-+--
66------8--++67--
--759-+4---5+-9-5

Generation = 48, Population = 36.
------9---8--78-+
----+--7+-+---+--
-+9--++--++--++--
+-+-+---98-------
-----------------
6-+-+---85-------
-5--+9--+7--+4--5

Generation = 50, Population = 50.
-8+-++---9-5--85+
+---++----+-----+
8-----+---+--++4-
+-+-+----8-4--9--
--3-+-7-4-6-+-+-2
6-+----685++-----
-58-++--+7--+6-5-

Generation = 52, Population = 63.
-+---+----+-+9+-+
--+8+-+8++-+3---+
8++-6++-9++-++--9
--+--++-+---98---
-6--+87-658-+-+--
6----+6887+-+79--
+78-+++--7+-----6

Generation = 54, Population = 58.
4-+-+-96-9+6--+5-
++---++8---+5---+
----6-+-++--++-6-
--+-+++4+-+--8-49
--3-+---8--1+6+-2
8--7+---+7--+7989
+-+---+-+--6-----

*** Life<FredkinCell> 15x7 ***

Generation = 0, Population = 24.
0------
---000-
-----00
--0----
-------
------0
------0
0-----0
--0----
-------
000---0
-0--0--
00-0-0-
-0-----
0------

Generation = 10, Population = 44.
-1----4
-10---1
44----6
232--3-
---221-
----261
12-1--0
-------
12-1--1
----256
---225-
141--4-
65----4
-40---0
-3----5

Generation = 20, Population = 0.
-------
-------
-------
-------
-------
-------
-------
-------
-------
-------
-------
-------
-------
-------
-------

Generation = 30, Population = 0.
-------
-------
-------
-------
-------
-------
-------
-------
-------
-------
-------
-------
-------
-------
-------

*** Life<FredkinCell> 6x18 ***

Generation = 0, Population = 13.
--0--------0-----0
-0----0---------0-
0-----------------
-------0----0-----
--0------0---0----
-----0------------

Generation = 4, Population = 25.
--0---01-0--------
--1---1---0-0-----
----1------0-----0
---0-1--1--0----0-
0----00----0------
------11-0--0---0-

Generation = 8, Population = 35.
--213-----11-0---0
0------230----0---
2-1---3-01---2----
-2--0-11----1--1--
010-01----12---0--
------1------0--0-

*** Life<FredkinCell> 2x10 ***

Generation = 0, Population = 18.
0-00000000
000000-000

Generation = 7, Population = 10.
34-2----5-
-2-3--2331

Generation = 14, Population = 9.
-525--23-3
4--4---4--

Generation = 21, Population = 12.
56556-45--
--77--6-56

Generation = 28, Population = 10.
--979----7
--8-64996-

Generation = 35, Population = 15.
+9+--++9+9
959-78--9+

Generation = 42, Population = 11.
-++-+++--9
---++9-++-

Generation = 49, Population = 6.
+-----+--+
+--+-+----

*** Life<FredkinCell> 4x7 ***

Generation = 0, Population = 1.
-------
-------
--0----
-------

Generation = 6, Population = 3.
----0-0
-------
------0
-------

*** Life<FredkinCell> 27x8 ***

Generation = 0, Population = 21.
--0---0-
---0----
--------
--------
--------
----0---
--------
--------
--------
0-------
--------
0----0--
--------
0----0--
--0-----
-0------
-0------
--------
---0----
0---00--
--------
---0-0--
---0----
--------
-0----0-
--------
--------

*** Life<FredkinCell> 14x11 ***

Generation = 0, Population = 21.
0----0---0-
0----------
00--0-0----
--0----0-0-
-----------
-----------
--------0--
-----------
-0------0--
-----------
--0-------0
---0-------
---00-----0
--------0--

Generation = 2, Population = 52.
2100101--0-
0------0-1-
---1000-01-
----10-0-0-
00--0-0-0--
--0----0-0-
-0----0-0-0
-----------
--10--0-0--
---0-------
01-0-------
-0---0--0--
-0---10-1--
---1--0-0-1

Generation = 4, Population = 48.
2-0--03----
2-1-0------
-1--2----31
1--0-00--2-
22---1--01-
1----------
100---0----
--11---0-0-
-1-0-1-----
--------1--
2----------
-------12--
12-12-001-1
---11-----1

Generation = 6, Population = 72.
41-11251010
4--020---2-
-1-2---0-33
31-0-0--0--
----2----1-
-----110---
1-0------1-
-1--1--000-
--3--111---
--01--0-110
--0-00010-0
---2110-21-
-4-12----0-
-1111121---

Generation = 8, Population = 50.
-3---45-03-
------0-0--
1----12--3-
-10230---31
44-0--1---1
2-------1--
-----11--3-
--------0--
---10-3---1
0--3-------
22--0-0----
--02---2-1-
-6-34---1-3
1-----2----

Generation = 10, Population = 81.
53--3-5---2
-121-10-23-
--1-31---54
-10-30--1-1
-41222----3
40-1031-10-
20-0----1--
---2--0-0-1
1-5---3--11
20-5-0-011-
24-20------
11-22-02-1-
2-13622-1--
---33-2320-

Generation = 12, Population = 68.
-31136---42
5-4-3-0----
----33--2-4
-------11--
---4--10-1-
4-13--3-1-0
--0-0----31
-2---1-0---
--5-1--11-1
--2-1-121--
46--0-1-201
---4-3-431-
4---62-13-3
2-1-3--3-23

Generation = 14, Population = 73.
6--1586--64
------01---
-2-3352-4-4
---4521-13-
-52-34-0---
--1---5-1--
3--1---1-5-
1--321---12
-1--324--1-
4046-0----0
--1322-1---
22-4----3--
-7-36233--5
4-13--35-4-

Generation = 16, Population = 55.
---3586-186
---2--2----
2--3574--64
-1-452-2--1
-72-----2-4
-----------
51----2----
-----------
3----26-23-
--6----4-1-
581-2-2---3
4-24---5-2-
-9-5-25--15
------3----

Generation = 18, Population = 73.
643358--3--
---2---34-0
2-2------84
-324---2141
57---51-216
-1-314-1--2
-3-2032-161
--1----1-3-
3--1--8-4--
--8721-----
58----2-3--
-2--3-1----
5-3--45----
4-244-5635-

Generation = 20, Population = 73.
---5---159-
--64--35--2
---5--4068-
5--6-314-4-
-9-5-5--2--
--23--51-2-
--222----81
321-42---53
-373--8-43-
5--9-3---2-
7---224---3
6-2535-6-3-
7+56--73---
6-24------4

Generation = 22, Population = 88.
-4-----1-+7
-2-6-237--2
----786-6-5
53466---2-3
-94-37--2--
4-252-7-242
74--2--23+1
5-3-44-11-3
-39----2651
7-9--5-4--0
---42-6-323
-427551---0
9+58659-427
-22----737-

Generation = 24, Population = 68.
-6-75-6---7
6-76---743-
---6-+--885
7-66---5-5-
-96-592--27
---5-------
9--32---3-3
------1----
-5--43--85-
72+-252--40
8934--8----
--4---3834-
-+-+879-447
7-------5--

Generation = 26, Population = 78.
--47----6+7
64-83-4---3
-24---7-88-
75--7---3--
--6-794--29
6227-682-6-
964--54---3
7444-51-274
-7--4-9-+--
--+---26242
-+3--28-5-5
756-6--8---
+--+879----
-------9-75

*** Life<FredkinCell> 2x29 ***

Generation = 0, Population = 29.
0-0-0-0--0-0---0--000--0----0
0000---00---0---0000---000000

*** Life<FredkinCell> 14x8 ***

Generation = 0, Population = 39.
--0--00-
---0-00-
0--0----
--0----0
0-000--0
-0--0---
----0---
-0--0---
0-00----
--0--0-0
0--0-000
0---00--
--000---
0-0-----

*** Life<FredkinCell> 1x21 ***

Generation = 0, Population = 9.
---00-----0-00000---0

Generation = 11, Population = 14.
12--45334---4302440--

Generation = 22, Population = 10.
--7---5-8--8-744--298

Generation = 33, Population = 11.
56--9-8-+--+-9-8++5--

Generation = 44, Population = 14.
+++-----+8++-+7++-9++

Generation = 55, Population = 11.
+--++-+++++-+-+-----+

Generation = 66, Population = 11.
++-+--+-++++-++-----+

*** Life<FredkinCell> 20x14 ***

Generation = 0, Population = 5.
--------------
--------------
---------0----
-----0---0----
--------------
--------------
--------------
--------------
--------------
--------------
-----0--------
--------------
--------------
--------------
--------------
-----0--------
--------------
--------------
--------------
--------------

Generation = 3, Population = 71.
-----0--010---
----0-000200--
---0-00-01010-
--0-0--0-1010-
---0-0--0200--
----0-0-010---
-----0---0----
-----0--------
----0-0-------
---0-0-0------
--0-0-0-0-----
---0-0-0------
----010-------
----010-------
---0-0-0------
--0-0-0-0-----
---0-0-0------
----0-0-------
-----0--------
--------------

Generation = 6, Population = 49.
-----0-0-2-0-0
-0---1---3---1
---0---0-2-1-2
-------------2
---------3---1
-0-----------0
---0-------0--
---0-------0--
-0---1--------
---------1----
---0---0---0--
---0---0------
-0---2---0----
-0---2---0----
---0---0------
---0---0---0--
-----0--------
-0---0---0----
--------------
---0-0-0------

Generation = 9, Population = 65.
--------------
-0---2-----0--
0-0-040--30202
-0--020-03-3--
-----0--0400-1
---------1----
-----2--------
----0-0-------
-----1--------
-0-------1---0
0-0--0--020-0-
-0--0-0-020--0
-----3---1----
--------------
-0-----------0
0-0---------0-
-0---1-------0
----030-------
----010-------
-----0--------

Generation = 12, Population = 42.
-0---3---4-2--
--------------
-----5-0-3---5
-1-----0---3--
-----1-------2
--------------
-----2---4-2-1
-1-------1-1-1
---------2----
--------------
-0-------3-1-0
---------3----
--------------
-----3--------
-1---1---1---0
-0---------0--
--------------
-0-------0----
-1---2---0----
-0---1-------0

Generation = 15, Population = 136.
010---01--02--
0-00-40203040-
03-1-601--0405
-10--30----303
--0101-0-4--0-
-----00---0-0-
--02--0-----04
-1020-01--02-2
02000--1030200
0200-0----02--
-00-00020----0
---203-20-020-
-2-0050--30-0-
0---040----101
-----2-1-1-001
0-----0-----0-
-0-----0----0-
--0-----0--001
---1-----10100
----0------10-

Generation = 18, Population = 55.
---0-3--------
---1-5-2-3----
-3-4---2------
-1-2-----4-3--
-----4-1------
---0-1-0-4----
-----2--------
-----3--------
-------1-3----
---0-1-1-4----
-----0-3---1--
---2-4-----2--
-----6---6-0--
-----5-0------
---1---2-2----
-----3-1-0-0--
-----3---1----
-----4-1------
-------1---1--
---0-3---3-1--

Generation = 21, Population = 128.
--0-0---------
-1-1---3-3----
0604-805-404-5
0------2------
0201---20500-2
-0-00201------
--04-3-2--0---
--030-030-----
-2-00-02060---
0-00-2--0702-1
--0-00-4-50--1
0-0205--0--20-
-2--0-00----02
-3--0801-3---1
0-01--0---00-1
-20---02--0---
---0----0400-0
----0-0-0-0--1
-1-----2050-01
0-0-0---03--01

Generation = 24, Population = 52.
--------------
-----6--------
-7-5-9-8-5-7-6
-------2------
-3-2-5---6---3
--------------
-----4--------
-------4-1----
--------------
-4-----------2
-0-2-3---5-3-2
---2---3---5-2
-3---6-----1--
-----8---4----
-2-------4---2
-5---------0-1
--------------
-----6-4-3----
-1---4-5-6-3--
-----3---4-2-2

Generation = 27, Population = 119.
0--4----------
-30-0--4---5--
--06--0-060-0-
-------30-03-3
--0---------0-
-2-2----0-00-1
010-05-4--0405
0-0306-5---3--
04--01-40--3-3
-5-0----0-0--3
-----3--0--602
---306030----5
-30--9-2-8---4
060---0-050-0-
05-4----050---
-6040-0-----0-
-0--0--2040---
0---0--5--0-0-
-1--0-06-60--4
--0-040----5-3

Generation = 30, Population = 75.
---4---2---2-1
---5---5-5----
-8-9-+-+-----6
-3-----6-4-6--
-4-3---7-7-4--
---2-3---7---4
-----5-----4--
---4-7-6---4-3
-5-------8-6-4
-8---4-2-8-4-3
---4-4-5-5-7--
---4---6---7-5
-------3-9----
-----+-1-5---2
---7-----6----
-------5---0--
-1---6---5-5--
---3-7---6----
---3-------5-7
-1-1-5-2------

Generation = 33, Population = 53.
----0-0-------
-----8-5---5--
---+--0-0-090-
--0-0--6--090-
---4-----7-5--
--------0+0---
--------0+0---
---------1----
--------------
---0---3------
--0-0-0-0-----
---5---6-5----
-----+--0+0---
----0-0-060---
---7---4-7----
--0-----0-----
---0-7-2------
--------------
--------------
--------------

Generation = 36, Population = 49.
-1-----3-5-4--
---------5----
---+-+-+-6-+-8
-------------5
-----6--------
-----4-------4
---7-5-----5-5
---5-------5--
---------+----
-----5--------
---6---5-7-7--
---6-6-6------
-----+-------5
-6---+---7---2
---8---4------
-7-7---5-2-1--
---------6----
-----8---7----
--------------
---2-5-2------

Generation = 39, Population = 164.
0-0---040-0501
-4-6-80-050---
--0--+-+-9--09
----06060--+0-
--0-07-90906--
-4----040+-0--
04--06070+0-0-
02060+06050--4
-6-10-0-0+-8--
-90---03--0-04
0-0-06-8---803
-109070-0--807
-3030+05-+040-
07000+0208----
08090605-8--06
-70+060-0-0202
-10-07-2-6080-
0--5--0-0+01--
---3-5--090---
0-0------7----

Generation = 42, Population = 58.
-1-6---------2
---6---6-6-7--
-9---+---+-+--
-------6------
-6-------+----
-----6-5---1-5
-----7-----9-6
---7-+-7---7--
-6---4-----8-4
-----6-4---5--
-----6---7---4
-2---7-----+--
-------5------
-8-----2-+----
-9-----5------
-8-----7---3--
---1---3-6----
-----8-7---1--
-1-------+----
-------3-8-5--

Generation = 45, Population = 132.
020-----0-05-2
0507-----70+--
-90+0-----0+0-
-30-0--6-6--07
0--50-0+-----6
-6---70-0+-2--
-60+----0---0-
0--80+0-0----4
---1-4050----4
0+01070----60-
0------+0-090-
0-0+0+--0-0+-9
0503-+080+--08
-90-0+-20---04
-9--0-0------6
0+--06--0--4--
0-0--7-3--090-
06-------+0-0-
-1-5-5--0--60-
------0--+-6--

Generation = 48, Population = 53.
-------4-+----
-----9---8----
-+-+-+-+-+----
-3-5-----7-+--
---6---+------
---4-+--------
---+-7--------
--------------
---------+----
---2-+-6-9----
-----7-+-8-9--
---+-+---8-+--
---3-+-+-+-6--
---2-+-3-+----
---9-6-5------
-----7-----5--
-----8--------
--------------
-------7-+-7--
---2-----+-7--

Generation = 51, Population = 139.
04--0-0--+--0-
0-0----6090---
0---0+-+-+0+0+
06050--90-0+--
-7----0-0+---8
-8--0+-8-+--0-
0-0-0+0-0-09--
-3-9-+0---0---
-60-05-50+0---
0-020-07-9---4
---8--0-08-+05
04----0909----
0-03-+--0+0-0+
0-0------+0805
0+0--6----0507
-+--0807-4--0-
---10----7--02
--0--+0-0+0--1
-3----080+0--9
0------60--806

Generation = 54, Population = 79.
-------4------
-----+-6---+-4
-+-+---+---+-+
---6-8---8---8
-7-8---+------
-9-4---9---2--
-6-+---7-+-+--
-----+-9-7-7-7
-6---5---+----
-+-----7------
---+-9-----+--
-----+-9-+-+-+
-6-4-+-+-+---+
---2-+-4-+---6
-+---9-8---8-7
-+-----8-7----
---2-+-3---+-3
-7-+-----+-3--
-3-5-----+----
-----5-7-+---6

Generation = 57, Population = 145.
0-----050+-7-5
-7-8-+0--+---7
-------+-+0+0+
-7-6-------+-9
0+--0--+---90+
0-04-+0-0+05--
090-0+070----+
----0-0+--0-07
0-020----+-+0-
--0---070-06--
040+0+0-0-0--5
070+-+-+0-0-0-
-6070+0---07-+
-+05-+0-0---0-
0+0-0+----08-8
0---0--80-0-03
040-0-040-0+04
--0-0+0--+--0-
0606--------0-
040---0-----06

Generation = 60, Population = 61.
-6-8---------6
-7-9-+-6------
---+---+-----+
-----9-----+--
-+-+-7---+-+-+
-9-------+-5--
-+---+-8-+----
-------+------
-9-3-------+-8
---7----------
-------+-+-+--
---+-+--------
---8-+--------
-+-----5-+-+--
---+-+-----+--
-+-------7----
---3---5-7-+-5
-+-----+---6--
-7-----+---+-+
---3---------7

Generation = 63, Population = 148.
-70--9-70+08--
0+090--9---+0-
0+0-0-0+-+--0+
-8-60+0---0---
--0+0----+-+0-
--07--0-0-0609
-+-------+0+0+
0--+--0--70+0-
--0-08-50-0+--
0+-+0-090+----
060+-+0+0+-+--
----0-0+0+--0-
0+0--+-+0-0--+
0-05--0--+-+--
0+-+0-----0-09
-+0-090----605
-404-+06---+0-
0-0+0-0+0+0---
-8-80--+-+0-0-
--0--7-90+---8

Generation = 66, Population = 50.
-----9-------6
-+-------+---8
---+---+---+-+
---6-+-9-----+
-----9-------+
-9-7---9-+---9
-----+--------
-----+--------
-9-5-9-5-+----
--------------
-----+-----+--
--------------
-+---+---+----
-+---+--------
---------+----
-----+-9-+----
-------6-+-+--
-+-+-+-----6--
-------+-+-+--
-----7---+----

Generation = 69, Population = 120.
----0+0-----0-
-+--0+0----+-8
0+0--+---+0+0+
0+0--+--0--+--
----0-0----+-+
0+0--+--0+0--+
0-0-----0-0-0+
0-0-----0-0-08
0+0--+--0+0--8
-+--0-0------6
-7------0-0-0-
0-0-0+0------+
-+--0-0-0+0---
-+--0-0-0+0---
0-0-0-0-------
-+--0-0-0-0--5
-4--0-0-----06
0-0-0-0-0+0-0-
----070-0-0-0+
0-0--7--0+0--8

*** Life<FredkinCell> 20x25 ***

Generation = 0, Population = 39.
----------0------------00
0----------------0-0--0--
---0-0------------0------
----0----------0--------0
-------------------------
-------------------------
-------------------------
0----------0--------0---0
-----------------0----0--
------0------------------
---------0------0--------
---0------------0--------
-----------------------0-
----0--------------------
---0-0-------------------
000-----0------0----0----
-------------------------
----------------------0--
------0------------------
------0--0----0----------

Generation = 12, Population = 237.
21---25--13-1--10--253---
1----0-013341202123-2-2-1
-031-02--35-312-2--2---67
102----0----1-03--53--04-
-00----3--2----123--3---1
1-1-2----0-1-1-3-70214--1
-2---1-02-11-23-22104-22-
514-12---30----2---31-1-5
---1--3---3--3122---3-3-7
3-3-5-0--12-1123-330-211-
-30-3-22-0-11-5-----31-42
-4-1---3-24-10--------211
---------101--03-3-20-2-2
-0---3-------1-11011-----
1-1--31-3-0---302-1-----0
--4543313-0--12-13-1---24
-------------2-3--12-1--1
--31329--4-0----0022--1--
5-2-1-22--100-0-3-0-0----
--1-----3212-0413----0-0-

Generation = 24, Population = 236.
4----------3-0-1---5--4--
-6-6566735-81-5+----5--66
-0--3---5483-351555--1-9+
43-------4-53--6-36-4--5-
-136-22653------5676-3--2
3---6-----4-4-76-+-32-6--
2--824-264------6--281-3-
7---7-1----3241542644-7--
2--4---21--4--5--4--9-5+-
-8-4-32342642--44--5--335
--1--6---13-----5-81-13+4
7---66-68575--85--5---4--
-5-------346-2--3-------6
2-53687-3---3--3--4----2-
--5--74----9-3-1522--3-34
7-57-66--8-8-----+5554---
-33---4--25-4-353--84-448
-152-----8-2-8-+-1--7--24
-3-----------04---4234-7-
6843--748-43-57164-----31

Generation = 36, Population = 218.
--4-+--47-+832-57-5-+9---
49+8+699-6---87-787-+----
--+--486---7------7+4-9--
--7-3-9---65-----6-7--+--
--4+4-----4--6--98--9-754
9--4-3---6---5+---6-5-9-5
474----6--5-36-3-----657+
------2-37+7-63-85-8-3-7-
697832+4-87-3-9--969+-8+-
59---7-------5885-6-----9
3--3------+---+1-+-59-4--
97++-8-++--7---89-9-3---5
-----98-63-6-67-------56+
--8-7-9--67-7-6----69---6
--8-------5+8-4------+47-
-9++-++4----+535---77--++
-4---+8--5--------3------
--87---62+----7-7---95---
--------7---2--3667487-7-
-+57+7-6--67-7----+--4+-+

Generation = 48, Population = 252.
+8-++--69-+8527+-++8+-+-5
-+----+---8-5+-+-9-5+++--
-4+--4+9----+-+-++8+-4-++
--++6-----8++--+-+-+87-++
--6-------+5--4----6---95
---+--7-+---9++-8+6-9+--+
-+----8-+99847--++-3-88--
++----5----9--5-+-+-+-++-
-+--3-++--++67---+---++--
--+5++----+-----9+7--3--+
7--86+-++-+++--5--+-+--++
-+--++-++--+--+8+++8----8
7-9--++-87--7+-99-8--187-
69-7----5+8-++-7+++---+++
-7898-9-+-7+--4-78-85-78+
+++--+---+-+--9-9--+-----
-5++7--8--+3-+--66-868+++
+6+----+--5-5+---59----8-
757+-+798-+3-5-7-8+---+--
++-++-9-+--+-9+6---5-----

*** Life<FredkinCell> 3x27 ***

Generation = 0, Population = 11.
--0-0----------------------
-0---------0-------------0-
-0----0--------0--00-----0-

Generation = 10, Population = 32.
-----0000010-----1---3-1--0
-2-1-4-----1---1-2---4-2---
---13--101--124352------24-

Generation = 20, Population = 21.
------0-1-------------2-2--
-----+-4-------------9-----
6---6+26----4--77-47-5-86-3

Generation = 30, Population = 36.
173-4-03--213-2-3-3-1-4-34-
---8---------2---6-----8---
99+6++-+---7849-9-----5+-+9

Generation = 40, Population = 30.
----------4-5--------------
-+-+-+---+-9-----9-9-+---+-
-++-++-+47-++--++8-+8+++++-

Generation = 50, Population = 32.
--65-7252-54--5-4--618----1
---+---+---------+-+-+-+---
+++--+7----+-7+-+9--8--+---

*** Life<FredkinCell> 1x26 ***

Generation = 0, Population = 3.
---------0----------00----

Generation = 12, Population = 12.
-0---0--01---3--13-313--43

Generation = 24, Population = 8.
--0----12---5----9-9---75-

Generation = 36, Population = 10.
--0-5154-----+86-9-------7

Generation = 48, Population = 5.
---68---------+98---------

*** Life<FredkinCell> 25x4 ***

Generation = 0, Population = 39.
00-0
-0-0
-0-0
00-0
0---
-00-
--00
-0--
-0--
-0-0
---0
-0--
---0
---0
-0-0
--00
-0-0
0---
0---
0---
0---
-0--
0---
0-0-
0--0

Generation = 4, Population = 57.
122-
--0-
0110
-004
2-11
1201
0-0-
02--
00--
-20-
--0-
--0-
-1-4
0--0
0---
--2-
0---
-101
1120
0-20
210-
01-0
--30
1-2-
-30-

Generation = 8, Population = 54.
3--1
-101
22-2
-018
413-
52-3
-2-4
--3-
0--2
1--4
0---
-0--
-1-6
-022
1311
--22
2--6
1313
--2-
-1--
--23
-1--
-030
1--0
--0-

Generation = 12, Population = 54.
-2-3
---5
6324
1--9
62-3
73-7
-3--
4--1
11-3
13--
2---
-4--
---+
41-4
--33
032-
----
1-3-
--6-
3162
-3-4
3-4-
4-42
1-54
481-

Generation = 16, Population = 51.
--55
5---
6---
2439
7-45
974-
--3-
8-42
3225
-347
-1-3
--4-
3--+
-3-4
-7--
-53-
-2--
2376
--6-
55--
8736
--8-
----
1---
--31

Generation = 20, Population = 47.
64-6
-5--
--35
--5-
----
--6-
-647
---2
4-29
----
-224
-543
32-+
5--5
--3-
---5
--48
659-
338-
6--2
894-
-7-3
---2
-47-
---3

Generation = 24, Population = 56.
----
--28
-5--
5-9+
-56-
988-
0869
---4
---9
2-7+
426-
4-57
5-9+
9---
--33
1-8-
42-+
---7
578-
---2
8+58
59+7
6-73
----
5-63

Generation = 28, Population = 48.
--8-
--49
6-4-
57-+
86+-
-9-+
--8+
-9--
4--+
4-7-
---7
-868
----
+---
7+5-
--+-
-37+
--+9
-8-6
66+-
9+9+
7---
8--5
---6
5---

Generation = 32, Population = 55.
759-
7---
8--8
-79+
-7+-
+---
-9-+
++84
6---
-7-+
8--9
7+-8
93+-
+-98
7--6
--+8
-7--
96+-
-++-
66+-
-++-
---+
+-86
5-9+
-+--

Generation = 36, Population = 56.
--+-
--6-
+8-+
-9--
8--6
++++
---+
--+6
7-7-
--7-
+-7-
9+79
---+
-498
9--8
77-9
6+-+
-8++
7+-+
-6-6
++++
7-+-
+39-
6--+
8---

Generation = 40, Population = 48.
77+-
-+7+
----
-++-
+8+-
+--+
--++
-+-7
----
--8-
----
-+99
--++
+8+-
---+
9--9
8+-+
-++-
-+--
-7-8
++--
9+++
+---
6-9-
--+7

*** Life<FredkinCell> 1x8 ***

Generation = 0, Population = 8.
00000000

Generation = 10, Population = 4.
2-2--2-2

Generation = 20, Population = 4.
-25--52-

Generation = 30, Population = 2.
-4----4-

Generation = 40, Population = 4.
--+66+--

*** Life<FredkinCell> 27x22 ***

Generation = 0, Population = 31.
---------------00-----
----------------------
----------------------
----------------------
----------------------
0-------0------------0
----0-----------------
----------------------
----------------------
0---------------------
----------------------
----------------------
------------0---------
------0---------------
----0-0---------------
-----------0-------0--
0---------------------
---------0------------
-------------0--------
----0----------------0
----------------------
---------00----------0
--------------00------
-----0------0-------0-
----0----0------------
---------0-----00-----
----------------------

Generation = 11, Population = 299.
-0--1203---2-----1365-
--1----0--200------2-5
0--0-0-12001---44---22
-01---001-0-1-0--0---1
-01---10-01-------10-0
---010-010-00-14--110-
-050-0----2-4-013----0
200-00-02-0--0-1-10-0-
20-0----1-10--24321---
-----0--5---0-00-0--0-
-000-0200-0-0-00-0-0-0
-0-0--2--0--0---0---0-
-00-503-1--0-11----00-
1-31--2--34-201-1-0121
4--0203042-2--1212-020
400-11----02-5---11322
-0-03--1-12-3------0-1
52-0-50-2212-1---2-0-1
1--1-1-2-5---1---30-0-
-0-1111200-3-211132--1
20-0110102-023---1--0-
-53--7-343--1-3-2--4--
-1---3-1--2--424341--4
02-121-2-----13-112254
--32-1----2-23----0-01
-3-----23263---------4
121-0-0-12--316-------

Generation = 22, Population = 291.
3-----36--8-7-44--478-
5-4-2---21-0--0101--19
1-----64--2--6-----0--
11--233-41-22-------34
--1---33-241--4--220--
----6-------0---434522
--9--05---+475-382--01
-0--124--202--3-1-2-53
3--1--32133-0235---12-
-05-355----31-5---3---
2----151-311-05---3-3-
--0-4-4---302--0-111-2
-11-8262460--132--22--
43--7--5-5-4---24-5---
--4-7-734-96-475--1-42
-641--2-----2--2133-4-
------2--271--03--2-1-
--036--5-85-------4554
--1-31--6----122-7-321
--478234----2541--2--5
4-11724------7453---20
4---5-1-9--4317465----
-6-15502---7--------16
-2-1--353-2--45-283--+
27+6-4-6-5--3-8---4-56
-----6--55--3---4-6-0-
45411155-5328-+-32-3--

Generation = 33, Population = 235.
846--4--3------93----0
-34-3------1--5645--2-
----3-----3----8+-----
---1-3-------0------4-
-------4-2-----74----1
7--3945-882+-4+-646---
-2-24---7-+6--38+2--2-
2---3---53237244---483
---3-192-834-5-84--640
----5++4+65-7-8-----7-
----6-8--423545-------
3--1-1------44----1-3-
+1--+-+--7--1-6--3-471
-6---449--+--8-----4+5
7-----+----------7--65
--7-7-3-6---7-5---8-4-
52-5--934--3---7------
-61-8+6--+----5--6----
3--4--77-7-5-1--7-----
------56-59-4------3--
7-43----3---------3-31
+++79-1---5--------+86
4+-1--3--76-------3728
3--24569-4-5---559-+9+
-+--554-866-----4-7-5-
3------++6---5+---8--7
7685----2-----+7------

Generation = 44, Population = 288.
+--------9-5-+--4--8--
+48-7-888-+-59--5-3---
335--2+-------7+-51-8-
6--1949-83--51------5-
-5--2955+77-6--+-693-2
--9---6----+-----7----
8---+56-----9+8--6--48
35--4--687--96---96--7
-394+-+---65-7---6-9--
+5-3+++-+---+8-8--7+--
56----+------88-24---1
+2-----+--9-884--443--
--33+-+86+4-4---7-887-
+8++-96+-9+----69-9--8
939---+--5---++-8+26--
+-+7+-7----89--55---7-
--9--3+3--+---4-+5-2-4
+-59+-+7-+-----7-6+-+9
-3-5--+-+-2-+56-8-----
-7--+----6++--88---6-8
+4----+3-681-+-8-6----
-+-8+-47--8+-----++++-
5+8-+6-87--+-+--8--95-
-3-7-99+-6--59597+-+-+
-++877---6--7+-875----
5+-6876-+-+--7--++----
9++-47784564--+-8-+--7

Generation = 55, Population = 305.
++-------++8++-++--+-4
+7+59---+++6-+99----7-
--84-4-+---9--9++9--+-
8+9--6+-+-9+-5--36----
----5-5-++-----+-6--8-
---5+-++--6+8--+---++-
+----++--+------+----+
787--+-+9-6----+-++---
94+-+4+-7+99-+--+-----
--+5-+--++--+-+++--++-
9+9-+7-6-+-39--5-99-+6
-493-5---6+-+--4---48-
-+-5+9-86-66++++-8+--8
+---++8---+-++-8----++
+6-7+8-+-+--+++++-9-+-
-9+-+-8++-8-++8++-+9++
----+7+6-9+3--6+-6--6-
+-+-+++9--------87++-+
--9++8-8--4-+--2+-+-+-
-88+-6++--+-+7+968--9-
+7+-++-498-5-+++5+-+--
--++-+5------8----++++
+-+--7798++++--+--8---
--++---+---+7+------++
8++----+---+-+-++9+--+
-++7-7+-+-+--+----+-9+
+-+--+-+-5-6+-+-+7-+-7

Generation = 66, Population = 250.
-+-6+-+-++++++--------
------9---+--------+-+
86--+-----++9---------
---5-8+---------3----+
----8-7---+-+-++7-----
-7-9+++++-++--+---++--
+-+-+-+-+-+-++-+++8---
---7-++-+----+---++--+
+-+-+-+-----7-8+++6---
----+--9------+-+-++++
+---+------7--+-6-----
+-+---+-+-------7-889+
--8-+-+---9--++++---+-
+++-+-9---+++--9--+-++
--+---+-+++--+---+----
---9-+-++++--+9++-+-+-
--+9+-++--+5+9-++-6---
++++-----+-+-++--++++-
-6--++---+-++--3+-+---
++-----+--+---+-7-----
-8+4--+--++7+++-------
-++-+-9--+-+-+++-+--++
---7----++++-+-+-+----
-++--+++++6++-++++++-+
++---++---++--++++-+--
+--+8-+-----++++---++-
+------+---++7+--+----

*** Life<FredkinCell> 10x29 ***

Generation = 0, Population = 21.
------0---00-----------------
0-----------0---------------0
------------0----------------
----------0------------------
-----0---------0---0---------
-------------------0--0-0----
---0---0-0-------------------
---------0-------------------
---------------------------0-
-0-----------0---------------

Generation = 4, Population = 65.
--1--001--2-0-0----0---------
0-0-1---0---1---0--1--0---0-0
---0--211011----1------------
------1--0----1--------------
-0----0--20----0---2---0---0-
01----------11-1--1-3--0--0--
---0-0-2---211---------------
-2---1----1------------------
-----0---------1---1---0-----
-0---0-----------0-0--0-0----

Generation = 8, Population = 63.
1-3----5-3----1---12-------0-
-0--3-2-1----0-----3----0----
----02---------4---10--------
-30-------1--1----0----------
-1-----3---311---------2-----
4--------3-01-1-3---------10-
-2----22-50----3-0-----------
-3---------------2-2--2-2----
-----21---02---1-------1-----
0--------20-1--------3------0

Generation = 12, Population = 122.
1031--05--4-5-3---331-00---0-
--1--13---10-02311-33--00-010
--1---2-3413--3-210----30--2-
0----1---1---------5----0----
0500--4-1-2---2-320----2-----
421--232-5-----35-2143323--2-
-401234---4---24----00-------
1-1--1---1--0--4----4--1--1--
--1--3---2-3111------------1-
112-110-16-111-----1--1--1-1-

Generation = 16, Population = 70.
----02-743-----1---5--1---01-
--1------23-3---3-----------1
--3---------3--------------60
15--0-------03------------2-0
---2--6--445---------2-6---1-
-2-3--3-3----2----2-6--4-----
-----453--6--------3---0-0-1-
2----2---2--2------------1--1
---1---1-4-31--2-------------
-3--------0--1---0-1--3-2----

Generation = 20, Population = 128.
316-441-4-77-0-1--67-331--43-
0231-44--25---2---1----20-2-3
5---0----74----53-----1-20-8-
-92-1-------0---20----1-302--
--442-+-2-693121-3----08-212-
----12-3--1--43------------32
-4-2--9--7694-37---4-2-----21
252--4--333-43--47-5-13-----3
---2-5420-1-24--2--5-3-1---4-
5--2----4---2-01-1---7---22--

Generation = 24, Population = 118.
4-85-619-37--26-226----223--0
-352--5------------33--3-----
---2--5--7-8-------2-55----+-
4-2---2-165------135-1----3-2
26-6---4-9---33--51----+----1
4-57-4---7-64-44-----5---4253
181-3-9-1989-249-406--3---0--
-7-11-------------2-8-44-4---
-5-4-55-2-3------3--131---0--
54--3----+11-22---1--8---4-20

Generation = 28, Population = 138.
---75+3-----748------6-32-5--
--9----4-4924-2-5---44--036-4
-4542--79-5+-3-73424--744--+3
8+-422----9-2--5-35-431-5-3-4
3--86---5-6+-5--35-62--+-6-43
-3-8-4--4-----6582--+-7-8-3--
-+-3--+45---5----6----73--434
4-5-1732---4-6--684--58-34---
1-1-2---4---5---33--3--204---
-----3735-53434-----5---46--2

Generation = 32, Population = 65.
---------------25--8----2--7-
27+------6---53---3-------6-8
---6---7-+----6---6--------+-
---------+------5--64-1-7----
---9-6---+---------7-3---7---
--7-1-444-1+-------2--9-9----
-----5------7--+-6---5-----5-
6---------8-5----8---6------7
---5--6---457----------------
7-----------85---5-------7--2

Generation = 36, Population = 129.
-----+-+---+7-84--8--9---7--0
--+----84--5-----4-6--3------
---8---9--6+338-5686-6956--+-
+----4----+--9-6577--6-38-3--
-+-9-7+5-+7+75--48-9-4-+37-7-
-4-92--4683+-----5--+--7-7--3
-+-4---65--+-5+-1+39-7-6-2---
6-6-3-5-54--6-5----7+8+---6-7
--2--8--8+-69-533--8-7---7---
7-----84-+-387--0--4-+5---6-4

Generation = 40, Population = 139.
---+-+4+6-+----684-9-9--4-7--
37+---89-++677----6+865--37-9
-7---59--+7+---9-6---6+6-15--
++------4+-6-+9----87-2--4316
---+--+6-+8+7-6---4------9---
-48+6----+-+-596-5-5-8-----74
-+--46-8-+--+---2+--58--46---
-------5-4+7-9----99----35---
4-4599---+-7--733-2948--09-6-
944-369-6+---86-28288+--5-6-4

Generation = 44, Population = 151.
--9-6+6--8+-+6----9+-----8+--
-9----+-6+-+7846-6--8665--929
-8883--++--+4-+--7965-+----+6
-+5--------63---599+-74-+5-18
6--+87-8-+9--8656+--464--+67-
-4--8667-+--6-+-+636-++---6+-
5+-6-7+---+-+--+-----+9+4-6-6
--863--9-6---+--7-+-+--877-77
58-----99+-9-973-74-6-2--+--4
-4655-+58-+-----48-----79-674

Generation = 48, Population = 130.
7-------+8-++----6++---+-++--
-++--8---+--7+--+-++867--4---
6-9--89--+9+6-++--+8---893-+8
++59585-6+--4-+--9--+-86-----
---+-------+---58+-----+++-9-
5---9--7--9--7---7----+-+88+5
-+4+-7+--++-+---6--+----57--8
----57---7+--+5-7++------7--8
--5-++-+++-9+-75-76+-+3---1+5
----7-+78-+6+----+--+----+--4

Generation = 52, Population = 147.
7--+--7++++------8+----+---7-
-++-8+++9++--+69+8-+--9+-4-69
--987-++-++--5---9--67++-----
----5967--+-5++-5+++-8--+8449
8-8-++-+---+++8------87--+-+-
66-+-8-8--+---+-+--+++-7+--+7
-----7+++--+-8--8-4+-+---986-
--98--7+88-++-7--++-+--++86-+
-+6---+-+-5------97---47--5+-
--76+8+--+++++-76-4---+-+--7-

Generation = 56, Population = 119.
7------+-+----+--9-+6+5--+-9-
8-----+--+---+7------9+--4---
+-+----++----5+--++----+9--+-
++-----+++---+++7+--+--8---6+
9---+-+--+++---78----9++-+-+-
-8+-++9-9++----9+------8+-9--
-+----+--+-+-8+--+----++-+-6+
8---688+8+--+----++-+9+--+-++
--8---+++--+--8--+-+-----+--9
+-----+-++---+-8-----+++-+--7

*** Life<FredkinCell> 28x28 ***

Generation = 0, Population = 1.
----------------------------
----------------------------
----------------------------
----------------------------
----------------------------
----------------------------
----------------------------
----------------------------
----------------------------
----------------------------
----------------------------
----------------------------
--------------------0-------
----------------------------
----------------------------
----------------------------
----------------------------
----------------------------
----------------------------
----------------------------
----------------------------
----------------------------
----------------------------
----------------------------
----------------------------
----------------------------
----------------------------
----------------------------

Generation = 3, Population = 16.
----------------------------
----------------------------
----------------------------
----------------------------
----------------------------
----------------------------
----------------------------
----------------------------
----------------------------
--------------------0-------
-------------------0-0------
------------------0-0-0-----
-----------------0-0-0-0----
------------------0-0-0-----
-------------------0-0------
--------------------0-------
----------------------------
----------------------------
----------------------------
----------------------------
----------------------------
----------------------------
----------------------------
----------------------------
----------------------------
----------------------------
----------------------------
----------------------------

Generation = 6, Population = 16.
----------------------------
----------------------------
----------------------------
----------------------------
----------------------------
----------------------------
--------------------0-------
----------------------------
------------------0---0-----
----------------------------
----------------0---0---0---
----------------------------
--------------0---0---0---0-
----------------------------
----------------0---0---0---
----------------------------
------------------0---0-----
----------------------------
--------------------0-------
----------------------------
----------------------------
----------------------------
----------------------------
----------------------------
----------------------------
----------------------------
----------------------------
----------------------------

Generation = 9, Population = 12.
----------------------------
----------------------------
----------------------------
--------------------0-------
-------------------0-0------
--------------------0-------
----------------------------
----------------------------
----------------------------
----------------------------
----------------------------
------------0---------------
-----------0-0--------------
------------0---------------
----------------------------
----------------------------
----------------------------
----------------------------
----------------------------
--------------------0-------
-------------------0-0------
--------------------0-------
----------------------------
----------------------------
----------------------------
----------------------------
----------------------------
----------------------------

Generation = 12, Population = 12.
--------------------0-------
----------------------------
----------------------------
----------------------------
----------------0-------0---
----------------------------
----------------------------
----------------------------
------------0-------0-------
----------------------------
----------------------------
----------------------------
--------0-------0-----------
----------------------------
----------------------------
----------------------------
------------0-------0-------
----------------------------
----------------------------
----------------------------
----------------0-------0---
----------------------------
----------------------------
----------------------------
--------------------0-------
----------------------------
----------------------------
----------------------------

Generation = 15, Population = 183.
-----------------0-----0----
----------------0-0---0-0---
---------------0-0-0-0-0-0--
--------------0-0-0-0-0-0-0-
-------------0-0-0-0-0-0-0-0
------------0-0-0-0-0-0-0-0-
-----------0-0-0-0-0-0-0-0--
----------0-0-0-0-0-0-0-0---
---------0-0-0-0-0-0-0-0----
--------0-0-0-0-0-0-0-0-----
-------0-0-0-0-0-0-0-0------
------0-0-0-0-0-0-0-0-------
-----0-0-0-0-0-0-0-0--------
------0-0-0-0-0-0-0-0-------
-------0-0-0-0-0-0-0-0------
--------0-0-0-0-0-0-0-0-----
---------0-0-0-0-0-0-0-0----
----------0-0-0-0-0-0-0-0---
-----------0-0-0-0-0-0-0-0--
------------0-0-0-0-0-0-0-0-
-------------0-0-0-0-0-0-0-0
--------------0-0-0-0-0-0-0-
---------------0-0-0-0-0-0--
----------------0-0-0-0-0---
-----------------0-0-0-0----
------------------0-0-0-----
-------------------0-0------
--------------------0-------

Generation = 18, Population = 12.
--------------------0-------
----------------------------
------------------0---0-----
----------------------------
--------------------0-------
----------------------------
----------------------------
----------------------------
----------------------------
----------------------------
----0---------------0-------
----------------------------
--0---0-----------0---0-----
----------------------------
----0---------------0-------
----------------------------
----------------------------
----------------------------
----------------------------
----------------------------
----------------------------
----------------------------
----------------------------
----------------------------
----------------------------
----------------------------
----------------------------
----------------------------

Generation = 21, Population = 44.
-------------------0-0------
----------------0---0---0---
---------------0-0-----0-0--
----------------0-------0---
----------------------------
--------------------0-------
-------------------0-0------
----0-----------------------
---0-0-------------0-0------
----0---------------0-------
----------------------------
0-------0-------0-------0---
-0-----0-0-----0-0-----0-0--
0-------0-------0-------0---
----------------------------
----0---------------0-------
---0-0-------------0-0------
----0---------------0-------
----------------------------
----------------------------
----------------------------
----------------------------
----------------------------
----------------------------
----------------------------
----------------------------
----------------------------
----------------------------

Generation = 24, Population = 6.
----------------------------
----------------------------
------------0---------------
----------------------------
----0-----------------------
----------------------------
----------------------------
----------------------------
----------------------------
----------------------------
--------------------0-------
----------------------------
--0-------------------------
----------------------------
----------------------------
----------------------------
----------------------------
----------------------------
----------------------------
----------------------------
----0---------------0-------
----------------------------
----------------------------
----------------------------
----------------------------
----------------------------
----------------------------
----------------------------

Generation = 27, Population = 94.
-----------0-0--------------
----0-----0-0-0-------------
---0-0---0-0-0-0------------
--0-0-0---0-0-0-------------
-0-0-0-0---0-0--------------
--0-0-0-----0---------------
---0-0----------------------
----0---------------0-------
-------------------0-0------
--0---------------0-0-0-----
-0-0-------------0-0-0-0----
0-0-0-------------0-0-0-----
-0-0-0-------------0-0------
0-0-0---------------0-------
-0-0------------------------
--0-------------------------
----------------------------
----0---------------0-------
---0-0-------------0-0------
--0-0-0-----------0-0-0-----
-0-0-0-0---------0-0-0-0----
--0-0-0-----------0-0-0-----
---0-0-------------0-0------
----0---------------0-------
----------------------------
----------------------------
----------------------------
----------------------------

Generation = 30, Population = 96.
--0-0-0-0-0-0-0-0-----------
----------------------------
0---0-0-0-0-0-0---0---------
----------------------------
0-0---0-0-0-0---0---0-------
----------------------------
0-0-0---0-0---0---0---0-----
----------------------------
0-0-0-0-----0---0---0---0---
----------------------------
0-0-0-0-------0---0---0---0-
----------------------------
0-0-0---0-------0---0---0---
----------------------------
0-0-0-0-----------0-0-0-----
----------------------------
0-0-0-0-----------0-0-0-----
----------------------------
0-0-0---0-------0---0---0---
----------------------------
0-0---0---0---0---0---0---0-
----------------------------
0---0---0-------0---0---0---
----------------------------
--0---0-----------0---0-----
----------------------------
----0---------------0-------
----------------------------

Generation = 33, Population = 16.
----------------------------
----------------------------
----------------------------
----------------------------
----------------------------
----------------------------
----------------------------
----------------------------
----------------------------
----------------------------
----------------------------
----0-----0---------0-------
---0-0---0-0-------0-0------
----0-----0---------0-------
----------------------------
----------------------------
----------------------------
--------------------0-------
-------------------0-0------
--------------------0-------
----------------------------
----------------------------
----------------------------
----------------------------
----------------------------
----------------------------
----------------------------
----------------------------

Generation = 36, Population = 16.
----------------------------
----------------------------
----------------------------
----------------------------
----------------------------
----------------------------
----------------------------
----------------------------
----0-----0---------0-------
----------------------------
----------------------------
----------------------------
0-----0-0-----0-0-------0---
----------------------------
--------------------0-------
----------------------------
----0-----0---------0-------
----------------------------
----------------0-------0---
----------------------------
----------------------------
----------------------------
--------------------0-------
----------------------------
----------------------------
----------------------------
----------------------------
----------------------------

Generation = 39, Population = 129.
----------------------------
----------------------------
----------------------------
----------------------------
----------------------------
----0-----0---------0-------
---0-0---0-0-------0-0------
--0-0-0-0-0-0-----0-0-0-----
-0-0-0---0-0-0---0-0-0-0----
0-0-0-----0-0-0-0-0-0-0-0---
-0-0-------0-0---0-0-0-0-0--
--0---------0-----0---0-0-0-
-----------------------0-0-0
--0---------0-----------0-0-
-0-0-------0-0-----------0--
0-0-0-----0-0-0-------------
-0-0-0---0-0-0-0---------0--
--0-0-0-0-0-0-0-0-------0-0-
---0-0---0-0-0-0-0-----0-0-0
----0-----0---0-0-0---0-0-0-
---------------0-0-0-0-0-0--
----------------0-0-0-0-0---
-----------------0-0-0-0----
------------------0-0-0-----
-------------------0-0------
--------------------0-------
----------------------------
----------------------------

Generation = 42, Population = 31.
----------------------------
----------------------------
----0-----0---------0-------
----------------------------
--0---0-0---0-----0---0-----
----------------------------
----0-----0---------0-------
----------------------------
--------------------0-------
----------------------------
----------------------0-----
----------------------------
----------------0-----------
----------------------------
------------------0---------
----------------------------
------------0---------------
----------------------------
----0---------0-----0-------
----------------------------
--0---0-0---------0---0-----
----------------------------
----0-----0---------0-------
----------------------------
--------------------0-------
----------------------------
------------------0---0-----
----------------------------

Generation = 45, Population = 131.
---0-0---0-0-------0-0------
----0-----0---------0-------
----------------------------
0-----0-0-----0-0-------0---
-0---0---0---0---0-----0-0--
0-----0-0-----0-0---0---0---
-------------------0-0------
----0-----0-------0---------
---0-0---0-0-----0---0------
----0-----0-----0-0-0---0---
---------------0-0-----0-0--
--------------0-0-----0-0---
-------------0-0-----0-0----
------------0-0-----0-0-----
-----------0-0-----0-0------
----0-----0-0-----0---------
---0-0---0-0-----0---0------
----0---0-0-----0-0-0-------
-------0-0-----0-0----------
0-----0-------0---------0---
-0---0---0---0---0-----0-0--
0-----0-0---0-0-0---0---0---
-----------0-0-----0-0------
----0-----0-0---------------
---0-0---0-0-------0-0------
----0-----0-----0-------0---
---------------0-0-0-0-0-0--
----------------0---0---0---

Generation = 48, Population = 7.
----------------------------
----------------------------
----0-----0-----------------
----------------------------
----------------------------
----------------------------
----------------------------
----------------------------
----------------------------
----------------------------
----------------------------
----------------------------
----------0---------------0-
----------------------------
----------------------------
----------------------------
----------------------------
----------------------------
----0---------------0-------
----------------------------
----------------------------
----------------------------
--------------------0-------
----------------------------
----------------------------
----------------------------
----------------------------
----------------------------

Generation = 51, Population = 96.
---0-0---0-0----------------
--0-0-0-0-0-0---------------
-0-0-0---0-0-0--------------
--0-0-0-0-0-0---------------
---0-0---0-0----------------
----0-----0-----------------
----------------------------
----------------------------
----------------------------
----------0---------------0-
---------0-0-------------0-0
--------0-0-0-----------0-0-
-------0-0-0-0---------0-0--
--------0-0-0-----------0-0-
---------0-0-------------0-0
----0-----0---------0-----0-
---0-0-------------0-0------
--0-0-0-----------0-0-0-----
-0-0-0-0---------0-0-0-0----
--0-0-0-----------0---0-----
---0-0----------------------
----0-------------0---0-----
-----------------0-0-0-0----
------------------0-0-0-----
-------------------0-0------
--------------------0-------
----------------------------
----------------------------

*** Life<FredkinCell> 25x2 ***

Generation = 0, Population = 35.
0-
-0
00
00
0-
-0
00
0-
00
00
00
00
0-
0-
00
0-
--
-0
-0
00
00
00
00
--
0-

Generation = 7, Population = 27.
-2
--
3-
53
5-
-2
3-
0-
35
--
--
-4
-3
--
-3
-1
11
12
0-
2-
15
21
2-
-4
-1
