21

70 38
15
38 0
29 28
46 14
40 31
65 5
54 25
24 29
67 9
69 21
18 32
65 27
54 19
54 33
38 35
41 34
199 48

22 70
3
21 5
21 59
5 24
131 55

84 86
42
82 29
48 58
9 51
37 57
26 15
8 66
79 38
8 26
38 34
41 46
40 23
83 74
1 81
9 14
67 16
5 71
49 8
68 74
39 8
80 21
39 12
81 52
59 47
9 62
65 70
48 67
33 32
79 45
27 13
81 75
14 40
34 85
6 8
65 23
35 53
0 71
72 20
32 74
6 69
49 46
44 31
25 12
200 169

54 26
45
25 7
26 23
16 3
38 6
10 20
43 10
50 10
34 17
49 22
18 17
49 18
22 3
20 6
40 21
16 3
32 11
15 4
37 15
30 16
21 9
10 11
52 12
3 7
46 6
36 14
29 13
16 15
19 16
37 6
20 16
44 20
38 24
36 15
47 23
3 12
33 24
29 16
23 7
29 24
5 17
16 16
42 24
0 12
41 2
32 14
200 114

62 62
31
4 7
8 48
0 16
60 10
39 25
0 3
19 25
38 14
46 37
6 61
25 12
8 36
51 44
44 56
36 20
42 14
34 60
27 17
57 43
42 44
60 6
52 6
22 9
6 37
21 25
43 12
24 55
14 27
50 61
43 35
41 11
200 12

30 35
29
28 1
19 13
12 14
24 18
5 26
1 29
20 20
12 11
23 7
29 11
14 4
1 7
24 0
19 18
12 17
26 2
8 16
17 20
21 9
27 31
17 12
17 24
2 9
25 25
28 15
14 18
0 20
6 19
2 17
200 148

93 82
1
15 31
200 138

54 41
6
10 18
19 4
13 31
22 19
4 32
47 2
200 154

84 61
24
72 16
75 15
79 22
69 47
46 37
44 48
64 1
61 1
67 58
52 51
26 42
62 40
1 29
39 15
80 30
73 56
20 55
44 26
74 31
63 20
78 18
35 46
66 43
39 22
200 76

57 23
21
23 8
39 10
55 1
38 12
14 10
56 12
40 1
16 1
45 0
2 1
51 0
13 22
23 10
12 5
21 18
3 2
24 12
29 2
20 22
53 20
29 10
200 184

37 45
13
28 4
6 42
8 4
9 34
20 37
6 29
22 20
34 37
5 12
32 14
24 20
29 41
24 34
200 200

91 88
27
81 48
71 42
88 84
9 15
81 27
9 18
74 11
38 45
24 2
23 76
21 52
27 66
52 7
54 48
21 87
10 22
24 54
81 34
79 38
65 28
73 6
18 76
90 11
54 86
5 84
40 19
66 3
200 103

97 90
41
27 4
2 42
47 25
74 28
50 75
82 80
7 22
61 54
75 70
83 12
0 69
39 17
92 38
10 18
82 31
64 45
83 63
55 12
32 85
49 51
37 43
70 66
0 76
72 6
57 27
44 75
57 26
76 79
89 12
80 27
25 8
64 41
36 20
86 50
15 78
80 62
10 21
78 84
35 18
85 14
17 41
200 26

76 48
17
17 28
26 14
68 44
73 25
17 17
75 18
44 45
30 45
15 16
53 20
16 22
37 43
71 1
66 17
74 33
74 20
61 37
200 130

83 29
6
29 26
32 1
20 23
9 1
78 21
57 24
200 184

13 64
29
12 3
0 28
6 58
0 26
4 6
7 38
11 5
3 17
9 4
7 60
4 55
12 41
5 42
9 1
4 60
10 37
7 23
11 16
11 16
5 42
4 14
6 58
0 32
4 6
1 41
10 41
0 15
6 25
6 24
200 69

46 88
24
33 9
19 86
25 43
44 36
2 82
6 71
26 41
34 39
1 61
18 22
42 23
6 28
23 22
43 42
38 63
36 5
5 3
11 78
39 81
1 66
23 44
5 73
8 39
30 9
200 200

78 98
51
43 67
25 39
8 96
17 32
20 69
17 62
65 32
72 36
70 22
37 85
32 28
1 53
24 10
35 97
67 27
59 13
53 75
10 70
76 56
18 24
64 83
14 46
23 5
31 89
57 87
32 85
15 69
45 79
25 38
28 45
66 79
59 30
68 71
46 19
75 29
64 51
66 12
24 21
45 91
29 44
76 19
27 48
17 32
21 25
64 97
66 6
72 75
20 34
56 62
40 77
62 89
200 65

75 38
22
43 26
36 32
32 4
45 12
62 8
5 37
14 20
74 29
12 20
59 32
16 7
29 37
3 16
12 2
0 9
19 23
2 2
12 20
45 16
49 29
50 34
67 32
28 27

44 38
38
17 6
8 21
30 9
0 37
39 22
21 4
15 0
9 32
30 34
39 32
10 22
0 2
18 7
29 1
28 9
35 30
24 19
41 5
32 22
7 0
37 19
16 7
41 18
20 29
8 30
12 29
21 22
12 20
12 31
34 10
2 6
3 7
14 32
2 35
16 35
16 21
21 3
20 22
200 175

23 4
23
7 2
12 2
11 2
21 0
7 0
13 0
9 0
18 2
9 0
0 1
22 1
1 2
15 2
4 1
3 2
4 3
5 1
4 0
20 0
1 3
7 0
17 0
13 0
200 68
