28

26 17
15
25 9
0 0
1 12
13 16
21 10
20 7
11 6
11 12
6 0
4 6
11 0
9 3
1 16
0 14
16 14
11 8

10 17
16
8 16
1 4
6 2
0 9
9 12
8 10
9 8
8 8
7 12
6 12
5 0
5 7
4 3
5 8
2 3
0 16
13 8

11 17
7
4 12
7 2
9 0
3 13
8 8
5 1
10 15
17 20

30 24
9
1 14
8 2
24 13
0 15
4 18
2 7
5 11
22 6
23 10
14 8

7 7
28
4 2
4 4
1 5
2 3
4 0
0 5
5 3
5 5
1 1
0 5
6 5
5 2
6 2
1 5
5 0
4 2
6 2
4 3
2 2
4 2
1 2
0 0
5 0
4 2
2 0
1 5
1 5
3 1
4 2

17 16
6
4 11
13 7
4 2
12 3
10 12
7 4
3 3

29 31
2
26 23
2 28
16 16

18 24
14
12 6
6 10
11 18
11 23
14 8
14 23
10 19
15 5
6 22
7 3
6 20
11 1
5 1
5 8
8 10

1 43
17
0 39
0 30
0 1
0 4
0 42
0 0
0 14
0 24
0 10
0 5
0 19
0 1
0 0
0 2
0 1
0 13
0 2
14 20

9 41
26
4 19
6 13
5 14
4 29
1 23
6 24
1 3
1 28
8 19
2 16
7 9
5 26
4 23
0 26
7 14
2 12
4 21
2 29
7 37
7 33
6 14
8 28
7 29
4 15
7 1
8 4
6 3

33 16
20
29 10
7 15
0 5
22 2
31 1
13 4
1 6
11 13
25 6
7 10
16 12
6 15
20 9
11 11
18 9
18 14
30 14
5 10
14 13
6 9
10 2

33 14
3
10 5
6 6
18 2
12 13

38 31
21
21 27
22 26
0 16
24 22
34 4
1 14
30 14
19 29
18 29
13 25
0 27
17 6
25 1
12 4
19 30
25 24
9 25
28 24
0 23
13 18
0 14
1 16

36 27
25
25 8
7 23
9 3
29 1
21 2
18 23
4 2
4 5
22 11
23 0
21 6
19 12
31 20
17 17
14 23
5 24
15 5
35 22
5 2
9 2
34 19
13 18
32 3
14 14
20 1
19 12

22 43
26
11 38
11 22
19 10
20 30
7 3
1 35
17 32
15 0
18 16
5 30
18 20
20 40
20 18
9 13
21 0
0 21
11 13
10 7
20 8
0 16
4 16
20 41
4 10
2 8
5 15
16 16
10 3

8 24
12
7 9
4 2
4 6
5 9
7 10
7 19
2 13
0 14
3 2
5 19
7 20
3 20
7 4

25 50
21
6 25
14 26
10 1
10 4
7 36
0 26
22 0
21 35
23 20
2 22
2 11
14 44
7 34
20 33
22 15
16 30
19 23
7 5
22 13
18 20
0 14
7 10

11 4
14
10 2
5 1
10 1
4 0
3 2
3 2
2 3
7 1
6 3
0 1
2 3
8 2
6 2
6 0
15 14

2 14
15
1 9
1 0
0 8
0 10
0 9
0 5
0 13
0 3
0 13
1 3
1 3
0 8
0 10
0 12
1 9
3 14

18 33
14
13 1
10 29
10 29
7 22
10 14
4 25
8 21
14 16
10 23
5 7
12 21
0 9
8 2
12 29
11 17

4 33
13
1 8
0 29
3 21
0 12
2 4
2 28
2 11
3 9
0 8
3 5
0 20
0 15
0 2
16 16

34 27
26
6 22
9 7
21 19
27 26
31 19
17 23
20 21
18 0
25 2
7 10
2 12
26 15
32 10
17 25
16 23
14 24
25 8
3 23
18 6
7 10
23 13
21 4
14 2
25 2
15 1
9 12
4 7

46 2
25
12 0
27 1
18 0
23 1
7 0
18 1
39 0
21 1
19 1
19 0
35 0
14 1
30 1
34 0
43 0
8 1
20 1
10 1
45 1
7 0
33 1
7 0
16 0
32 0
44 0
9 9

27 29
20
15 21
13 11
6 6
17 25
22 5
26 27
26 28
5 22
22 28
20 26
13 7
11 18
4 13
3 26
18 28
13 5
8 14
20 21
13 27
7 18
1 1

20 16
6
11 10
3 14
1 11
4 15
1 8
8 9
9 16

41 30
16
26 8
37 26
17 6
7 0
6 0
14 1
32 0
26 16
16 2
40 24
6 5
2 16
33 29
37 14
29 27
34 15
20 5

12 11
22
0 4
0 6
4 4
0 1
5 3
3 2
0 0
1 6
3 0
6 9
6 8
0 9
7 2
3 10
7 6
2 2
11 3
0 9
5 9
8 0
10 8
11 9
3 9

47 19
20
22 5
23 6
32 15
3 10
35 6
26 6
16 8
29 8
4 4
5 0
46 7
17 8
0 16
17 5
36 16
29 14
27 18
23 4
0 2
25 18
10 3
