29

13 17
1
6 12
60 49

7 5
10
6 0
0 1
4 2
0 2
1 3
2 4
5 2
5 1
0 1
1 4
3 49

4 11
10
0 4
0 8
0 0
0 2
0 9
1 9
1 2
3 4
0 4
3 0
26 10

10 11
13
8 9
3 2
6 6
1 1
7 4
5 2
1 7
7 4
7 4
6 5
8 3
5 3
9 10
32 59

5 12
24
2 5
0 8
4 8
3 7
0 9
2 2
0 7
3 7
3 11
4 1
3 6
1 5
3 8
4 6
1 6
2 5
3 0
2 6
2 3
4 3
2 0
4 5
3 4
3 9
32 43

12 6
9
11 0
1 3
0 2
11 4
2 1
4 4
2 4
5 1
1 0
67 67

6 18
22
3 16
1 6
2 2
2 2
2 6
4 11
1 17
5 12
3 4
1 5
2 4
5 7
0 16
1 12
5 17
3 2
4 3
5 16
3 2
2 17
5 16
3 14
65 61

1 16
25
0 12
0 3
0 4
0 9
0 14
0 9
0 15
0 9
0 10
0 8
0 8
0 10
0 3
0 12
0 15
0 13
0 1
0 7
0 14
0 9
0 8
0 11
0 4
0 4
0 14
64 23

15 6
16
0 1
12 2
1 4
2 5
4 5
9 4
11 4
4 2
10 1
11 3
6 2
14 1
9 3
9 2
6 3
1 3
91 3

7 1
2
5 0
4 0
66 77

20 6
4
12 4
1 5
13 4
9 1
41 68

18 4
7
7 3
6 1
12 3
4 0
15 1
4 0
2 2
58 66

20 9
1
5 2
58 61

1 11
20
0 5
0 4
0 10
0 3
0 9
0 7
0 0
0 2
0 1
0 2
0 9
0 4
0 5
0 3
0 9
0 3
0 3
0 0
0 2
0 9
35 66

6 13
7
0 12
1 5
5 2
2 6
5 10
3 2
2 7
28 25

1 19
20
0 9
0 10
0 9
0 3
0 12
0 16
0 14
0 8
0 3
0 9
0 6
0 14
0 11
0 8
0 11
0 16
0 1
0 6
0 6
0 9
63 23

15 19
12
4 18
7 12
3 16
1 13
11 17
11 5
9 8
2 3
4 5
4 0
5 16
8 17
34 1

9 12
30
6 5
1 7
2 10
8 1
8 10
4 2
6 0
4 2
3 3
2 7
3 11
3 0
8 8
2 3
2 10
1 6
6 1
5 10
0 5
7 1
4 8
3 0
5 5
7 8
5 0
7 2
1 0
2 7
3 0
5 8
47 57

3 7
1
2 4
92 49

20 17
14
19 3
10 13
16 10
10 7
12 16
1 13
12 16
17 15
8 15
4 4
1 9
14 14
19 8
0 14
1 53

13 8
22
5 7
0 4
7 6
5 6
0 7
5 4
1 6
11 1
1 2
1 0
3 4
1 5
7 5
4 7
8 2
9 0
12 5
4 7
11 2
12 6
11 2
1 6
79 49

14 4
21
10 0
6 3
9 2
13 3
1 3
4 2
1 1
9 2
0 3
6 0
6 2
11 0
8 1
3 1
13 2
13 2
11 2
13 1
13 3
5 2
2 2
35 17

17 7
26
16 6
2 5
13 5
11 0
2 4
5 2
8 3
0 3
14 1
1 3
1 5
1 5
1 4
7 6
1 0
3 6
0 2
11 4
8 1
15 3
9 3
1 0
16 1
4 2
0 5
11 4
2 6

13 13
30
6 0
11 9
11 2
10 11
8 7
0 11
4 10
7 0
9 3
9 6
2 12
12 9
12 1
9 7
5 8
11 0
3 10
8 0
11 9
7 1
9 6
3 5
5 8
8 4
8 5
10 3
8 3
0 5
3 7
10 12
71 10

13 11
2
12 6
5 0
28 50

17 7
17
8 3
8 2
10 0
0 0
11 1
12 6
16 3
14 5
5 5
1 1
15 5
0 3
6 1
4 1
5 5
11 4
12 2
93 49

9 20
26
1 13
6 8
3 10
7 3
7 12
8 8
8 12
8 6
7 10
5 11
4 10
8 17
8 2
1 14
4 19
4 6
1 19
3 8
8 1
5 5
1 5
0 0
8 7
1 4
5 12
3 18
8 47

2 19
25
1 1
1 4
0 1
1 12
0 8
1 4
0 2
1 15
1 0
0 17
1 4
0 14
0 17
1 17
0 11
0 5
0 3
1 11
0 2
1 4
1 5
1 0
1 3
0 7
0 14
94 18

16 13
29
1 0
13 8
5 3
8 3
13 5
3 5
7 4
9 6
8 9
11 4
8 3
2 12
8 9
7 9
8 5
13 8
3 10
1 10
13 1
15 9
7 11
6 4
11 9
0 10
10 9
11 12
15 11
0 3
1 12
1 39
