24

26 3
24
15 2
9 0
20 2
13 2
10 2
4 0
2 1
18 0
25 2
3 2
0 1
14 1
16 2
24 0
0 2
23 1
4 1
12 1
16 1
8 0
25 1
24 0
12 1
25 0
45 6

13 3
10
10 1
4 1
7 0
12 0
10 1
7 1
3 2
2 2
8 0
0 0
128 119

12 2
14
4 0
10 0
8 0
0 1
3 0
11 0
0 1
10 1
0 1
6 1
7 0
8 1
8 0
4 1
18 92

25 22
19
3 14
4 15
6 20
23 4
19 8
24 3
7 0
12 11
5 15
24 10
17 10
9 19
1 17
18 14
21 19
11 7
2 1
10 0
10 17
38 182

4 11
18
3 5
0 10
3 7
2 10
3 1
0 7
1 4
3 3
2 2
1 5
3 3
2 7
1 3
3 1
2 0
3 2
0 2
2 7
52 40

7 5
21
0 1
3 2
4 0
0 3
3 4
6 2
1 4
6 3
3 1
2 0
5 2
1 1
1 2
1 1
2 1
0 1
6 0
5 1
6 1
3 4
0 1
169 106

9 19
18
4 1
1 2
6 14
5 9
8 5
8 1
1 6
7 18
7 15
5 13
1 11
1 12
6 10
0 0
4 2
8 7
6 14
3 1
146 89

21 7
26
14 1
20 2
19 4
12 1
15 5
2 4
11 2
10 1
17 4
7 5
18 0
19 0
5 2
2 2
8 4
19 1
3 1
2 6
16 2
7 2
7 5
5 5
8 6
8 0
3 2
11 1
75 99

15 16
4
10 10
13 10
13 3
4 10
6 119

9 27
3
8 24
0 8
2 24
63 137

24 11
12
16 4
4 9
8 8
16 8
10 10
14 3
8 6
11 5
20 7
3 2
2 7
7 2
183 6

25 24
21
8 8
9 1
22 0
22 21
4 14
19 18
10 17
19 12
22 6
15 20
1 12
6 16
17 5
1 17
22 19
0 16
0 1
5 22
2 17
17 9
8 21
93 154

4 15
28
1 2
0 2
3 11
3 10
0 1
2 4
2 14
1 2
1 1
0 1
2 14
0 6
2 12
1 4
1 0
2 3
3 10
0 5
0 5
1 7
1 5
2 7
2 10
1 4
0 10
3 10
1 9
1 0
74 185

19 27
20
8 17
17 5
9 5
0 4
0 17
16 16
14 7
13 5
11 12
12 2
5 19
17 2
4 8
7 13
13 8
10 17
15 25
14 10
1 2
9 2
157 167

29 16
10
4 11
19 11
17 3
15 8
27 11
2 8
27 5
2 2
28 3
0 1
84 186

6 30
23
5 17
1 22
3 1
2 3
4 4
4 19
5 8
5 7
1 13
5 14
5 28
5 2
5 22
3 12
4 17
0 20
3 29
0 13
0 2
0 24
3 1
0 13
4 11
141 150

2 14
22
0 11
0 10
1 12
0 5
0 7
1 10
1 5
0 3
0 0
1 11
0 12
1 10
1 5
0 5
1 6
0 6
1 1
1 1
1 1
0 7
1 4
0 5
63 36

18 3
29
1 0
16 1
2 0
11 1
12 1
9 0
2 1
1 1
16 1
7 1
4 1
7 2
1 2
0 1
7 2
3 1
6 1
3 2
5 0
7 0
12 2
7 0
12 2
5 2
10 2
3 1
1 1
11 0
15 1
111 107

1 1
11
0 0
0 0
0 0
0 0
0 0
0 0
0 0
0 0
0 0
0 0
0 0
49 23

10 19
1
0 15
77 140

15 15
27
0 6
13 7
12 4
5 10
2 12
9 7
13 2
3 12
5 6
14 0
14 14
9 8
14 11
4 4
8 14
0 5
10 6
11 7
1 3
5 1
8 11
14 14
6 3
9 10
1 13
2 14
1 14
29 8

25 5
19
10 0
17 4
18 3
10 4
23 4
11 4
15 2
23 2
14 0
14 4
9 1
20 1
5 0
11 3
22 3
7 1
17 2
18 3
24 3
65 103

30 8
30
21 4
22 2
29 1
4 7
6 5
8 6
4 6
29 2
9 1
24 0
18 5
16 2
5 7
4 5
8 2
29 2
24 2
5 4
26 6
2 0
12 2
0 3
9 4
19 6
3 0
6 6
22 7
8 2
13 1
23 1
62 95

24 24
22
12 5
19 11
17 17
13 10
6 3
2 14
0 16
6 11
0 21
17 7
11 5
10 7
5 9
22 21
8 6
9 6
4 0
2 22
1 4
16 3
20 16
15 6
5 99
