*** Life<FredkinCell> 3x27 ***

Generation = 0, Population = 12.
-------0-0----0-0-00-------
-0-----------------------0-
0--------0-----------00----

Generation = 98, Population = 25.
-+-++---++-------+---+--+-+
-----------+---+-----------
-+-+-++-++++---+-+-+--+-+-+

*** Life<FredkinCell> 10x18 ***

Generation = 0, Population = 20.
-0------0---------
-----------0------
0---------------0-
---0--0----------0
-00---0---------0-
--------------0---
------------------
----0-------------
--------0-0-0--0--
--0--------------0

*** Life<FredkinCell> 18x7 ***

Generation = 0, Population = 17.
----0--
-0--0-0
-0-----
-------
----0--
-0-----
------0
-------
-------
---00--
-------
0-----0
--0----
-0----0
----0--
-------
---0---
-------

*** Life<FredkinCell> 28x9 ***

Generation = 0, Population = 13.
---------
------0--
---------
-------0-
--------0
---------
---------
---------
---------
--0------
-00------
-----00--
---------
-0-------
---------
---------
0--------
---0-----
---------
---------
---------
---------
---------
---------
---------
---------
---0-----
-0-------

Generation = 75, Population = 136.
--+-----+
-+++---+-
--++-9+-+
+++-++++-
-++++++++
-----++++
++----++-
+-+-++7-+
+-+-+++9-
+-++-+-+-
-+-++-+++
+++-+--++
++--++--+
----++++-
-+-+-++-+
+---+++-9
-+-++--++
+--++--++
+--+-----
-+--9+-++
+---+-++-
-+++---+-
---++--8+
9-+---8-9
+-8-+8++-
-7+-6++9+
--++-+++-
+-8-----6

Generation = 150, Population = 143.
-++-+++-+
+-----+++
++++-++-+
++++-+---
-++-++-++
+++++-+++
-----++++
---+--+++
-+++-----
-++++--++
+++-++++-
++-+++-++
------+++
++--++-+-
-+--+++++
--++-++-+
+---+++++
-++++--++
-+++-+---
+---+-+-+
+-+-+--+-
++--+-+++
-+++--+-+
+--++-+-+
-++++----
+-+--+--+
-+---++--
-+++-+-++

*** Life<FredkinCell> 24x16 ***

Generation = 0, Population = 20.
------------0---
---0------------
-----------0----
------------0---
----------------
--------0------0
---0------------
----------------
----------------
0---------------
--------0-------
---0-----------0
---0----0-------
------0---------
----------------
----------------
----------------
0----0----------
----------------
----------------
----0-------0---
----------------
------0---------
-----------0----

*** Life<FredkinCell> 15x12 ***

Generation = 0, Population = 26.
-0-0--0--0--
------------
----------00
--0---------
---------0--
--0---------
-------0--0-
000---------
-0---0------
------------
--0-0-------
00---------0
0--------0--
0--0--------
0-----------

Generation = 150, Population = 95.
--+++--++-++
+-+--++-+--+
+----+++++++
--+++-++-+++
-++-+-+--+++
+-++++++--+-
+++----+-+--
++-++-++-+--
-+--+----+--
+-++--+-++--
-+-++-+-+--+
+-+-++++----
-+-++--+---+
++-+++-+++--
--+----+-+++

*** Life<FredkinCell> 18x27 ***

Generation = 0, Population = 13.
---------------------------
-------0-------------------
-----------0---------------
---------------------------
---------------------------
---------------------------
--------------0------------
---------------------------
--------------------0------
-------------------0-----0-
--------0-------0----------
---------------------------
---------------------------
-----0---------------------
----------0----00----------
---------------------------
---------------------0-----
---------------------------

*** Life<FredkinCell> 27x7 ***

Generation = 0, Population = 8.
-------
---0---
-------
-------
-------
-------
-------
---0---
-------
----0--
----0--
-------
-------
-------
-------
-------
-------
-------
-------
-------
-------
-0-----
-------
-0-----
-------
-0-----
0------

*** Life<FredkinCell> 17x17 ***

Generation = 0, Population = 9.
-----------------
---------------0-
--------0--------
-----0-----------
-----------------
--------------0--
-----------------
-----------------
-----------------
-----------------
-------------0-0-
----------------0
0----------------
-----------------
------0----------
-----------------
-----------------

Generation = 114, Population = 127.
--+--+-+8-8--+---
++3-+8--70--+---+
+-+8+-+-++-+++-+-
----4---------+-+
-++-+----7+-++++-
+---+++-+-----+-+
-------+-+++8-+-+
+--8---7+---+--8-
-++-++-7-+-7+++--
-43-+---7+---8---
--+-++++-+-+-+-+-
--+-+---+-+-+-+--
8+-++--++---+++--
+7-------+--++--+
++-+-+++----++4-+
7--+7--8+---+-+++
---+-----8-4--7--

*** Life<FredkinCell> 7x6 ***

Generation = 0, Population = 21.
0-0--0
0-000-
0----0
00-00-
0---00
00--0-
-0-0--

*** Life<FredkinCell> 16x23 ***

Generation = 0, Population = 23.
-----------------------
-0--------------------0
------0----------------
-----------------0-----
-----------------------
-------0-------0-------
-0----------0------0---
----------------------0
-0---------------------
---------0-------------
----0--------0---------
----0-0---------0------
---------0---0---------
-0-----------------0---
----0-----0------------
-----------------------

Generation = 100, Population = 184.
-++-++--+-+-+--9++-+---
-+-++-+--+---+--++++++-
+--+++--+--+--++---+-+-
+----++--++--++----++--
-+-++-+--++++++-++---++
-++-+---++-++-+-+++++-+
+-----+-+---+--++-+---+
+--+++-+--9+----+-+++--
+--++-----++-++--++-+-+
-++-+-++---+++--+++--+-
-+++-++--+-+--+++++---+
---+-++-+----++----+++-
-+++--+-++-++--+-++++++
++-+---+-+-+--+++-++++-
--+++++---++-++-+++--++
++--+-++-+---++--------

*** Life<FredkinCell> 18x16 ***

Generation = 0, Population = 5.
----------------
----------------
----------------
-0--------------
----------------
----------------
----------------
----------0-----
----------------
----------------
----------------
----------------
----------------
----------------
---0------0-----
----------------
--------------0-
----------------

*** Life<FredkinCell> 16x23 ***

Generation = 0, Population = 21.
--------0--------------
-0---------------0-----
----------------0------
---------0-------------
---------0-------------
--0------0-------------
-----------0-----------
-------------0---------
-----------0-----0---0-
-----------------------
-------------0---------
------0----------------
------------0-0--------
-------------------0---
-----------------------
-0------0--0-----------

Generation = 57, Population = 175.
-----+--+-6+--747-+7-++
-++++--54+6+-97-----9-5
7++--+-8++--+-9-+-----+
7--++-+----+---887-48--
+--8-+-7-+++8+----+-++-
---++-+---+-++---+-858-
--58--8-++49+--+-++----
8+++5-+-++--+9++9--+--6
++4--+--+-+-8-+--+--8+-
------+---+-++-+8---7--
-++9-8----5+--+--+9----
+-++-580-+-++-+++-++-+-
+----------+-9+7-+-9-++
-9-++-++--++-----+7+5--
-9--8-+87-9---+-----68+
7--+----++----+--+++8+-

Generation = 114, Population = 183.
+-++-+--++-++---+--+-++
--+-------++-++-+---+++
--+++++-+---+---+++++--
+++-++--+---++----+++++
-++--+---++---+-+++--+-
+---+----+++-+---+---+-
+--+-+----9---++---+-++
++-+----++--++----+++++
--++-++-----+-++---+-+-
++--+++-++-++++++-+-++-
+-+++++--++--++-++-++--
++-+---+-+--+-+-++++---
-+-+-++++---+-+-+--+---
+-++---+-----+---+-++-+
--+-+-+--+--++++++--+++
-++++---+-+++++++-++-++

*** Life<FredkinCell> 7x7 ***

Generation = 0, Population = 10.
-------
---0--0
0------
-0----0
---000-
-------
-0----0

*** Life<FredkinCell> 29x27 ***

Generation = 0, Population = 5.
---------------------------
---------------------------
-------------0-------------
---------------0-----------
---------------------------
---------------------------
---------------------------
---------------------------
---------------------------
---------------------------
---------------------------
---------------------------
------------------0--------
---------------------------
---------------------------
---------------------------
---------------------------
------------0--------------
---------------------------
---------------------------
---------------------------
---------------------------
----------0----------------
---------------------------
---------------------------
---------------------------
---------------------------
---------------------------
---------------------------

*** Life<FredkinCell> 27x8 ***

Generation = 0, Population = 10.
--------
------0-
-----0--
--------
--------
--------
--------
--------
-------0
--------
--------
------0-
----0---
--------
--------
--------
--------
------0-
--------
--------
--------
--------
--------
----0---
--0-----
--------
0------0

*** Life<FredkinCell> 29x30 ***

Generation = 0, Population = 22.
--------0---------------------
-----0-----------------------0
------------------------------
---------------------------0--
--------------------------0---
------------------------------
----------------0-------------
------------------------------
-------------------0----------
------------------------------
------------------------------
-0----------------------------
0-----------------------0--0--
-----------0------------------
-----------------------0------
-------------------------0----
------------0-----------------
-----------------0------------
------------------------------
-------------------0----------
------------------------------
-------------------0----------
------------------------------
----------------------------0-
------------------------------
------------------------------
------------0-----------------
------------------------------
-0---------------------0------

Generation = 96, Population = 243.
-++++-----6-+-+---+-++++++----
-+-+---------------+-+-----+--
-+-+----------+-----++++-+----
-+-+-+-------------+------+-8-
+++-+-+--++++-+-----+-++------
-+-----------------+-+-+-+----
-8--------+---+-+------8------
-+-+-------------+-+-+---+++++
-+++--++-+-+++---------+----+-
-----------+---+-+-+-+--------
+----+-+--+-------------+--+--
-+-+-+-----------+-+-+-+----+-
-+++9++-++-+----+-+--+-+-++---
---------+---------+-+--------
--++-+-9-++-+-+----+--+-++++-+
-----+-+-+-+-------+---+-+---+
-+-++-+-------9---+-++-+-+--+-
---------7-+---+---+----------
--+--+-+----+----+-+-++-++-+-+
4+7--+-+-+-+-9-----------+-+--
--------------+--------+------
-----+-+-+-+-----------------+
+-------9-------++++-+----+++-
-+9-+----+-+-------------+-+-+
-----+-++-----+-+-+--------+-+
---6---+-+-+---------------+-+
-----++++-+---+-+-+++---+-++++
5-+----------------------+---+
---+-++++++-------+------+++--

*** Life<FredkinCell> 30x30 ***

Generation = 0, Population = 8.
------------------------------
-0----------------------------
------------------------------
------------------------------
------------------------------
------------------------------
------------------------------
-----------------------------0
---------------0--------------
------------------------------
------------------------------
------------------------------
------------------------------
------------------------------
-------------------0----------
------------------------------
-----------------------------0
0-----------------------------
------------------------------
------------------------------
------------------------------
--------0----0----------------
------------------------------
------------------------------
------------------------------
------------------------------
------------------------------
------------------------------
------------------------------
------------------------------

Generation = 107, Population = 430.
0---0----+---+-+0---0-------0-
-0-6-+-+8++68--+6+------------
--0---------0+-+--0-0+------0-
-5-----93655---9-6--3716-6-5-+
0-0-04---9--0+--0-08-+--------
-+--8+89-+--+-+--99+22-----7-+
----0-0-0-----0-0+-+0-0--6----
---++-5+----+-7-3+6----+1-2--+
-30--+0-0+--0+-809--0--+-+--0+
+++--+--+++--+8++--8-+3+4--+7+
0---0-0-0----+0+0-0-0509--0-0-
8-79-+--+-5-+-5+-+-63-5--8-+5+
0+0--50--+090+--0-0709---6--0-
----+-+--5++94-+-+86+5-+7+++9-
0---0----9-+--0-0+-6--0-0-0709
-8-88-9-6++5-+--3-82---81+-+1+
0+0-0+07-70-0--+-+---+0----+-+
5++--++++--9--+++5-+++5+++5+6+
--0-08-9--0--+-+0-0-0--8090---
+++-+-8--7--9++--+--69--++--8+
04-8-+0----+0+---+0-0--80+--0-
--+-++-+--+-+---+-+++++++-+++-
0--+0---09-+--0-0--+-+0---07-8
---8----+-6+-9--+--+8--+++--66
0-0-0--+0+--0-0+---8080-0--50-
-----57-7+----++--8-9-55++5---
0-----06-----80---0-0-05-5--0-
-+-----9-+--+--+--2-+---+----6
0-0-------090+0+-+080-020-0-0-
-0--------++2-----9+--44-----7

*** Life<FredkinCell> 29x5 ***

Generation = 0, Population = 9.
--0--
-----
-----
-----
-0---
-----
-----
---0-
0----
-0---
-----
-----
-----
---0-
-----
-----
-----
-----
----0
-----
-----
-----
-----
----0
-----
-----
-----
-0---
-----

Generation = 115, Population = 76.
+--+-
+---+
++-9-
----+
++--+
---+-
+-++-
+++-+
+++--
+-+6-
+--++
8++--
+--+-
-+4--
-++--
---++
+-+++
+++++
--++-
+++--
+---+
4--++
++++-
-+---
-6---
++---
+++9-
---++
++-++

*** Life<FredkinCell> 2x27 ***

Generation = 0, Population = 4.
--------------------0--00--
--0------------------------

*** Life<FredkinCell> 1x13 ***

Generation = 0, Population = 13.
0000000000000

Generation = 152, Population = 4.
-0-0-----0-0-

*** Life<FredkinCell> 16x10 ***

Generation = 0, Population = 6.
----------
----------
----------
---------0
---0------
--------0-
----------
----------
----------
------0---
-0--------
----------
--0-------
----------
----------
----------

Generation = 29, Population = 74.
-3-20-03--
-281--4434
---6--7---
5-3-55-+56
246--7163-
3--25--41-
---3--4-16
42----32-3
--2--0-014
23---221--
5-36-7---5
4-2-----5+
+-73--6-4-
4-2-----67
3----2--4-
------4---

Generation = 58, Population = 81.
19----2---
-+----8-++
7-+-3-+--6
+++-+8-+-+
8-+9-+---+
+++5+-+---
8+-+--+2--
++--8-+---
------4539
9-+--46+--
---++----+
8+-5--+9+-
+++-----+-
78898498++
--++-27-+-
7-5-61-6--

Generation = 87, Population = 82.
-+-+-9--6-
++++--+-+-
-+--5---+-
+-+-++--+-
++----+-+-
--+7+---++
--+-+++-8-
-++-+++++-
6++--9++--
---9+-+---
+-+-++----
++--+----+
++-++-+-++
+-++--+-+-
+-++8--+-+
+89-+5-7++

Generation = 116, Population = 82.
7+--6+--++
----+--+-+
-+----++++
+--+--+--+
++--+++-++
-+-++--+-+
+----+-++-
----+--+--
+-++++-+--
++--++-+--
++-------+
+++---++++
-+++++++++
-++-+-----
++-+++---+
+--5+++++-

Generation = 145, Population = 55.
----------
++++--++-+
+++---+-+-
+-++-+-+--
+-++--++--
+--+-++---
----+----+
---+-+----
----+-----
-+++-+---+
-+--+--+-+
+--+-+---+
-+---+++--
+-----++--
-----+-+-+
-----+----

Generation = 174, Population = 90.
-++--++---
++++-++-++
-----+-++-
--++---+-+
+--+++--++
++++++-+++
++++++++--
-++--+---+
-+-+++-+++
++-+++-+-+
+++-+-++-+
+--+-+++--
+--+-++-+-
+--+-++--+
-+-+--+---
-+-+-++-+-

*** Life<FredkinCell> 22x18 ***

Generation = 0, Population = 10.
--------------0---
-0----------------
------------------
-----------------0
------------------
-------0----------
-----0------------
------------0-----
------------------
------------------
------------------
-----------------0
------------------
------------------
-0----------------
------------------
------------------
------------------
------------------
-------0----------
------0-----------
------------------

Generation = 24, Population = 67.
5-------2-----11--
-----9-4-2-0-5-2--
------5-----------
---4-9-5-------5--
4-------------3---
-6---4-------3---5
11----27------5---
2---------2-------
------5------3----
-2-----------8----
------------------
-2---5-------4----
------2-2-----4---
-----1---1--43----
------5--2-4--3---
--0----32---------
-----4--3---------
-----2-0---2-2---3
------------------
---2-0---1-7------
3-----1---------1-
-1--1----------02-

Generation = 48, Population = 98.
6+-5+-9+----+56--1
-4-7---+---2-+----
--------------3---
-9-6---+-5-5-----5
7----98-----4-----
-+4-----8---7-----
---6----8-----86--
------9-8---744---
6-----+----49-----
-8-6--------3----3
--------4-----8---
-3-+-----7-+-8----
27----5-----------
-9-3---+---------7
6+-6--9-2--9-99-47
-------------6---7
-2------6----66-73
-----------8-3---7
------6-----------
---+-------+-+----
--8-----83----707-
-94---8-6---++----

Generation = 72, Population = 90.
--+-+++---5------8
-9-+-+------+----+
+--------+----6---
-+-----+-----9-+--
------+-----------
---+---+-+-+-+---+
++9-------++--9---
-7--+-+-+------+96
--5-------+---8---
----+--+-9---+--8-
------+------++---
---+-7-+----+9---5
----+----9--------
---+---+-8-9-----+
-+----+--------+--
8----9-----9+----+
----8+9-------+---
-4-9-------------+
-----7+-----------
---+8-----------+-
--+---------+8+---
-+-------+-+---+--

Generation = 96, Population = 103.
-++-+---++---+--+-
---+-+-+-----+-+--
+--+-+-+----+-+---
-+---------+++----
--------------8---
+--+---+-+-------+
+---+-+-----++---+
-+-++--+-----+---+
------------------
-----++----------+
-+--+++----7------
-+-+---+-+-+++---+
--++---8--+---+---
-----------+-+----
--++---+--+---++-+
-+-+-----+-+-----+
-+----+-++---+--+-
-----+-+---------+
-+------+-------+-
-+---+++-+-+-+----
+-----+---++-----+
6+-----+---+------

Generation = 120, Population = 150.
+--+----+-+--++-+-
-+-+---++----+--+-
++++++-++-----+---
-----++--+++-++---
-+--+-+-+--++--++-
++-+---+-+--++-+--
------+---+++--++-
-+----+--------+--
--++-++-+-+---+---
-+-----++---++--++
+-++--+--++--++---
+-+--+-+-+++--++--
+--------+---+---+
----+++--+-+---+--
--+-+-----+-+-----
-+---+-+-++--++---
+++-+-+-+--+------
+8-++------+++--+-
------++--++---+-+
-++-+-++++-+-+-+--
----++---+--+---++
-++------+---+++-+

*** Life<FredkinCell> 26x17 ***

Generation = 0, Population = 26.
---------------0-
------0----------
-----------------
0------------0---
--0----0---------
-----------------
-0-0----0--------
--------------0--
----------0------
--------0----0--0
0----------------
-0---------------
-----------0-----
-------------0---
-----------------
-----------------
-----------------
-----------------
------0----------
0-0-----------00-
-----------------
-----------------
------0----------
-----------------
-----------0---0-
-----------------

Generation = 17, Population = 172.
--7-1---4---33---
---0--00-4--353--
3-3----44-1--1-71
6--11--1----0-33-
742--32---652----
3--------4---52-1
2---3---1-1--66--
----41---------5-
2344--3-----1---1
45---86--2----234
--21-1--6-1--0---
-121-------0--211
123-22--0-3-0-0-0
2-1004-----3-----
-3----13------1-0
------2----------
1-3---2--------30
---0-1212---136-3
1-13113--0-15--4-
---631222--2--63-
-0--0-0-0---120--
-001---1----4----
2---1------2--3--
-1-1---1--34-455-
-1----3--1320-2-2
2-2------2111-55-

Generation = 34, Population = 184.
----8---+0-------
8---3---89---7--2
8--97---64-----+-
--8-2-88--86--78-
+-3---8+86--82---
--+-4----68--6--1
6-85-+-8--2------
-4--8---34-53--83
4+5--8-7-6-3-9-+7
66-4-+75+-+74-647
----8--5--50--73-
-34---59--748+38-
4++7-6--17--14---
934--7-95--73345-
-737-5---------7-
6--------6----7--
456851--6548-----
-4--6-----48---69
--7-5--212--73-+-
7--84-4--7--7++--
6-1-------84-5-9-
679-4------------
-4-44--84--+-2-6-
6---4-------2----
-345--8---7--7-4-
--7---1----7-78+-

Generation = 51, Population = 207.
---+-6-++1-+---+2
+3896+-4++--8---3
++---+-97-5--5--9
+7--8+-+3-----+--
-+-++-+++-------+
+-+28---79++---+-
+-+---8--9-++++--
--94+-+8+78+-+---
---+--9---49+++--
---4-+-6-8-968-8-
+-+9--+--7+-+-+79
---------2-++----
-+-+--++-+-+-77+9
-98--+--79+--+-88
--+-+-7--6+-+-8+-
----63--9+---+--9
59+-9-8----------
-7-6+5--5689-+-++
+6-+--+--6-6---++
+----4-++++-+-+8-
----65-889---+3-0
9--9---5+--------
-86-+-+-9-++--++6
+--4--67++-+-+-+-
-6--7-++4-+95+---
9-----49-----++--

Generation = 68, Population = 191.
-+----+-+-+---6--
--+-7+-------+---
-+-++--+-+9-9--++
-++-+----8+------
+-++--+++-++--9-+
++--++--9++--+++7
--+++++--+-++++--
---------+------+
8--++--+---++-++-
9+--++----++-+-++
+--++8-+-++6+---+
-6+--+---7+-++---
-+-+--++6-++----+
-9--9+--+++--+-++
---+---++-++--+--
----86+5-+87++--+
++-++9-+----9--+-
++---+----+-----+
+---9-+---++---++
--++--++-+-++++-+
-+--+-9++-++---+-
-+---7--------+--
+-+-+--+---+--+-+
+-+---++-+--++-+-
+-+----+--++---+-
+++----------+++-

Generation = 85, Population = 221.
-+++-++-+8--+++--
++++-+++++++--+++
--+++---+---9---+
--+++---+9-++-+-+
---++-+-++--+-++-
+-+--+++-++----+-
----++++-+-++--+9
+++9--++++--++-+-
+-++-++--+++-++++
+++9+-+-++-++--++
-++-++++-+--+-+--
++-++-++++--+-+--
--++--+-++++-+-+-
+++-+-+----+-++++
--+--+-+-+-+++--9
--++---------+-+-
-+-------++++----
-+++-+--+++++++--
+---+---++-------
+---+---+--+-++++
-+---++--+----+++
++-----+--+-+-+--
-+-+----+++-+8+--
+-+9-+--+-++-----
+-+-+++--9-+8-++-
---+----+-++-+-+-

Generation = 102, Population = 227.
+++--+-+--+-+-+--
+--++-+--+--+-+++
+--++++++----++-+
---+-+--++++--++-
----+--++-+-+++++
+-+-+-++-+--++--+
+++-------+---++-
++-+-++--+--+-++-
+++--+--9-+++-+-+
----+----++-+++-+
+----++++++-++--+
--+----+-+--+++-+
-++++++-++-+----+
-++---++--+---+--
--+-+--++-++--++-
+--++-+8+---+-+++
------+-++-++--++
+++---+++--+-+---
+--++-+-+++-++-++
+----++++++-+--+-
+++-+---+-++++-+-
++-++9++-+-+-+++-
++---++--+--++++-
+++--+--+---++++-
--+-++++-+-++--+-
++-----+--++--+-+

Generation = 119, Population = 250.
++--+-++-+++-++-+
-+++----+++++---+
+++-++-+-+---+---
+++---+++--+++++-
-+-+++-+--++++-++
+-+-+-++-+--+++++
+-+--+-+-+-+++--+
--++--+--++++-++-
-+++-++-+-+-+-+++
-+-++-++-+++-+++-
-+-+-+++-++-+++++
+-++-+-++-+---+++
-++-++---+++-+++-
--+--++-+++++-+++
--+-+-+-----+++--
++---+++-+-+--+-+
++-++--+----+-+++
+++--++-+++-+++-+
-+-+-+-++-++---+-
-+--+-+--+-+-+++-
++--++--+-+++++--
++-++--+----+-+-+
++--+++-++-+-+-++
--+++--+-+-----++
-+++-+++-++---+-+
+-----++-++-+-+-+

Generation = 136, Population = 175.
---++-+-+-+--++--
-++-+++-+-+---+--
+-----++--+-+--+-
------+-+++-+---+
-+--+-+---++--++-
+++-----+---++++-
+--+-+-----+-++-+
+-+--++-++--++---
+-+----++--++--++
-++-+---++--+-+--
+-+-------+---+++
++-++-+---------+
+----+-+-+-++--+-
----+++++++++----
----+-+-+---+++--
-+--+++------+--+
+-+-+---+-++---+-
-++--++-+-+--+--+
+---+-++--++-----
--++++--+--+--+--
-+++----+-++---+-
+++-----++-----++
--+-+--+----+-+-+
-+--------+--+--+
--+-+-----++---++
+--++--------++--

Generation = 153, Population = 206.
---+---+-+---+---
++++--+-+++--+--+
++++---++-+++-+--
+----+---+---+++-
+--+-+-+-++++----
-+++-++---+----++
-++---++---------
+----++--++---+++
--++-+--+-++++-++
+----+-+-+--+---+
--+--++-+-+++-+--
+--++++---+++---+
-+++-+---+-+----+
-++++++--+-+-+-++
++---+++-++-++-+-
+-++-+--+++++-++-
-+--+-+++---+-+-+
-+-+-+++--++-++++
-++-+-++---+----+
-++++---+-++----+
-+-----+---+-++-+
-+-----+--+--+---
--++++--++------+
+-++---+-+++-----
-++--+++--+-+-+--
-+--+++++++----++

*** Life<FredkinCell> 7x12 ***

Generation = 0, Population = 15.
------0-----
0-00---0----
-----0-0----
-00---------
---0--------
--0----0--0-
---------0-0

Generation = 66, Population = 33.
--++---8+---
-+-+--+-+---
-+--7-++----
+-+---+-+---
-----+---+-+
-+++++++-+-+
-+-+-+-+-+--

Generation = 132, Population = 32.
++-++--+++--
+-+--++----+
-+-+++--+---
+-+-+--++---
----8+-++---
---------+-+
-+---+-+-+--

*** Life<FredkinCell> 11x29 ***

Generation = 0, Population = 17.
--------------------------0--
----------------------0------
----------0-----0---------0--
--------0-------0---------0--
--------0-------------0------
-----------------------------
---0-------------------------
-------0-------------0-------
----------0------------------
----0------------------------
-----------------0------0----

*** Life<FredkinCell> 30x20 ***

Generation = 0, Population = 29.
0-------------------
------0-------------
--------------------
----------------00--
0-------------------
--------00----------
--------------------
-------0---------0--
-----0--------------
0-------------------
--------------------
----------------0---
--------------------
----------------0---
--------------------
--------------------
0------------------0
--------------------
--------------------
--------------------
----------------0-0-
--0-----------------
--------0-0---------
-0--0---------------
------------00------
--------------------
--------------------
--------0---0-------
0------0-------0----
--------------------

*** Life<FredkinCell> 28x17 ***

Generation = 0, Population = 13.
-----------------
-----------------
-----------------
----------0------
-----------------
-------------0---
----------0------
--------------0--
-----------------
-----------------
-----------------
---------------0-
-----------------
----------0------
-----------------
--0--------------
-----------------
-----------------
--0----0---------
-0-------------0-
-----------------
-----------------
-----------------
-----------------
----------------0
-----------------
-----------------
----0------------

Generation = 58, Population = 220.
6-+-6-9-75--85--5
9--+--8---7-7---9
+-+5--8--6-4-63-8
+-+-5--+-+--+----
+4-5-3+----5--+--
8+--+----6---8--+
+3-+-69-+------8+
-+7-++-4-9-+-+-8-
8-+5------+--1-3-
-+-5--6-+8++-+---
---26-7---+-96-3-
-+---+++++---++-9
-1-7-39-7---5--7-
9+----58-5+99--+-
-357-4-+7-8-+---+
---3-5-3-4+2-+69-
+-96-3-9-29-6---+
-5+38--6++--8-5++
----+4+--5+++-+--
99+-+++++--+-+-+-
-----3647--+816-+
+-9--9+-9-7-+7+--
------+7-6+4-4+-8
----+---77-+-+8+-
+---+-+----+--+3-
+-5-8----68---7+8
+-+---+-8-+--66--
--------9-7----+-

Generation = 116, Population = 225.
--+-+-+++--+--++-
++-+---+--+++--++
---+--+++-+-+-+-+
++-+++-------++++
+--++-+-+------++
--+++--+-+-+--++-
+-+---+----++--++
--+-++-++-+--++-+
+-++--+-------++-
-+-+--++-++++-+++
--+++---+-++----+
++-+-++++-+---+++
+---+-----+++-+-+
+++-+++++----++++
--++--+-+-+---+-+
+---++-7+++-++++-
+-+++------+-----
--+---++--+--++--
+-+-----+--+--+++
-++-+--+-+-++-+++
+---+-----+-+-++-
++-++-++--++-----
--+-+-++---++--+-
+--+++---++-+--+-
--+++-+-+-+-+-+--
-+++--+++--++-+--
----+---+--++-+--
--+-+++--++--+-++

*** Life<FredkinCell> 8x21 ***

Generation = 0, Population = 23.
---0-0--0----0-------
---0--0----0---------
-----0---------------
--0--------0------00-
---------0-----0--0--
--------0-------0---0
---0------------0--00
-------------------0-

*** Life<FredkinCell> 8x14 ***

Generation = 0, Population = 1.
--------------
--------------
--------------
--------------
--------------
--------------
------0-------
--------------

Generation = 133, Population = 19.
-----0-0------
0-----0-------
-0------------
0-0-------0---
-0-0-----0-0--
0---0-----0---
-----0--------
0-0-0---------
