*** Life<Cell> 6x10 ***

Generation = 0, Population = 19.
--00---0--
0--0-0-0-0
0-----0-0-
--0---0--0
----00----
0---0--0--

*** Life<Cell> 6x7 ***

Generation = 0, Population = 16.
00----0
-000---
00---0-
-------
0--0--0
-000-0-

Generation = 19, Population = 12.
.......
...**..
..*..*.
..****.
-..**.*
.....*.

*** Life<Cell> 2x5 ***

Generation = 0, Population = 5.
00000
-----

Generation = 2, Population = 3.
*-0-*
-----

Generation = 4, Population = 1.
.-0-.
-----

Generation = 6, Population = 1.
.-0-.
-----

Generation = 8, Population = 1.
.-0-.
-----

Generation = 10, Population = 1.
.-0-.
-----

Generation = 12, Population = 1.
.-0-.
-----

Generation = 14, Population = 1.
.-0-.
-----

Generation = 16, Population = 1.
.-0-.
-----

*** Life<Cell> 7x2 ***

Generation = 0, Population = 12.
00
00
00
00
00
0-
0-

Generation = 1, Population = 9.
--
11
11
11
1-
--
10

Generation = 2, Population = 9.
00
--
**
*-
*-
-0
*1

Generation = 3, Population = 9.
11
--
**
*-
*-
01
*-

*** Life<Cell> 3x2 ***

Generation = 0, Population = 3.
00
--
-0

*** Life<Cell> 2x7 ***

Generation = 0, Population = 7.
0000000
-------

*** Life<Cell> 4x7 ***

Generation = 0, Population = 18.
00-00-0
-0000--
-000000
00-0---

*** Life<Cell> 9x6 ***

Generation = 0, Population = 21.
0--00-
-00---
----00
-0--0-
--0---
--0-00
00--0-
0--0--
0-0--0

Generation = 16, Population = 15.
.*....
*.*.**
*1...*
.****.
.0....
......
..0-..
..-..-
-.-..1

*** Life<Cell> 10x6 ***

Generation = 0, Population = 22.
----0-
--0---
---000
0---00
0-00--
0-0-0-
-0-0--
0-----
---0--
-0-000

*** Life<Cell> 4x9 ***

Generation = 0, Population = 17.
0-0000--0
-------00
-00---00-
--00000--

*** Life<Cell> 5x8 ***

Generation = 0, Population = 19.
0--0--0-
000-----
000---00
--0--00-
0000--0-

*** Life<Cell> 6x5 ***

Generation = 0, Population = 19.
0-000
-0000
00000
0---0
-0--0
--0-0

Generation = 5, Population = 14.
---1*
0---*
-1**-
.-0--
100*-
-*--*

Generation = 10, Population = 9.
-01..
--*0.
*...*
*.--*
.--.-
-.-1.

Generation = 15, Population = 11.
1.-..
--.1.
...**
..*1*
**-*1
-.-..

Generation = 20, Population = 15.
-.-..
1*...
***..
*..-*
*****
-*0*.

Generation = 25, Population = 9.
1.1..
.*...
..*..
.**..
..*.*
-.-*.

*** Life<Cell> 8x4 ***

Generation = 0, Population = 15.
-0--
--00
-0--
--0-
0-00
00-0
-0-0
0-0-

Generation = 10, Population = 15.
-*1.
-...
--*-
0..*
***0
--.*
*..*
-***

*** Life<Cell> 5x5 ***

Generation = 0, Population = 7.
----0
-0-0-
----0
----0
0--0-

Generation = 26, Population = 6.
.....
..*..
..*..
.*..*
...*1

*** Life<Cell> 5x10 ***

Generation = 0, Population = 23.
000-0-0---
0----00--0
-0-00-0--0
00---0---0
---0-0-000

*** Life<Cell> 4x3 ***

Generation = 0, Population = 12.
000
000
000
000

*** Life<Cell> 4x6 ***

Generation = 0, Population = 11.
00-000
-----0
0----0
0--00-

Generation = 11, Population = 6.
..1.*.
1*--..
--.0--
..1...

*** Life<Cell> 9x4 ***

Generation = 0, Population = 9.
----
0-0-
----
-000
0---
0-0-
-0--
----
----

Generation = 4, Population = 18.
0---
0---
*1--
*.01
*-*-
-.1*
-0-*
-100
00--

Generation = 8, Population = 13.
.1--
0-0*
..11
*.-*
.-.-
.**.
---*
*.--
*---

*** Life<Cell> 8x6 ***

Generation = 0, Population = 8.
---0--
--0---
-0----
0-----
-0----
0-----
--0---
---0--

Generation = 3, Population = 16.
--0-0-
-0----
0-0-0-
--00--
01*-0-
00----
---0--
----0-

Generation = 6, Population = 27.
-01--0
0-*0--
1--01-
0111-1
1*.--0
-010*-
*1*-11
----1-

Generation = 9, Population = 23.
-*----
*0.-1-
1-*-.1
*.1-1.
1.*0-1
0**0.0
.*.0..
0---.0

Generation = 12, Population = 24.
-.--0-
*0*---
-**1*1
.*-*1*
-..1-*
0.**.*
..*1*.
-1-*.-

Generation = 15, Population = 16.
0.1-0*
.1.0-*
-.*..*
*.*...
*..--.
-*...*
.*.*..
---..-

Generation = 18, Population = 15.
-.1*.*
.-.1..
-....*
...*..
**.1-.
0**...
..*...
-11..-

Generation = 21, Population = 16.
-***..
.**...
-**.**
....**
..*.1.
0..*..
*.....
-.-..-

Generation = 24, Population = 17.
-.....
.*.***
-...**
..*..*
*..**.
*..**.
**....
0.-..-

*** Life<Cell> 3x4 ***

Generation = 0, Population = 10.
0000
0000
-0-0

*** Life<Cell> 6x7 ***

Generation = 0, Population = 9.
------0
-------
---0--0
-----00
--00---
-00----

*** Life<Cell> 7x6 ***

Generation = 0, Population = 21.
00-0-0
0000-0
-000--
--0--0
-0---0
---00-
--00-0

*** Life<Cell> 6x6 ***

Generation = 0, Population = 5.
---0--
0-----
-0----
--0---
---0--
------

Generation = 1, Population = 6.
0-0-0-
---0--
------
------
----0-
---0--

Generation = 2, Population = 7.
---0-0
0-----
---0--
----0-
-----0
--0---

Generation = 3, Population = 10.
0-0---
-0---0
0-0---
------
--0---
-0-0-0

Generation = 4, Population = 13.
-0-0-0
0-0-0-
-0-0-0
0-----
-----0
0-0---

Generation = 5, Population = 11.
--0-0-
-----0
0-0-0-
---0--
--0-0-
---0-0

Generation = 6, Population = 9.
-0----
0---0-
---0--
0-0-0-
-0----
----0-

Generation = 7, Population = 10.
--0-0-
-----0
----0-
-0-0-0
------
-0-0-0

Generation = 8, Population = 8.
-0----
--0-0-
-0---0
0---0-
------
0-----

Generation = 9, Population = 7.
0---0-
-0----
----0-
---0--
----0-
-0----

Generation = 10, Population = 12.
---0-0
--0---
-0---0
--0-0-
-0---0
0-0-0-

Generation = 11, Population = 7.
------
------
0-0---
-0---0
--0-0-
-0----

Generation = 12, Population = 9.
------
0-0---
-0-0-0
--0---
-0----
0---0-

Generation = 13, Population = 9.
0-0---
-0---0
------
-0---0
----0-
---0-0

Generation = 14, Population = 10.
-0-0-0
----0-
------
0-0---
-0---0
--0-0-

Generation = 15, Population = 10.
0---0-
-0----
0-0-0-
-0-0-0
--0---
------

Generation = 16, Population = 7.
---0-0
0-----
---0--
----0-
-----0
--0---

Generation = 17, Population = 10.
0-0---
-0---0
0-0---
------
--0---
-0-0-0

Generation = 18, Population = 13.
-0-0-0
0-0-0-
-0-0-0
0-----
-----0
0-0---

Generation = 19, Population = 11.
--0-0-
-----0
0-0-0-
---0--
--0-0-
---0-0

Generation = 20, Population = 9.
-0----
0---0-
---0--
0-0-0-
-0----
----0-

Generation = 21, Population = 10.
--0-0-
-----0
----0-
-0-0-0
------
-0-0-0

Generation = 22, Population = 8.
-0----
--0-0-
-0---0
0---0-
------
0-----

Generation = 23, Population = 7.
0---0-
-0----
----0-
---0--
----0-
-0----

Generation = 24, Population = 12.
---0-0
--0---
-0---0
--0-0-
-0---0
0-0-0-

Generation = 25, Population = 7.
------
------
0-0---
-0---0
--0-0-
-0----

*** Life<Cell> 4x2 ***

Generation = 0, Population = 8.
00
00
00
00

Generation = 4, Population = 4.
--
**
**
--

Generation = 8, Population = 0.
--
..
..
--

Generation = 12, Population = 0.
--
..
..
--

Generation = 16, Population = 0.
--
..
..
--

Generation = 20, Population = 0.
--
..
..
--
