24

6 9
7
0 6
4 0
5 0
2 3
5 0
0 7
3 2
28 15

7 20
19
4 17
0 6
5 18
3 6
1 14
1 12
1 6
2 2
0 7
5 9
0 8
2 18
4 8
3 19
0 14
3 15
1 8
5 19
2 3
30 10

29 27
21
1 18
19 18
27 14
22 11
28 1
7 3
26 22
15 13
1 14
21 2
9 12
5 9
11 13
5 13
15 3
14 9
16 24
23 22
21 26
3 10
6 11
22 19

20 27
20
11 11
8 0
19 25
7 9
1 22
11 10
8 5
8 13
15 4
5 25
16 1
4 18
6 23
4 0
6 7
11 23
9 4
3 3
17 2
14 25
29 15

17 15
20
0 8
10 7
5 0
1 11
15 7
3 3
12 11
0 0
10 1
3 12
8 5
9 11
2 12
13 10
1 9
4 7
8 11
2 11
13 2
12 12
8 23

16 9
5
6 6
15 7
14 1
3 4
5 2
24 6

13 28
25
2 5
12 11
4 15
7 2
8 12
7 22
9 10
8 0
3 6
7 2
10 23
12 4
8 12
7 10
11 26
12 18
5 24
0 9
6 27
9 15
7 7
3 27
1 18
6 13
9 16
18 23

12 14
8
2 1
7 2
11 7
2 6
8 1
4 12
8 5
3 13
22 16

29 11
18
8 10
15 2
2 3
15 8
21 9
13 1
5 9
10 1
27 6
16 6
16 4
4 5
17 9
5 5
23 4
5 6
7 5
14 7
25 19

16 9
24
15 4
0 8
2 4
6 0
2 3
3 1
13 8
8 3
1 0
11 4
9 4
11 8
2 2
7 4
15 8
1 0
7 1
1 3
1 1
7 3
14 3
0 5
5 2
12 8
16 30

20 29
12
8 19
4 16
15 22
7 15
5 23
14 0
18 19
1 20
5 1
19 23
8 22
5 22
23 29

11 23
25
9 8
4 6
10 12
3 14
2 22
0 21
9 4
2 3
8 11
3 7
3 5
2 2
2 17
9 17
1 3
3 4
10 17
10 7
7 2
1 14
6 15
9 21
4 7
10 15
2 2
22 29

23 28
15
21 27
17 21
11 26
4 4
2 14
10 6
20 1
17 9
13 10
12 16
14 6
18 10
7 15
13 18
9 27
17 5

12 19
25
11 18
11 6
8 11
8 2
5 13
8 1
1 6
11 10
8 16
10 6
9 15
10 4
8 15
11 11
2 10
5 3
1 11
3 14
4 2
9 2
1 11
8 16
11 6
10 15
8 12
17 27

22 6
19
5 0
13 1
3 4
1 2
9 0
12 2
0 3
16 4
6 0
18 1
1 3
3 4
3 0
12 3
7 1
8 2
7 3
2 1
19 5
9 26

7 14
26
6 8
1 10
1 2
4 10
6 3
0 12
2 9
6 2
5 4
2 9
3 4
4 0
0 6
0 5
0 12
2 10
2 13
4 9
1 2
2 2
1 1
5 2
4 2
5 9
4 7
1 0
12 7

30 16
24
8 0
14 13
2 15
2 0
5 13
7 5
5 2
6 1
3 5
1 8
6 2
1 11
25 12
4 9
25 10
15 6
23 4
12 12
27 9
20 2
17 15
9 5
8 12
21 7
14 13

8 12
22
1 3
2 8
0 10
6 7
1 8
4 11
6 2
0 3
7 10
1 1
4 0
1 9
1 10
5 2
4 4
4 6
5 11
1 5
1 11
0 7
3 3
4 9
28 6

25 26
28
19 13
23 6
15 13
15 24
9 6
16 12
5 11
15 0
23 5
4 5
17 6
0 1
21 7
16 2
4 5
22 16
23 7
16 4
10 5
0 15
18 12
19 20
0 14
24 18
16 18
1 6
14 14
17 3
20 10

27 15
26
20 13
5 0
10 12
9 0
17 13
25 9
3 9
25 13
15 11
8 11
6 11
2 12
20 14
24 2
2 2
5 2
11 3
0 11
7 11
22 5
4 1
26 7
0 8
21 5
7 3
1 14
13 7

12 13
26
6 10
7 0
7 2
10 5
1 2
2 7
11 7
1 0
3 5
9 12
6 1
3 6
9 1
9 2
0 7
2 4
1 5
6 4
7 6
2 9
1 6
10 1
11 9
0 12
1 4
3 9
20 19

24 21
8
19 5
15 15
13 7
9 17
11 13
16 16
14 15
12 3
16 7

11 10
15
3 4
9 3
5 3
4 4
10 9
5 6
7 5
4 9
9 3
8 4
0 8
8 9
10 6
4 2
0 0
17 11

25 29
28
22 11
18 19
0 4
24 21
9 16
14 16
7 9
19 26
10 27
11 10
16 5
13 19
14 9
24 6
1 16
4 12
4 15
12 15
4 4
11 19
8 23
9 22
11 14
11 27
13 13
18 14
23 22
9 14
13 13
