*** Life<ConwayCell> 5x13 ***

Generation = 0, Population = 11.
.*...*....*..
.....*.*.....
....**.....**
...*.........
....*........

*** Life<ConwayCell> 14x5 ***

Generation = 0, Population = 10.
.....
...*.
.....
...*.
..*..
....*
...*.
.....
*.*..
.....
.....
....*
.....
.*..*

*** Life<ConwayCell> 4x6 ***

Generation = 0, Population = 11.
*..***
*...**
*....*
...**.

*** Life<ConwayCell> 1x1 ***

Generation = 0, Population = 1.
*

*** Life<ConwayCell> 6x16 ***

Generation = 0, Population = 13.
..........*.....
......*..**.....
............**..
...*.*....*.....
............**..
........*.....*.

*** Life<ConwayCell> 5x1 ***

Generation = 0, Population = 5.
*
*
*
*
*

*** Life<ConwayCell> 8x12 ***

Generation = 0, Population = 1.
............
.......*....
............
............
............
............
............
............

*** Life<ConwayCell> 6x10 ***

Generation = 0, Population = 7.
...*......
.*........
...*......
.....*....
....*.....
..**......

*** Life<ConwayCell> 11x17 ***

Generation = 0, Population = 7.
.................
.*.....*.........
.................
.................
.................
..*..............
.*...*...........
.....*...........
............*....
.................
.................

Generation = 5, Population = 0.
.................
.................
.................
.................
.................
.................
.................
.................
.................
.................
.................

Generation = 10, Population = 0.
.................
.................
.................
.................
.................
.................
.................
.................
.................
.................
.................

Generation = 15, Population = 0.
.................
.................
.................
.................
.................
.................
.................
.................
.................
.................
.................

*** Life<ConwayCell> 6x15 ***

Generation = 0, Population = 3.
...............
...*...........
...............
........*......
...............
.*.............

*** Life<ConwayCell> 12x7 ***

Generation = 0, Population = 3.
.....*.
.....*.
....*..
.......
.......
.......
.......
.......
.......
.......
.......
.......

*** Life<ConwayCell> 6x18 ***

Generation = 0, Population = 15.
*........*........
.**..**........*.*
............*..*..
.............*....
.........*........
...*...*......*...

*** Life<ConwayCell> 7x19 ***

Generation = 0, Population = 19.
*.......*.*.......*
......*.....*..*.*.
......*.....*......
...................
*.*...*..*.......*.
.........*.....*...
.....*.....*.......

*** Life<ConwayCell> 9x14 ***

Generation = 0, Population = 17.
..........*..*
..........**..
....*.........
.*...........*
............*.
*........*...*
*.*...........
**......*.....
.*............

Generation = 3, Population = 7.
..........**..
..........**..
..............
..............
..............
..............
..............
*.............
**............

Generation = 6, Population = 8.
..........**..
..........**..
..............
..............
..............
..............
..............
**............
**............

Generation = 9, Population = 8.
..........**..
..........**..
..............
..............
..............
..............
..............
**............
**............

Generation = 12, Population = 8.
..........**..
..........**..
..............
..............
..............
..............
..............
**............
**............

Generation = 15, Population = 8.
..........**..
..........**..
..............
..............
..............
..............
..............
**............
**............

Generation = 18, Population = 8.
..........**..
..........**..
..............
..............
..............
..............
..............
**............
**............

*** Life<ConwayCell> 18x9 ***

Generation = 0, Population = 5.
.........
.........
.........
.........
.........
.........
.........
.........
..*......
.........
.........
....*....
.........
.........
.*.......
.........
.**......
.........

*** Life<ConwayCell> 20x17 ***

Generation = 0, Population = 1.
.................
.................
.................
.................
.................
.................
.....*...........
.................
.................
.................
.................
.................
.................
.................
.................
.................
.................
.................
.................
.................

*** Life<ConwayCell> 17x6 ***

Generation = 0, Population = 18.
.*..*.
..*...
..*..*
..*...
......
..*...
......
.***..
....*.
......
......
..*...
......
...**.
*.*...
..*...
.....*

*** Life<ConwayCell> 7x20 ***

Generation = 0, Population = 16.
...*..............*.
.....*.....*.......*
**..........*.*.....
...*................
*........*..........
....................
...*.*......*....*..

*** Life<ConwayCell> 6x14 ***

Generation = 0, Population = 8.
......*...**..
*.............
.............*
..*...........
......*.......
........*.....

*** Life<ConwayCell> 11x10 ***

Generation = 0, Population = 8.
.....*....
........**
..........
..........
..**......
.*........
..........
..........
...*......
.........*
..........

*** Life<ConwayCell> 8x5 ***

Generation = 0, Population = 13.
**.*.
.....
..***
..*..
*.*..
..*..
...*.
..**.

*** Life<ConwayCell> 4x15 ***

Generation = 0, Population = 15.
..**.....*...**
**.*........**.
****.........*.
...............

*** Life<ConwayCell> 1x17 ***

Generation = 0, Population = 5.
.....*.*.*.*.*...

Generation = 6, Population = 0.
.................

*** Life<ConwayCell> 10x16 ***

Generation = 0, Population = 15.
................
................
...*......*.....
....*.*..*.....*
........*.....*.
................
...*.........*..
..........*.....
................
...*..**.*......

*** Life<ConwayCell> 17x10 ***

Generation = 0, Population = 11.
..........
..........
.....*....
........*.
..........
...*......
..*.......
....*.....
......*...
.*........
..........
..........
....*.....
.........*
......*...
..........
*.........

*** Life<ConwayCell> 7x7 ***

Generation = 0, Population = 11.
......*
.*.*...
..*.*..
.*..**.
*....*.
*......
.......

*** Life<ConwayCell> 12x3 ***

Generation = 0, Population = 15.
*.*
*.*
*..
..*
.*.
.*.
...
*..
***
*..
...
**.

*** Life<ConwayCell> 10x8 ***

Generation = 0, Population = 9.
......*.
........
....*...
..*.....
........
........
.....*..
........
*...**..
**......
