24

35 43
16
1 36
8 38
1 17
14 13
16 11
33 5
20 21
24 42
19 8
11 26
31 25
13 29
3 24
30 38
9 23
7 32
333 125

18 18
11
10 13
3 9
5 10
5 6
2 3
7 15
9 9
16 11
0 6
11 4
10 8
24 40

27 34
11
9 28
23 16
17 25
2 19
24 4
2 28
20 6
7 13
2 8
19 10
21 14
237 7

13 30
10
9 21
7 11
9 22
8 0
9 24
1 13
5 6
5 17
2 6
3 25
290 18

41 43
18
29 5
19 29
24 1
3 16
33 4
12 42
31 24
34 18
36 40
35 19
21 2
37 30
14 39
6 1
33 0
18 25
15 37
6 41
291 156

27 14
18
6 5
17 2
19 1
21 8
23 2
9 9
1 13
16 6
16 7
0 6
16 0
9 12
24 3
8 2
18 7
4 12
5 9
2 5
358 4

35 26
15
23 6
31 25
27 7
27 20
20 15
3 25
3 22
4 14
8 16
0 23
31 12
15 15
3 23
2 12
14 5
251 180

14 45
13
3 1
5 13
0 34
4 2
13 18
9 9
7 32
6 26
12 43
3 35
0 7
13 40
7 1
235 92

29 22
15
11 20
10 19
6 8
3 18
26 14
12 14
20 2
15 6
27 19
8 7
26 5
22 17
15 12
7 5
12 10
127 185

33 42
18
23 39
18 4
4 8
9 17
19 28
10 23
23 39
24 4
5 23
32 12
3 25
21 4
5 39
27 23
31 34
19 14
31 13
8 35
150 144

22 41
14
1 6
15 0
21 5
2 1
21 29
11 20
0 2
0 30
19 25
7 9
5 38
15 37
9 40
0 2
217 132

50 35
18
46 30
10 24
28 22
15 4
25 14
8 14
45 27
45 10
13 32
46 3
18 18
45 13
39 25
37 28
47 24
3 6
47 29
4 6
310 75

33 26
20
16 13
26 3
7 9
6 5
22 13
20 11
17 20
0 19
19 7
12 13
3 5
8 9
22 16
27 1
6 20
4 20
18 24
18 2
2 14
20 2
123 60

17 38
16
8 13
3 28
10 13
1 15
8 9
10 31
0 36
7 15
3 32
14 37
0 1
3 14
4 35
9 4
4 37
8 11
354 163

23 49
10
21 37
2 7
12 8
10 23
12 6
10 30
8 16
4 0
19 27
3 5
91 130

23 28
16
10 12
5 24
11 6
17 12
4 21
22 11
12 17
4 27
16 13
18 17
15 18
3 25
5 17
1 27
14 22
5 15
274 6

21 29
17
16 27
13 0
18 6
5 22
4 26
7 19
2 24
10 19
11 6
11 17
18 14
5 9
1 7
5 4
8 27
19 3
20 16
150 83

48 29
13
16 7
36 25
37 12
10 6
47 0
42 20
5 0
8 4
8 5
6 9
20 9
19 5
19 8
181 94

44 32
12
3 22
39 12
10 11
27 9
41 20
9 28
20 17
40 18
16 28
29 3
35 11
10 1
160 136

12 42
12
3 11
3 8
4 4
2 0
8 10
8 10
11 11
0 40
2 1
2 13
11 16
8 2
211 164

28 28
11
12 16
22 22
14 16
12 1
0 23
17 11
5 23
22 14
20 23
4 8
10 25
291 19

30 50
14
2 5
14 11
14 6
21 27
18 11
14 41
21 43
11 23
16 30
8 45
0 28
22 7
7 34
26 34
163 102

24 33
14
14 23
12 20
13 24
7 24
9 19
20 10
17 7
10 30
19 28
12 25
17 20
14 25
20 21
19 10
247 4

43 16
19
18 13
13 4
3 2
24 0
2 8
34 13
24 14
37 3
41 7
28 6
0 1
0 4
22 15
17 3
25 1
24 10
17 0
33 11
20 7
214 128
